Type;Tilbudskurs;Aktuel kurs;Udbetalingskurs Fastkursaftale til 19.11.2019;Udbetalingskurs Fastkursaftale til 30.12.2019;Udbetalingskurs Fastkursaftale til 31.03.2020
10 år -0,50 %;96.72;96.6;96.55;96.5;96.4
10 år 0,00 %;100.15;100.12;100.05;99.95;99.7
10 år 0,50 %;101.45;101.38;101.3;101.1;100.75
15 år 0,50 %;100.92;100.83;100.7;100.55;100.2
15 år 1,00 %;102.15;102.17;102.05;101.8;101.3
20 år 0,00 %;94.14;93.9;93.85;93.75;93.5
20 år 0,50 %;98.09;97.85;97.75;97.6;97.2
20 år 1,00 %;101.45;101.32;101.2;100.95;100.45
20 år 1,50 %;102.7;102.7;102.55;102.25;101.65
30 år 0,50 %;94.86;94.55;94.45;94.3;93.95
30 år 0,50 % afdragsfri*;93.83;93.58;93.5;93.3;92.95
30 år 1,00 %;98.78;98.6;98.45;98.25;97.75
30 år 1,00 % afdragsfri*;97.84;97.65;97.5;97.3;96.8
30 år 1,50 %;101.75;101.45;101.3;101.0;100.4
30 år 1,50 % afdragsfri*;101.69;101.15;101.0;100.7;100.1
30 år 2,00 %;102.7;102.71;102.55;102.2;101.45
30 år 2,00 % afdragsfri*;102.35;102.43;102.25;101.9;101.15
30 år 2,50 %;103.1;103.1;102.9;102.5;101.6
30 år 2,50 % afdragsfri*;102.95;102.92;102.7;102.3;101.45
