Type;Tilbudskurs;Aktuel kurs;Udbetalingskurs Fastkursaftale til 19.11.2019;Udbetalingskurs Fastkursaftale til 30.12.2019;Udbetalingskurs Fastkursaftale til 31.03.2020
10 år -0,50 %;96.72;96.42;96.4;96.35;96.2
10 år 0,00 %;100.15;99.95;99.85;99.75;99.5
10 år 0,50 %;101.45;101.3;101.2;101.05;100.65
15 år 0,50 %;100.92;100.7;100.6;100.45;100.05
15 år 1,00 %;102.15;101.97;101.85;101.6;101.1
20 år 0,00 %;94.14;93.73;93.65;93.55;93.35
20 år 0,50 %;98.09;97.62;97.55;97.35;97.0
20 år 1,00 %;101.45;101.19;101.05;100.85;100.35
20 år 1,50 %;102.7;102.6;102.45;102.15;101.55
30 år 0,50 %;94.86;94.3;94.2;94.05;93.7
30 år 0,50 % afdragsfri*;93.83;93.37;93.25;93.1;92.75
30 år 1,00 %;98.78;98.4;98.25;98.05;97.55
30 år 1,00 % afdragsfri*;97.84;97.42;97.3;97.1;96.6
30 år 1,50 %;101.75;101.33;101.15;100.9;100.25
30 år 1,50 % afdragsfri*;101.69;101.01;100.85;100.6;99.95
30 år 2,00 %;102.7;102.61;102.45;102.1;101.35
30 år 2,00 % afdragsfri*;102.35;102.28;102.1;101.75;101.0
30 år 2,50 %;103.1;102.95;102.75;102.35;101.45
30 år 2,50 % afdragsfri*;102.95;102.8;102.6;102.2;101.3
