Type;Tilbudskurs;Aktuel kurs;Udbetalingskurs Fastkursaftale til 27.12.2019;Udbetalingskurs Fastkursaftale til 30.12.2019;Udbetalingskurs Fastkursaftale til 31.03.2020
10 år -0,50 %;96.4;96.4;96.35;96.35;96.25
10 år 0,00 %;99.71;99.7;99.6;99.6;99.35
10 år 0,50 %;100.92;100.89;100.8;100.75;100.4
15 år 0,50 %;100.6;100.6;100.5;100.45;100.1
15 år 1,00 %;101.92;101.91;101.75;101.75;101.25
20 år 0,00 %;93.5;93.7;93.6;93.6;93.4
20 år 0,50 %;97.53;97.62;97.5;97.5;97.15
20 år 1,00 %;100.94;101.01;100.85;100.85;100.35
20 år 1,50 %;102.53;102.53;102.35;102.35;101.7
30 år 0,50 %;94.3;94.47;94.35;94.35;94.0
30 år 0,50 % afdragsfri*;93.4;93.55;93.45;93.45;93.05
30 år 1,00 %;98.49;98.47;98.35;98.3;97.8
30 år 1,00 % afdragsfri*;97.62;97.62;97.5;97.45;97.0
30 år 1,50 %;101.19;101.12;100.95;100.95;100.3
30 år 1,50 % afdragsfri*;100.85;100.65;100.5;100.45;99.85
30 år 2,00 %;102.25;102.25;102.05;102.0;101.25
30 år 2,00 % afdragsfri*;101.72;101.72;101.5;101.5;100.75
30 år 2,50 %;102.8;102.8;102.55;102.55;101.65
30 år 2,50 % afdragsfri*;102.39;102.34;102.1;102.1;101.2
