Type;Tilbudskurs;Aktuel kurs;Udbetalingskurs Fastkursaftale til 08.11.2019;Udbetalingskurs Fastkursaftale til 30.12.2019;Udbetalingskurs Fastkursaftale til 31.03.2020
10 år -0,50 %;96.8;96.65;96.6;96.55;96.45
10 år 0,00 %;100.35;100.2;100.15;100.0;99.75
10 år 0,50 %;101.5;101.4;101.3;101.1;100.7
15 år 0,50 %;101.1;100.95;100.85;100.65;100.25
15 år 1,00 %;102.28;102.08;101.95;101.7;101.15
20 år 0,00 %;94.43;94.12;94.05;93.9;93.7
20 år 0,50 %;98.42;98.12;98.05;97.8;97.45
20 år 1,00 %;101.55;101.41;101.3;101.0;100.5
20 år 1,50 %;102.7;102.55;102.4;102.05;101.45
30 år 0,50 %;95.06;94.75;94.65;94.45;94.1
30 år 0,50 % afdragsfri*;94.01;93.87;93.8;93.6;93.2
30 år 1,00 %;99.03;98.8;98.7;98.4;97.9
30 år 1,00 % afdragsfri*;98.02;97.9;97.8;97.5;97.0
30 år 1,50 %;101.95;101.75;101.6;101.25;100.65
30 år 1,50 % afdragsfri*;101.95;101.58;101.45;101.1;100.45
30 år 2,00 %;102.78;102.62;102.45;102.05;101.3
30 år 2,00 % afdragsfri*;102.35;102.25;102.1;101.65;100.9
30 år 2,50 %;103.15;102.95;102.75;102.25;101.4
30 år 2,50 % afdragsfri*;103.04;102.89;102.7;102.2;101.35
