Type;Tilbudskurs;Aktuel kurs;Udbetalingskurs Fastkursaftale til 08.11.2019;Udbetalingskurs Fastkursaftale til 30.12.2019;Udbetalingskurs Fastkursaftale til 31.03.2020
10 år -0,50 %;96.8;96.8;96.75;96.7;96.6
10 år 0,00 %;100.35;100.35;100.3;100.15;99.9
10 år 0,50 %;101.5;101.55;101.45;101.25;100.85
15 år 0,50 %;101.1;101.1;101.0;100.8;100.4
15 år 1,00 %;102.28;102.22;102.1;101.85;101.3
20 år 0,00 %;94.43;94.27;94.2;94.05;93.85
20 år 0,50 %;98.42;98.3;98.2;98.0;97.65
20 år 1,00 %;101.55;101.56;101.45;101.15;100.65
20 år 1,50 %;102.7;102.7;102.55;102.2;101.6
30 år 0,50 %;95.06;94.9;94.8;94.6;94.25
30 år 0,50 % afdragsfri*;94.01;94.02;93.95;93.75;93.35
30 år 1,00 %;99.03;99.0;98.9;98.6;98.1
30 år 1,00 % afdragsfri*;98.02;98.05;97.95;97.65;97.15
30 år 1,50 %;101.95;101.9;101.75;101.4;100.8
30 år 1,50 % afdragsfri*;101.95;101.72;101.6;101.25;100.6
30 år 2,00 %;102.78;102.78;102.6;102.2;101.45
30 år 2,00 % afdragsfri*;102.35;102.4;102.25;101.8;101.05
30 år 2,50 %;103.15;103.1;102.9;102.4;101.55
30 år 2,50 % afdragsfri*;103.04;103.04;102.85;102.35;101.5
