Type;Tilbudskurs;Aktuel kurs;Udbetalingskurs Fastkursaftale til 07.11.2019;Udbetalingskurs Fastkursaftale til 30.12.2019;Udbetalingskurs Fastkursaftale til 31.03.2020
10 år -0,50 %;97.01;96.65;96.6;96.55;96.45
10 år 0,00 %;100.4;100.2;100.15;100.0;99.75
10 år 0,50 %;101.58;101.4;101.3;101.1;100.7
15 år 0,50 %;101.35;100.97;100.9;100.65;100.3
15 år 1,00 %;102.35;102.16;102.05;101.75;101.25
20 år 0,00 %;94.5;94.15;94.1;93.95;93.7
20 år 0,50 %;98.59;98.2;98.1;97.9;97.55
20 år 1,00 %;101.72;101.42;101.3;101.0;100.5
20 år 1,50 %;102.75;102.55;102.4;102.05;101.4
30 år 0,50 %;95.07;94.85;94.75;94.55;94.2
30 år 0,50 % afdragsfri*;94.22;93.95;93.85;93.65;93.3
30 år 1,00 %;99.18;98.92;98.8;98.55;98.05
30 år 1,00 % afdragsfri*;98.27;97.93;97.8;97.55;97.05
30 år 1,50 %;102.2;101.77;101.65;101.25;100.65
30 år 1,50 % afdragsfri*;101.9;101.6;101.45;101.1;100.45
30 år 2,00 %;102.75;102.62;102.45;102.05;101.25
30 år 2,00 % afdragsfri*;102.65;102.25;102.1;101.65;100.9
30 år 2,50 %;103.15;103.0;102.8;102.3;101.45
30 år 2,50 % afdragsfri*;103.04;102.89;102.7;102.2;101.3
