Type;Tilbudskurs;Aktuel kurs;Udbetalingskurs Fastkursaftale til 15.11.2019;Udbetalingskurs Fastkursaftale til 30.12.2019;Udbetalingskurs Fastkursaftale til 31.03.2020
10 år -0,50 %;96.82;96.7;96.65;96.6;96.5
10 år 0,00 %;100.22;100.22;100.15;100.05;99.8
10 år 0,50 %;101.47;101.47;101.4;101.2;100.8
15 år 0,50 %;101.1;100.95;100.85;100.7;100.3
15 år 1,00 %;102.2;102.2;102.1;101.85;101.35
20 år 0,00 %;93.95;94.33;94.25;94.15;93.9
20 år 0,50 %;98.06;98.22;98.15;97.95;97.6
20 år 1,00 %;101.45;101.45;101.35;101.1;100.6
20 år 1,50 %;102.67;102.72;102.6;102.3;101.65
30 år 0,50 %;94.58;94.9;94.8;94.65;94.3
30 år 0,50 % afdragsfri*;93.74;93.97;93.9;93.7;93.35
30 år 1,00 %;98.8;98.95;98.85;98.6;98.1
30 år 1,00 % afdragsfri*;97.86;98.03;97.9;97.65;97.2
30 år 1,50 %;101.65;101.67;101.55;101.25;100.6
30 år 1,50 % afdragsfri*;101.57;101.4;101.25;100.95;100.35
30 år 2,00 %;102.72;102.72;102.55;102.2;101.45
30 år 2,00 % afdragsfri*;102.6;102.38;102.2;101.85;101.1
30 år 2,50 %;103.1;103.1;102.9;102.5;101.6
30 år 2,50 % afdragsfri*;102.97;102.95;102.75;102.35;101.45
