Type;Tilbudskurs;Aktuel kurs;Udbetalingskurs Fastkursaftale til 11.10.2019;Udbetalingskurs Fastkursaftale til 30.12.2019;Udbetalingskurs Fastkursaftale til 31.03.2020
10 år -0,50 %;97.68;97.38;97.35;97.25;97.1
10 år 0,00 %;100.6;100.4;100.35;100.1;99.85
10 år 0,50 %;101.8;101.65;101.55;101.25;100.85
15 år 0,50 %;101.28;101.15;101.05;100.75;100.35
15 år 1,00 %;102.33;102.14;102.0;101.6;101.1
20 år 0,00 %;95.3;95.08;95.0;94.8;94.55
20 år 0,50 %;99.09;98.68;98.6;98.25;97.9
20 år 1,00 %;101.5;101.35;101.25;100.8;100.3
20 år 1,50 %;102.35;102.2;102.05;101.5;100.9
30 år 0,50 %;95.86;95.45;95.35;95.05;94.7
30 år 0,50 % afdragsfri*;95.02;94.47;94.4;94.1;93.7
30 år 1,00 % afdragsfri*;99.09;98.6;98.5;98.05;97.55
30 år 1,00 %;99.88;99.35;99.25;98.8;98.3
30 år 1,50 %;101.92;101.62;101.5;100.95;100.3
30 år 1,50 % afdragsfri*;101.9;101.58;101.45;100.9;100.25
30 år 2,00 %;102.15;101.84;101.7;101.05;100.25
30 år 2,00 % afdragsfri*;101.74;101.65;101.5;100.85;100.1
30 år 2,50 %;102.0;101.85;101.65;100.9;100.0
30 år 2,50 % afdragsfri*;102.2;102.05;101.85;101.1;100.2
