Type;Tilbudskurs;Aktuel kurs;Udbetalingskurs Fastkursaftale til 14.10.2019;Udbetalingskurs Fastkursaftale til 30.12.2019;Udbetalingskurs Fastkursaftale til 31.03.2020
10 år -0,50 %;97.59;97.38;97.35;97.25;97.1
10 år 0,00 %;100.6;100.4;100.3;100.1;99.9
10 år 0,50 %;101.8;101.65;101.55;101.25;100.85
15 år 0,50 %;101.33;101.15;101.05;100.75;100.35
15 år 1,00 %;102.28;102.14;102.0;101.6;101.1
20 år 0,00 %;95.18;95.08;95.0;94.8;94.6
20 år 0,50 %;98.97;98.68;98.6;98.25;97.9
20 år 1,00 %;101.58;101.35;101.2;100.8;100.3
20 år 1,50 %;102.35;102.2;102.05;101.5;100.9
30 år 0,50 %;95.62;95.45;95.35;95.05;94.7
30 år 0,50 % afdragsfri*;94.9;94.47;94.4;94.1;93.7
30 år 1,00 % afdragsfri*;98.92;98.6;98.45;98.05;97.55
30 år 1,00 %;99.84;99.35;99.2;98.8;98.3
30 år 1,50 %;101.75;101.62;101.45;100.95;100.3
30 år 1,50 % afdragsfri*;101.94;101.58;101.4;100.9;100.25
30 år 2,00 %;101.97;101.84;101.65;101.05;100.3
30 år 2,00 % afdragsfri*;101.76;101.65;101.45;100.85;100.1
30 år 2,50 %;102.0;101.85;101.65;100.9;100.05
30 år 2,50 % afdragsfri*;102.2;102.05;101.85;101.1;100.25
