Type;Tilbudskurs;Aktuel kurs;Udbetalingskurs Fastkursaftale til 23.12.2019;Udbetalingskurs Fastkursaftale til 30.12.2019;Udbetalingskurs Fastkursaftale til 31.03.2020
10 år -0,50 %;96.5;96.22;96.2;96.15;96.05
10 år 0,00 %;99.79;99.55;99.45;99.45;99.2
10 år 0,50 %;101.0;100.74;100.65;100.6;100.25
15 år 0,50 %;100.75;100.45;100.35;100.3;99.95
15 år 1,00 %;102.03;101.76;101.65;101.6;101.1
20 år 0,00 %;93.95;93.33;93.25;93.25;93.0
20 år 0,50 %;97.95;97.35;97.25;97.2;96.85
20 år 1,00 %;101.01;100.79;100.65;100.6;100.15
20 år 1,50 %;102.6;102.38;102.2;102.15;101.55
30 år 0,50 %;94.87;94.12;94.05;94.0;93.65
30 år 0,50 % afdragsfri*;93.85;93.2;93.1;93.1;92.7
30 år 1,00 %;98.91;98.15;98.0;98.0;97.5
30 år 1,00 % afdragsfri*;98.03;97.3;97.15;97.15;96.65
30 år 1,50 %;101.48;100.9;100.75;100.7;100.05
30 år 1,50 % afdragsfri*;100.75;100.4;100.25;100.2;99.6
30 år 2,00 %;102.25;102.1;101.9;101.85;101.1
30 år 2,00 % afdragsfri*;101.72;101.58;101.4;101.35;100.6
30 år 2,50 %;102.8;102.65;102.45;102.4;101.5
30 år 2,50 % afdragsfri*;102.39;102.25;102.05;101.95;101.1
