Type;Tilbudskurs;Aktuel kurs;Udbetalingskurs Fastkursaftale til 09.12.2019;Udbetalingskurs Fastkursaftale til 30.12.2019;Udbetalingskurs Fastkursaftale til 31.03.2020
10 år -0,50 %;96.53;96.38;96.35;96.3;96.2
10 år 0,00 %;99.8;99.65;99.55;99.5;99.3
10 år 0,50 %;101.1;100.95;100.85;100.75;100.4
15 år 0,50 %;100.65;100.5;100.4;100.3;99.95
15 år 1,00 %;102.12;101.92;101.8;101.7;101.2
20 år 0,00 %;93.67;93.5;93.45;93.4;93.15
20 år 0,50 %;97.72;97.55;97.45;97.35;97.0
20 år 1,00 %;101.02;100.83;100.7;100.6;100.1
20 år 1,50 %;102.65;102.5;102.35;102.2;101.55
30 år 0,50 %;94.62;94.3;94.2;94.1;93.75
30 år 0,50 % afdragsfri*;93.55;93.35;93.25;93.15;92.8
30 år 1,00 %;98.61;98.33;98.2;98.1;97.6
30 år 1,00 % afdragsfri*;97.71;97.4;97.25;97.15;96.65
30 år 1,50 %;101.25;100.95;100.8;100.65;100.05
30 år 1,50 % afdragsfri*;100.92;100.53;100.35;100.25;99.6
30 år 2,00 %;102.4;102.25;102.05;101.9;101.15
30 år 2,00 % afdragsfri*;102.09;101.81;101.65;101.45;100.7
30 år 2,50 %;103.0;102.85;102.65;102.45;101.55
30 år 2,50 % afdragsfri*;102.48;102.33;102.15;101.95;101.05
