Type;Tilbudskurs;Aktuel kurs;Udbetalingskurs Fastkursaftale til 22.10.2019;Udbetalingskurs Fastkursaftale til 30.12.2019;Udbetalingskurs Fastkursaftale til 31.03.2020
10 år -0,50 %;97.53;97.3;97.25;97.15;97.05
10 år 0,00 %;100.6;100.55;100.45;100.3;100.05
10 år 0,50 %;101.8;101.75;101.65;101.35;101.0
15 år 0,50 %;101.6;101.42;101.3;101.05;100.65
15 år 1,00 %;102.45;102.45;102.3;101.95;101.45
20 år 0,00 %;96.0;95.72;95.65;95.5;95.25
20 år 0,50 %;99.83;99.65;99.55;99.25;98.9
20 år 1,00 %;102.06;101.85;101.7;101.35;100.85
20 år 1,50 %;102.73;102.73;102.6;102.1;101.5
30 år 0,50 %;96.83;96.4;96.3;96.05;95.65
30 år 0,50 % afdragsfri*;95.87;95.45;95.35;95.1;94.7
30 år 1,00 % afdragsfri*;99.96;99.72;99.6;99.2;98.75
30 år 1,00 %;100.74;100.4;100.25;99.9;99.4
30 år 1,50 %;102.3;102.28;102.1;101.65;101.05
30 år 1,50 % afdragsfri*;102.22;102.12;101.95;101.5;100.9
30 år 2,00 %;102.6;102.6;102.4;101.85;101.1
30 år 2,00 % afdragsfri*;102.35;102.35;102.15;101.6;100.85
30 år 2,50 %;103.15;103.15;102.95;102.3;101.4
30 år 2,50 % afdragsfri*;103.16;103.16;102.95;102.3;101.4
