Type;Tilbudskurs;Aktuel kurs;Udbetalingskurs Fastkursaftale til 02.12.2019;Udbetalingskurs Fastkursaftale til 30.12.2019;Udbetalingskurs Fastkursaftale til 31.03.2020
10 år -0,50 %;96.35;96.2;96.15;96.1;96.0
10 år 0,00 %;99.88;99.7;99.6;99.55;99.3
10 år 0,50 %;101.18;101.0;100.9;100.8;100.4
15 år 0,50 %;100.6;100.38;100.25;100.15;99.8
15 år 1,00 %;102.0;101.8;101.65;101.5;101.0
20 år 0,00 %;93.33;93.1;93.05;92.95;92.75
20 år 0,50 %;97.4;97.12;97.05;96.9;96.55
20 år 1,00 %;101.17;100.72;100.6;100.45;99.95
20 år 1,50 %;102.7;102.53;102.4;102.2;101.55
30 år 0,50 %;94.22;93.85;93.75;93.65;93.3
30 år 0,50 % afdragsfri*;93.35;92.9;92.8;92.7;92.35
30 år 1,00 %;98.21;97.9;97.75;97.65;97.15
30 år 1,00 % afdragsfri*;97.14;96.92;96.8;96.65;96.15
30 år 1,50 %;101.11;100.9;100.75;100.55;99.95
30 år 1,50 % afdragsfri*;100.87;100.43;100.3;100.1;99.45
30 år 2,00 %;102.45;102.3;102.1;101.9;101.15
30 år 2,00 % afdragsfri*;102.01;101.86;101.7;101.45;100.7
30 år 2,50 %;103.0;102.85;102.65;102.4;101.5
30 år 2,50 % afdragsfri*;102.55;102.4;102.2;101.95;101.05
