Type;Tilbudskurs;Aktuel kurs;Udbetalingskurs Fastkursaftale til 14.11.2019;Udbetalingskurs Fastkursaftale til 30.12.2019;Udbetalingskurs Fastkursaftale til 31.03.2020
10 år -0,50 %;96.78;96.67;96.65;96.55;96.45
10 år 0,00 %;100.25;100.22;100.15;100.05;99.8
10 år 0,50 %;101.47;101.47;101.4;101.2;100.8
15 år 0,50 %;101.03;100.95;100.85;100.65;100.3
15 år 1,00 %;102.2;102.2;102.1;101.85;101.35
20 år 0,00 %;94.24;94.17;94.1;94.0;93.75
20 år 0,50 %;98.23;98.1;98.0;97.85;97.45
20 år 1,00 %;101.45;101.51;101.4;101.15;100.65
20 år 1,50 %;102.67;102.67;102.55;102.2;101.6
30 år 0,50 %;94.92;94.78;94.7;94.5;94.15
30 år 0,50 % afdragsfri*;93.88;93.83;93.75;93.55;93.2
30 år 1,00 %;98.92;98.83;98.7;98.45;97.95
30 år 1,00 % afdragsfri*;98.02;97.88;97.75;97.5;97.0
30 år 1,50 %;101.7;101.65;101.5;101.2;100.55
30 år 1,50 % afdragsfri*;101.59;101.4;101.25;100.95;100.3
30 år 2,00 %;102.9;102.72;102.55;102.2;101.45
30 år 2,00 % afdragsfri*;102.38;102.38;102.2;101.85;101.1
30 år 2,50 %;103.1;103.1;102.9;102.45;101.6
30 år 2,50 % afdragsfri*;102.97;102.97;102.8;102.35;101.45
