Type;Tilbudskurs;Aktuel kurs;Udbetalingskurs Fastkursaftale til 14.11.2019;Udbetalingskurs Fastkursaftale til 30.12.2019;Udbetalingskurs Fastkursaftale til 31.03.2020
10 år -0,50 %;96.78;96.55;96.5;96.45;96.35
10 år 0,00 %;100.25;100.1;100.05;99.9;99.65
10 år 0,50 %;101.47;101.32;101.25;101.05;100.65
15 år 0,50 %;101.03;100.85;100.75;100.55;100.2
15 år 1,00 %;102.2;102.1;102.0;101.75;101.25
20 år 0,00 %;94.24;93.95;93.9;93.75;93.55
20 år 0,50 %;98.23;97.95;97.85;97.7;97.3
20 år 1,00 %;101.45;101.27;101.15;100.9;100.4
20 år 1,50 %;102.67;102.58;102.45;102.15;101.5
30 år 0,50 %;94.92;94.6;94.5;94.35;93.95
30 år 0,50 % afdragsfri*;93.88;93.65;93.55;93.4;93.05
30 år 1,00 %;98.92;98.62;98.5;98.25;97.75
30 år 1,00 % afdragsfri*;98.02;97.7;97.6;97.35;96.85
30 år 1,50 %;101.7;101.55;101.4;101.1;100.45
30 år 1,50 % afdragsfri*;101.59;101.3;101.15;100.85;100.2
30 år 2,00 %;102.9;102.58;102.4;102.05;101.3
30 år 2,00 % afdragsfri*;102.38;102.22;102.05;101.7;100.95
30 år 2,50 %;103.1;102.95;102.75;102.3;101.45
30 år 2,50 % afdragsfri*;102.97;102.82;102.65;102.2;101.3
