Type;Tilbudskurs;Aktuel kurs;Udbetalingskurs Fastkursaftale til 14.11.2019;Udbetalingskurs Fastkursaftale til 30.12.2019;Udbetalingskurs Fastkursaftale til 31.03.2020
10 år -0,50 %;96.78;96.55;96.5;96.45;96.35
10 år 0,00 %;100.25;100.07;100.0;99.9;99.65
10 år 0,50 %;101.47;101.32;101.25;101.05;100.65
15 år 0,50 %;101.03;100.82;100.75;100.55;100.15
15 år 1,00 %;102.2;102.08;101.95;101.7;101.2
20 år 0,00 %;94.24;94.05;94.0;93.85;93.65
20 år 0,50 %;98.23;98.03;97.95;97.75;97.4
20 år 1,00 %;101.45;101.31;101.2;100.95;100.45
20 år 1,50 %;102.67;102.53;102.4;102.05;101.45
30 år 0,50 %;94.92;94.62;94.55;94.35;94.0
30 år 0,50 % afdragsfri*;93.88;93.67;93.6;93.4;93.05
30 år 1,00 %;98.92;98.7;98.6;98.35;97.85
30 år 1,00 % afdragsfri*;98.02;97.75;97.65;97.4;96.9
30 år 1,50 %;101.7;101.53;101.4;101.05;100.45
30 år 1,50 % afdragsfri*;101.59;101.28;101.15;100.8;100.2
30 år 2,00 %;102.9;102.58;102.4;102.05;101.3
30 år 2,00 % afdragsfri*;102.38;102.22;102.05;101.7;100.95
30 år 2,50 %;103.1;102.95;102.75;102.3;101.45
30 år 2,50 % afdragsfri*;102.97;102.82;102.65;102.2;101.3
