Type;Tilbudskurs;Aktuel kurs;Udbetalingskurs Fastkursaftale til 14.10.2019;Udbetalingskurs Fastkursaftale til 30.12.2019;Udbetalingskurs Fastkursaftale til 31.03.2020
10 år -0,50 %;97.59;97.7;97.65;97.55;97.45
10 år 0,00 %;100.6;100.65;100.55;100.35;100.1
10 år 0,50 %;101.8;101.8;101.7;101.4;101.0
15 år 0,50 %;101.33;101.38;101.25;100.95;100.6
15 år 1,00 %;102.28;102.27;102.15;101.7;101.2
20 år 0,00 %;95.18;95.72;95.65;95.45;95.2
20 år 0,50 %;98.97;99.35;99.25;98.95;98.55
20 år 1,00 %;101.58;101.6;101.45;101.05;100.55
20 år 1,50 %;102.35;102.35;102.2;101.65;101.05
30 år 0,50 %;95.62;96.22;96.15;95.8;95.45
30 år 0,50 % afdragsfri*;94.9;95.22;95.15;94.85;94.45
30 år 1,00 % afdragsfri*;98.92;99.3;99.15;98.75;98.25
30 år 1,00 %;99.84;100.0;99.85;99.45;98.95
30 år 1,50 %;101.75;101.78;101.6;101.1;100.45
30 år 1,50 % afdragsfri*;101.94;101.75;101.6;101.05;100.45
30 år 2,00 %;101.97;101.99;101.8;101.2;100.45
30 år 2,00 % afdragsfri*;101.76;101.8;101.6;101.0;100.25
30 år 2,50 %;102.0;102.0;101.8;101.05;100.2
30 år 2,50 % afdragsfri*;102.2;102.2;102.0;101.25;100.4
