Type;Tilbudskurs;Aktuel kurs;Udbetalingskurs Fastkursaftale til 12.12.2019;Udbetalingskurs Fastkursaftale til 30.12.2019;Udbetalingskurs Fastkursaftale til 31.03.2020
10 år -0,50 %;96.83;96.5;96.45;96.45;96.35
10 år 0,00 %;99.82;99.8;99.75;99.7;99.45
10 år 0,50 %;101.1;101.1;101.0;100.95;100.55
15 år 0,50 %;100.75;100.7;100.6;100.55;100.15
15 år 1,00 %;102.08;101.97;101.85;101.75;101.25
20 år 0,00 %;93.95;93.7;93.65;93.6;93.35
20 år 0,50 %;97.94;97.7;97.6;97.55;97.15
20 år 1,00 %;101.04;100.92;100.8;100.7;100.2
20 år 1,50 %;102.6;102.6;102.45;102.35;101.7
30 år 0,50 %;95.2;94.53;94.45;94.35;94.0
30 år 0,50 % afdragsfri*;93.92;93.6;93.5;93.45;93.1
30 år 1,00 %;98.8;98.55;98.45;98.35;97.85
30 år 1,00 % afdragsfri*;97.9;97.62;97.5;97.4;96.9
30 år 1,50 %;101.23;101.05;100.9;100.8;100.15
30 år 1,50 % afdragsfri*;100.89;100.62;100.5;100.35;99.75
30 år 2,00 %;102.55;102.35;102.2;102.05;101.3
30 år 2,00 % afdragsfri*;101.91;101.91;101.75;101.6;100.85
30 år 2,50 %;103.0;103.0;102.8;102.65;101.75
30 år 2,50 % afdragsfri*;102.48;102.46;102.25;102.1;101.2
