Type;Tilbudskurs;Aktuel kurs;Udbetalingskurs Fastkursaftale til 11.11.2019;Udbetalingskurs Fastkursaftale til 30.12.2019;Udbetalingskurs Fastkursaftale til 31.03.2020
10 år -0,50 %;96.8;96.65;96.6;96.55;96.45
10 år 0,00 %;100.35;100.2;100.1;100.0;99.75
10 år 0,50 %;101.55;101.4;101.3;101.1;100.75
15 år 0,50 %;101.12;100.95;100.85;100.65;100.3
15 år 1,00 %;102.3;102.08;101.95;101.7;101.2
20 år 0,00 %;94.39;94.12;94.05;93.95;93.7
20 år 0,50 %;98.36;98.12;98.0;97.85;97.45
20 år 1,00 %;101.56;101.41;101.3;101.0;100.5
20 år 1,50 %;102.7;102.55;102.4;102.05;101.45
30 år 0,50 %;95.15;94.75;94.65;94.45;94.1
30 år 0,50 % afdragsfri*;94.1;93.87;93.75;93.6;93.25
30 år 1,00 %;99.17;98.8;98.65;98.4;97.9
30 år 1,00 % afdragsfri*;98.23;97.9;97.75;97.5;97.0
30 år 1,50 %;102.55;101.75;101.6;101.25;100.65
30 år 1,50 % afdragsfri*;101.75;101.58;101.4;101.1;100.45
30 år 2,00 %;103.0;102.62;102.45;102.05;101.3
30 år 2,00 % afdragsfri*;102.5;102.25;102.05;101.65;100.9
30 år 2,50 %;103.15;102.95;102.75;102.3;101.4
30 år 2,50 % afdragsfri*;103.04;102.89;102.7;102.2;101.35
