Type;Tilbudskurs;Aktuel kurs;Udbetalingskurs Fastkursaftale til 17.12.2019;Udbetalingskurs Fastkursaftale til 30.12.2019;Udbetalingskurs Fastkursaftale til 31.03.2020
10 år -0,50 %;96.5;96.5;96.45;96.45;96.35
10 år 0,00 %;99.91;99.78;99.7;99.65;99.4
10 år 0,50 %;101.05;101.05;100.95;100.9;100.5
15 år 0,50 %;100.72;100.7;100.6;100.55;100.15
15 år 1,00 %;102.43;102.0;101.85;101.8;101.3
20 år 0,00 %;94.0;93.8;93.75;93.7;93.45
20 år 0,50 %;97.88;97.8;97.7;97.65;97.3
20 år 1,00 %;100.97;100.99;100.85;100.8;100.3
20 år 1,50 %;102.6;102.6;102.45;102.35;101.75
30 år 0,50 %;94.71;94.6;94.5;94.45;94.1
30 år 0,50 % afdragsfri*;93.6;93.67;93.6;93.55;93.15
30 år 1,00 %;98.73;98.6;98.45;98.4;97.9
30 år 1,00 % afdragsfri*;97.77;97.75;97.6;97.55;97.05
30 år 1,50 %;101.11;101.08;100.9;100.85;100.2
30 år 1,50 % afdragsfri*;100.75;100.65;100.5;100.4;99.8
30 år 2,00 %;102.35;102.35;102.15;102.05;101.3
30 år 2,00 % afdragsfri*;101.95;101.91;101.75;101.6;100.85
30 år 2,50 %;103.0;103.0;102.8;102.65;101.8
30 år 2,50 % afdragsfri*;102.44;102.44;102.25;102.1;101.2
