Type;Tilbudskurs;Aktuel kurs;Udbetalingskurs Fastkursaftale til 22.10.2019;Udbetalingskurs Fastkursaftale til 30.12.2019;Udbetalingskurs Fastkursaftale til 31.03.2020
10 år -0,50 %;97.53;97.2;97.15;97.05;96.95
10 år 0,00 %;100.6;100.45;100.35;100.2;99.95
10 år 0,50 %;101.8;101.6;101.5;101.2;100.85
15 år 0,50 %;101.6;101.33;101.2;100.95;100.55
15 år 1,00 %;102.45;102.3;102.15;101.8;101.3
20 år 0,00 %;96.0;95.62;95.55;95.4;95.15
20 år 0,50 %;99.83;99.55;99.45;99.15;98.8
20 år 1,00 %;102.06;101.82;101.7;101.3;100.8
20 år 1,50 %;102.73;102.58;102.45;101.95;101.35
30 år 0,50 %;96.83;96.35;96.25;96.0;95.6
30 år 0,50 % afdragsfri*;95.87;95.42;95.35;95.05;94.7
30 år 1,00 % afdragsfri*;99.96;99.55;99.4;99.05;98.55
30 år 1,00 %;100.74;100.35;100.2;99.85;99.35
30 år 1,50 %;102.3;102.12;101.95;101.5;100.9
30 år 1,50 % afdragsfri*;102.22;101.97;101.8;101.35;100.75
30 år 2,00 %;102.6;102.45;102.25;101.7;100.95
30 år 2,00 % afdragsfri*;102.35;102.2;102.0;101.45;100.7
30 år 2,50 %;103.15;103.0;102.8;102.15;101.25
30 år 2,50 % afdragsfri*;103.16;103.01;102.8;102.15;101.25
