Type;Tilbudskurs;Aktuel kurs;Udbetalingskurs Fastkursaftale til 06.12.2019;Udbetalingskurs Fastkursaftale til 30.12.2019;Udbetalingskurs Fastkursaftale til 31.03.2020
10 år -0,50 %;96.51;96.53;96.5;96.45;96.35
10 år 0,00 %;99.87;99.8;99.75;99.65;99.4
10 år 0,50 %;101.1;101.1;101.0;100.9;100.55
15 år 0,50 %;101.07;100.65;100.55;100.45;100.1
15 år 1,00 %;102.1;102.12;102.0;101.9;101.4
20 år 0,00 %;93.65;93.7;93.65;93.55;93.35
20 år 0,50 %;97.84;97.72;97.65;97.55;97.15
20 år 1,00 %;101.01;101.02;100.9;100.75;100.25
20 år 1,50 %;102.65;102.65;102.5;102.35;101.7
30 år 0,50 %;94.56;94.47;94.4;94.3;93.95
30 år 0,50 % afdragsfri*;93.5;93.55;93.45;93.35;93.0
30 år 1,00 %;98.58;98.55;98.45;98.3;97.8
30 år 1,00 % afdragsfri*;97.65;97.6;97.5;97.35;96.85
30 år 1,50 %;101.26;101.1;100.95;100.8;100.15
30 år 1,50 % afdragsfri*;100.77;100.7;100.55;100.4;99.75
30 år 2,00 %;102.4;102.4;102.25;102.05;101.3
30 år 2,00 % afdragsfri*;101.96;101.96;101.8;101.6;100.85
30 år 2,50 %;103.0;103.0;102.8;102.6;101.7
30 år 2,50 % afdragsfri*;102.53;102.48;102.3;102.05;101.2
