Type;Tilbudskurs;Aktuel kurs;Udbetalingskurs Fastkursaftale til 06.12.2019;Udbetalingskurs Fastkursaftale til 30.12.2019;Udbetalingskurs Fastkursaftale til 31.03.2020
10 år -0,50 %;96.51;96.35;96.3;96.3;96.15
10 år 0,00 %;99.87;99.65;99.6;99.5;99.25
10 år 0,50 %;101.1;100.95;100.85;100.75;100.4
15 år 0,50 %;101.07;100.5;100.4;100.3;99.95
15 år 1,00 %;102.1;101.97;101.85;101.75;101.25
20 år 0,00 %;93.65;93.55;93.5;93.4;93.2
20 år 0,50 %;97.84;97.58;97.5;97.4;97.0
20 år 1,00 %;101.01;100.86;100.75;100.6;100.1
20 år 1,50 %;102.65;102.5;102.35;102.2;101.55
30 år 0,50 %;94.56;94.35;94.25;94.15;93.8
30 år 0,50 % afdragsfri*;93.5;93.4;93.3;93.2;92.85
30 år 1,00 %;98.58;98.38;98.25;98.15;97.65
30 år 1,00 % afdragsfri*;97.65;97.42;97.3;97.2;96.7
30 år 1,50 %;101.26;100.95;100.8;100.65;100.0
30 år 1,50 % afdragsfri*;100.77;100.53;100.4;100.2;99.6
30 år 2,00 %;102.4;102.25;102.1;101.9;101.15
30 år 2,00 % afdragsfri*;101.96;101.81;101.65;101.45;100.7
30 år 2,50 %;103.0;102.85;102.65;102.45;101.55
30 år 2,50 % afdragsfri*;102.53;102.39;102.2;101.95;101.1
