Type;Tilbudskurs;Aktuel kurs;Udbetalingskurs Fastkursaftale til 15.10.2019;Udbetalingskurs Fastkursaftale til 30.12.2019;Udbetalingskurs Fastkursaftale til 31.03.2020
10 år -0,50 %;97.89;97.65;97.6;97.5;97.4
10 år 0,00 %;100.65;100.65;100.55;100.35;100.15
10 år 0,50 %;101.8;101.8;101.7;101.4;101.0
15 år 0,50 %;101.38;101.35;101.25;100.95;100.55
15 år 1,00 %;102.29;102.27;102.15;101.7;101.2
20 år 0,00 %;95.69;95.53;95.45;95.25;95.05
20 år 0,50 %;99.48;99.22;99.1;98.8;98.45
20 år 1,00 %;101.6;101.59;101.45;101.05;100.55
20 år 1,50 %;102.71;102.3;102.15;101.65;101.0
30 år 0,50 %;96.29;96.08;96.0;95.7;95.3
30 år 0,50 % afdragsfri*;94.81;95.08;95.0;94.7;94.3
30 år 1,00 % afdragsfri*;99.24;99.02;98.9;98.5;98.0
30 år 1,00 %;100.04;99.8;99.65;99.25;98.75
30 år 1,50 %;101.78;101.78;101.6;101.1;100.5
30 år 1,50 % afdragsfri*;101.75;101.75;101.6;101.1;100.45
30 år 2,00 %;101.99;101.99;101.8;101.2;100.45
30 år 2,00 % afdragsfri*;101.8;101.76;101.6;100.95;100.2
30 år 2,50 %;102.0;102.0;101.8;101.05;100.2
30 år 2,50 % afdragsfri*;102.2;102.17;101.95;101.25;100.35
