Type;Tilbudskurs;Aktuel kurs;Udbetalingskurs Fastkursaftale til 15.10.2019;Udbetalingskurs Fastkursaftale til 30.12.2019;Udbetalingskurs Fastkursaftale til 31.03.2020
10 år -0,50 %;97.89;97.53;97.5;97.4;97.25
10 år 0,00 %;100.65;100.5;100.4;100.2;100.0
10 år 0,50 %;101.8;101.65;101.55;101.25;100.85
15 år 0,50 %;101.38;101.22;101.1;100.8;100.45
15 år 1,00 %;102.29;102.14;102.0;101.6;101.1
20 år 0,00 %;95.69;95.43;95.35;95.15;94.95
20 år 0,50 %;99.48;99.12;99.0;98.7;98.35
20 år 1,00 %;101.6;101.45;101.3;100.9;100.4
20 år 1,50 %;102.71;102.15;102.0;101.5;100.85
30 år 0,50 %;96.29;95.97;95.9;95.6;95.2
30 år 0,50 % afdragsfri*;94.81;94.97;94.9;94.6;94.2
30 år 1,00 % afdragsfri*;99.24;99.0;98.85;98.45;97.95
30 år 1,00 %;100.04;99.8;99.65;99.25;98.75
30 år 1,50 %;101.78;101.62;101.45;100.95;100.35
30 år 1,50 % afdragsfri*;101.75;101.6;101.45;100.95;100.3
30 år 2,00 %;101.99;101.84;101.65;101.05;100.3
30 år 2,00 % afdragsfri*;101.8;101.62;101.45;100.85;100.05
30 år 2,50 %;102.0;101.85;101.65;100.9;100.05
30 år 2,50 % afdragsfri*;102.2;102.02;101.8;101.1;100.2
