Type;Tilbudskurs;Aktuel kurs;Udbetalingskurs Fastkursaftale til 03.12.2019;Udbetalingskurs Fastkursaftale til 30.12.2019;Udbetalingskurs Fastkursaftale til 31.03.2020
10 år -0,50 %;96.38;96.2;96.15;96.1;96.0
10 år 0,00 %;99.85;99.68;99.6;99.55;99.3
10 år 0,50 %;101.15;101.0;100.9;100.8;100.4
15 år 0,50 %;100.55;100.35;100.25;100.15;99.75
15 år 1,00 %;101.97;101.8;101.65;101.55;101.0
20 år 0,00 %;93.38;93.05;93.0;92.9;92.7
20 år 0,50 %;97.38;97.1;97.0;96.9;96.55
20 år 1,00 %;100.94;100.71;100.6;100.45;99.95
20 år 1,50 %;102.68;102.53;102.4;102.2;101.55
30 år 0,50 %;94.08;93.8;93.7;93.6;93.25
30 år 0,50 % afdragsfri*;93.15;92.88;92.8;92.65;92.3
30 år 1,00 %;98.28;97.9;97.75;97.65;97.15
30 år 1,00 % afdragsfri*;97.32;96.9;96.75;96.65;96.15
30 år 1,50 %;101.13;100.9;100.75;100.55;99.95
30 år 1,50 % afdragsfri*;100.62;100.42;100.25;100.1;99.45
30 år 2,00 %;102.45;102.28;102.1;101.9;101.1
30 år 2,00 % afdragsfri*;102.09;101.81;101.65;101.4;100.65
30 år 2,50 %;103.0;102.85;102.65;102.4;101.5
30 år 2,50 % afdragsfri*;102.55;102.4;102.2;101.95;101.05
