Type;Tilbudskurs;Aktuel kurs;Udbetalingskurs Fastkursaftale til 03.12.2019;Udbetalingskurs Fastkursaftale til 30.12.2019;Udbetalingskurs Fastkursaftale til 31.03.2020
10 år -0,50 %;96.38;96.35;96.3;96.25;96.15
10 år 0,00 %;99.85;99.8;99.7;99.65;99.4
10 år 0,50 %;101.15;101.15;101.05;100.95;100.55
15 år 0,50 %;100.55;100.47;100.35;100.25;99.9
15 år 1,00 %;101.97;101.97;101.85;101.7;101.2
20 år 0,00 %;93.38;93.15;93.1;93.0;92.8
20 år 0,50 %;97.38;97.2;97.1;97.0;96.65
20 år 1,00 %;100.94;100.87;100.75;100.6;100.1
20 år 1,50 %;102.68;102.65;102.5;102.3;101.7
30 år 0,50 %;94.08;93.9;93.8;93.7;93.35
30 år 0,50 % afdragsfri*;93.15;92.97;92.85;92.75;92.4
30 år 1,00 %;98.28;97.95;97.8;97.7;97.2
30 år 1,00 % afdragsfri*;97.32;97.02;96.9;96.75;96.25
30 år 1,50 %;101.13;100.95;100.8;100.6;100.0
30 år 1,50 % afdragsfri*;100.62;100.53;100.35;100.2;99.55
30 år 2,00 %;102.45;102.42;102.25;102.05;101.25
30 år 2,00 % afdragsfri*;102.09;101.96;101.8;101.55;100.8
30 år 2,50 %;103.0;103.0;102.8;102.55;101.65
30 år 2,50 % afdragsfri*;102.55;102.55;102.35;102.1;101.2
