Type;Tilbudskurs;Aktuel kurs;Udbetalingskurs Fastkursaftale til 01.11.2019;Udbetalingskurs Fastkursaftale til 30.12.2019;Udbetalingskurs Fastkursaftale til 31.03.2020
10 år -0,50 %;97.36;97.35;97.3;97.25;97.1
10 år 0,00 %;100.55;100.5;100.45;100.25;100.05
10 år 0,50 %;101.68;101.7;101.6;101.35;101.0
15 år 0,50 %;101.5;101.4;101.3;101.05;100.7
15 år 1,00 %;102.4;102.39;102.25;101.95;101.45
20 år 0,00 %;95.6;94.97;94.9;94.75;94.55
20 år 0,50 %;99.64;98.97;98.9;98.65;98.3
20 år 1,00 %;101.97;101.92;101.8;101.5;101.0
20 år 1,50 %;102.75;102.73;102.6;102.2;101.55
30 år 0,50 %;96.43;95.83;95.75;95.5;95.15
30 år 0,50 % afdragsfri*;95.43;94.92;94.85;94.6;94.25
30 år 1,00 % afdragsfri*;99.51;98.95;98.85;98.5;98.05
30 år 1,00 %;100.5;99.78;99.65;99.35;98.85
30 år 1,50 %;102.3;102.22;102.1;101.7;101.05
30 år 1,50 % afdragsfri*;102.31;102.17;102.05;101.65;101.0
30 år 2,00 %;102.75;102.7;102.55;102.05;101.3
30 år 2,00 % afdragsfri*;102.38;102.4;102.25;101.75;101.0
30 år 2,50 %;103.15;103.15;102.95;102.4;101.5
30 år 2,50 % afdragsfri*;103.01;103.01;102.8;102.25;101.4
