Type;Tilbudskurs;Aktuel kurs;Udbetalingskurs Fastkursaftale til 31.10.2019;Udbetalingskurs Fastkursaftale til 30.12.2019;Udbetalingskurs Fastkursaftale til 31.03.2020
10 år -0,50 %;97.59;97.2;97.15;97.1;96.95
10 år 0,00 %;100.86;100.4;100.35;100.15;99.95
10 år 0,50 %;101.75;101.55;101.45;101.2;100.85
15 år 0,50 %;101.69;101.32;101.25;101.0;100.6
15 år 1,00 %;102.44;102.29;102.15;101.85;101.35
20 år 0,00 %;95.86;95.15;95.1;94.95;94.7
20 år 0,50 %;99.86;99.2;99.1;98.85;98.5
20 år 1,00 %;102.3;101.83;101.7;101.4;100.9
20 år 1,50 %;102.67;102.55;102.4;102.0;101.35
30 år 0,50 %;96.76;96.03;95.95;95.7;95.35
30 år 0,50 % afdragsfri*;95.83;95.12;95.05;94.8;94.45
30 år 1,00 % afdragsfri*;99.97;99.25;99.15;98.8;98.3
30 år 1,00 %;100.85;100.05;99.95;99.6;99.1
30 år 1,50 %;102.3;102.12;102.0;101.6;100.95
30 år 1,50 % afdragsfri*;102.38;102.05;101.9;101.5;100.9
30 år 2,00 %;102.65;102.55;102.4;101.9;101.15
30 år 2,00 % afdragsfri*;102.35;102.2;102.05;101.55;100.8
30 år 2,50 %;103.15;103.0;102.8;102.25;101.35
30 år 2,50 % afdragsfri*;103.01;102.86;102.65;102.1;101.2
