Type;Tilbudskurs;Aktuel kurs;Udbetalingskurs Fastkursaftale til 04.12.2019;Udbetalingskurs Fastkursaftale til 30.12.2019;Udbetalingskurs Fastkursaftale til 31.03.2020
10 år -0,50 %;96.38;96.2;96.15;96.1;96.0
10 år 0,00 %;99.85;99.62;99.55;99.5;99.25
10 år 0,50 %;101.15;101.0;100.9;100.8;100.4
15 år 0,50 %;100.55;100.32;100.2;100.1;99.75
15 år 1,00 %;101.97;101.83;101.7;101.55;101.05
20 år 0,00 %;93.38;93.0;92.95;92.85;92.65
20 år 0,50 %;97.38;97.05;96.95;96.85;96.5
20 år 1,00 %;100.94;100.69;100.55;100.4;99.9
20 år 1,50 %;102.68;102.5;102.35;102.15;101.55
30 år 0,50 %;94.08;93.78;93.65;93.55;93.2
30 år 0,50 % afdragsfri*;93.15;92.85;92.75;92.65;92.3
30 år 1,00 %;98.28;97.83;97.7;97.55;97.05
30 år 1,00 % afdragsfri*;97.32;96.87;96.75;96.6;96.1
30 år 1,50 %;101.13;100.8;100.65;100.45;99.85
30 år 1,50 % afdragsfri*;100.62;100.35;100.2;100.0;99.4
30 år 2,00 %;102.45;102.28;102.1;101.9;101.1
30 år 2,00 % afdragsfri*;102.09;101.81;101.6;101.4;100.65
30 år 2,50 %;103.0;102.85;102.65;102.4;101.5
30 år 2,50 % afdragsfri*;102.55;102.39;102.15;101.95;101.05
