Type;Tilbudskurs;Aktuel kurs;Udbetalingskurs Fastkursaftale til 04.12.2019;Udbetalingskurs Fastkursaftale til 30.12.2019;Udbetalingskurs Fastkursaftale til 31.03.2020
10 år -0,50 %;96.35;96.47;96.45;96.4;96.3
10 år 0,00 %;99.8;99.78;99.7;99.65;99.4
10 år 0,50 %;101.15;101.1;101.0;100.9;100.5
15 år 0,50 %;100.47;100.55;100.45;100.35;99.95
15 år 1,00 %;101.97;102.08;101.95;101.8;101.3
20 år 0,00 %;93.15;93.47;93.4;93.35;93.1
20 år 0,50 %;97.34;97.5;97.4;97.3;96.95
20 år 1,00 %;100.87;100.95;100.8;100.7;100.2
20 år 1,50 %;102.65;102.65;102.5;102.3;101.7
30 år 0,50 %;94.05;94.25;94.15;94.05;93.7
30 år 0,50 % afdragsfri*;93.05;93.33;93.25;93.15;92.75
30 år 1,00 %;98.09;98.3;98.15;98.05;97.55
30 år 1,00 % afdragsfri*;97.08;97.33;97.2;97.05;96.55
30 år 1,50 %;101.09;101.03;100.85;100.7;100.05
30 år 1,50 % afdragsfri*;101.08;100.6;100.45;100.25;99.65
30 år 2,00 %;102.42;102.42;102.25;102.05;101.3
30 år 2,00 % afdragsfri*;101.96;101.96;101.8;101.55;100.8
30 år 2,50 %;103.0;103.0;102.8;102.55;101.65
30 år 2,50 % afdragsfri*;102.55;102.54;102.35;102.1;101.2
