Type;Tilbudskurs;Aktuel kurs;Udbetalingskurs Fastkursaftale til 04.12.2019;Udbetalingskurs Fastkursaftale til 30.12.2019;Udbetalingskurs Fastkursaftale til 31.03.2020
10 år -0,50 %;96.35;96.47;96.45;96.4;96.3
10 år 0,00 %;99.8;99.78;99.7;99.65;99.4
10 år 0,50 %;101.15;101.1;101.0;100.9;100.5
15 år 0,50 %;100.47;100.55;100.45;100.35;99.95
15 år 1,00 %;101.97;102.08;101.95;101.8;101.3
20 år 0,00 %;93.15;93.5;93.45;93.35;93.15
20 år 0,50 %;97.34;97.53;97.45;97.3;96.95
20 år 1,00 %;100.87;100.94;100.8;100.65;100.15
20 år 1,50 %;102.65;102.65;102.5;102.3;101.7
30 år 0,50 %;94.05;94.28;94.2;94.1;93.7
30 år 0,50 % afdragsfri*;93.05;93.35;93.25;93.15;92.8
30 år 1,00 %;98.09;98.33;98.2;98.05;97.55
30 år 1,00 % afdragsfri*;97.08;97.38;97.25;97.1;96.65
30 år 1,50 %;101.09;101.03;100.85;100.7;100.05
30 år 1,50 % afdragsfri*;101.08;100.62;100.45;100.3;99.65
30 år 2,00 %;102.42;102.42;102.25;102.05;101.3
30 år 2,00 % afdragsfri*;101.96;101.96;101.8;101.55;100.8
30 år 2,50 %;103.0;103.0;102.8;102.55;101.65
30 år 2,50 % afdragsfri*;102.55;102.54;102.35;102.1;101.2
