Type;Tilbudskurs;Aktuel kurs;Udbetalingskurs Fastkursaftale til 01.11.2019;Udbetalingskurs Fastkursaftale til 30.12.2019;Udbetalingskurs Fastkursaftale til 31.03.2020
10 år -0,50 %;97.36;97.0;96.95;96.9;96.75
10 år 0,00 %;100.55;100.3;100.25;100.05;99.85
10 år 0,50 %;101.68;101.5;101.4;101.15;100.8
15 år 0,50 %;101.5;101.2;101.1;100.85;100.5
15 år 1,00 %;102.4;102.24;102.1;101.8;101.3
20 år 0,00 %;95.6;94.6;94.55;94.4;94.15
20 år 0,50 %;99.64;98.62;98.55;98.3;97.95
20 år 1,00 %;101.97;101.78;101.65;101.35;100.85
20 år 1,50 %;102.75;102.58;102.45;102.05;101.4
30 år 0,50 %;96.43;95.53;95.45;95.2;94.85
30 år 0,50 % afdragsfri*;95.43;94.62;94.55;94.3;93.95
30 år 1,00 % afdragsfri*;99.51;98.53;98.4;98.1;97.6
30 år 1,00 %;100.5;99.4;99.3;98.95;98.45
30 år 1,50 %;102.3;102.02;101.9;101.5;100.85
30 år 1,50 % afdragsfri*;102.31;101.92;101.8;101.4;100.75
30 år 2,00 %;102.75;102.62;102.45;102.0;101.2
30 år 2,00 % afdragsfri*;102.38;102.25;102.1;101.6;100.85
30 år 2,50 %;103.15;103.0;102.8;102.25;101.35
30 år 2,50 % afdragsfri*;103.01;102.86;102.65;102.1;101.25
