Type;Tilbudskurs;Aktuel kurs;Udbetalingskurs Fastkursaftale til 20.12.2019;Udbetalingskurs Fastkursaftale til 30.12.2019;Udbetalingskurs Fastkursaftale til 31.03.2020
10 år -0,50 %;96.5;96.35;96.3;96.3;96.2
10 år 0,00 %;99.79;99.6;99.55;99.5;99.25
10 år 0,50 %;101.05;100.85;100.75;100.7;100.35
15 år 0,50 %;100.83;100.6;100.5;100.45;100.1
15 år 1,00 %;102.03;101.88;101.75;101.7;101.2
20 år 0,00 %;93.97;93.7;93.65;93.6;93.4
20 år 0,50 %;98.01;97.7;97.6;97.55;97.2
20 år 1,00 %;101.01;100.86;100.75;100.7;100.2
20 år 1,50 %;102.6;102.45;102.3;102.25;101.6
30 år 0,50 %;95.0;94.5;94.4;94.35;94.0
30 år 0,50 % afdragsfri*;93.85;93.58;93.5;93.45;93.1
30 år 1,00 %;98.9;98.55;98.45;98.4;97.9
30 år 1,00 % afdragsfri*;97.91;97.67;97.55;97.5;97.0
30 år 1,50 %;101.2;101.0;100.85;100.8;100.15
30 år 1,50 % afdragsfri*;100.75;100.55;100.4;100.35;99.7
30 år 2,00 %;102.25;102.1;101.95;101.85;101.1
30 år 2,00 % afdragsfri*;101.75;101.58;101.4;101.35;100.6
30 år 2,50 %;102.8;102.65;102.45;102.35;101.5
30 år 2,50 % afdragsfri*;102.44;102.23;102.05;101.95;101.05
