Type;Tilbudskurs;Aktuel kurs;Udbetalingskurs Fastkursaftale til 18.10.2019;Udbetalingskurs Fastkursaftale til 30.12.2019;Udbetalingskurs Fastkursaftale til 31.03.2020
10 år -0,50 %;97.68;97.4;97.35;97.25;97.15
10 år 0,00 %;100.7;100.4;100.35;100.15;99.9
10 år 0,50 %;101.7;101.55;101.45;101.15;100.8
15 år 0,50 %;101.55;101.28;101.2;100.9;100.5
15 år 1,00 %;102.25;102.1;102.0;101.6;101.1
20 år 0,00 %;95.75;95.65;95.6;95.4;95.15
20 år 0,50 %;99.61;99.38;99.3;99.0;98.6
20 år 1,00 %;101.8;101.57;101.45;101.05;100.55
20 år 1,50 %;102.3;102.15;102.0;101.5;100.9
30 år 0,50 %;96.54;96.35;96.25;95.95;95.6
30 år 0,50 % afdragsfri*;95.54;95.38;95.3;95.0;94.65
30 år 1,00 % afdragsfri*;99.49;99.37;99.25;98.85;98.35
30 år 1,00 %;100.2;100.08;99.95;99.55;99.1
30 år 1,50 %;101.93;101.65;101.5;101.0;100.4
30 år 1,50 % afdragsfri*;102.1;101.6;101.45;100.95;100.35
30 år 2,00 %;101.92;101.75;101.6;101.0;100.25
30 år 2,00 % afdragsfri*;101.84;101.53;101.35;100.75;100.0
30 år 2,50 %;101.95;101.8;101.6;100.9;100.05
30 år 2,50 % afdragsfri*;102.12;101.97;101.8;101.1;100.2
