Type;Tilbudskurs;Aktuel kurs;Udbetalingskurs Fastkursaftale til 18.10.2019;Udbetalingskurs Fastkursaftale til 30.12.2019;Udbetalingskurs Fastkursaftale til 31.03.2020
10 år -0,50 %;97.68;97.25;97.2;97.1;97.0
10 år 0,00 %;100.7;100.45;100.4;100.2;99.95
10 år 0,50 %;101.7;101.65;101.55;101.25;100.9
15 år 0,50 %;101.55;101.33;101.25;100.95;100.55
15 år 1,00 %;102.25;102.35;102.25;101.85;101.35
20 år 0,00 %;95.75;95.88;95.8;95.6;95.4
20 år 0,50 %;99.61;99.62;99.55;99.25;98.85
20 år 1,00 %;101.8;101.7;101.6;101.2;100.7
20 år 1,50 %;102.3;102.59;102.45;101.95;101.3
30 år 0,50 %;96.54;96.62;96.55;96.25;95.9
30 år 0,50 % afdragsfri*;95.54;95.67;95.6;95.3;94.95
30 år 1,00 % afdragsfri*;99.49;99.72;99.6;99.2;98.7
30 år 1,00 %;100.2;100.4;100.3;99.9;99.4
30 år 1,50 %;101.93;102.1;101.95;101.45;100.85
30 år 1,50 % afdragsfri*;102.1;101.9;101.75;101.25;100.65
30 år 2,00 %;101.92;102.45;102.3;101.7;100.95
30 år 2,00 % afdragsfri*;101.84;102.2;102.05;101.45;100.7
30 år 2,50 %;101.95;103.0;102.8;102.1;101.25
30 år 2,50 % afdragsfri*;102.12;103.0;102.8;102.1;101.25
