Type;Tilbudskurs;Aktuel kurs;Udbetalingskurs Fastkursaftale til 18.10.2019;Udbetalingskurs Fastkursaftale til 30.12.2019;Udbetalingskurs Fastkursaftale til 31.03.2020
10 år -0,50 %;97.68;97.4;97.35;97.25;97.15
10 år 0,00 %;100.7;100.6;100.55;100.35;100.1
10 år 0,50 %;101.7;101.8;101.7;101.4;101.05
15 år 0,50 %;101.55;101.5;101.4;101.1;100.75
15 år 1,00 %;102.25;102.44;102.3;101.9;101.4
20 år 0,00 %;95.75;96.05;96.0;95.8;95.55
20 år 0,50 %;99.61;99.75;99.65;99.35;99.0
20 år 1,00 %;101.8;101.85;101.75;101.35;100.85
20 år 1,50 %;102.3;102.74;102.6;102.1;101.45
30 år 0,50 %;96.54;96.75;96.65;96.35;96.0
30 år 0,50 % afdragsfri*;95.54;95.8;95.7;95.4;95.05
30 år 1,00 % afdragsfri*;99.49;99.83;99.7;99.3;98.85
30 år 1,00 %;100.2;100.53;100.4;100.0;99.5
30 år 1,50 %;101.93;102.25;102.1;101.6;101.0
30 år 1,50 % afdragsfri*;102.1;102.05;101.9;101.4;100.8
30 år 2,00 %;101.92;102.6;102.45;101.85;101.1
30 år 2,00 % afdragsfri*;101.84;102.35;102.2;101.6;100.85
30 år 2,50 %;101.95;103.25;103.05;102.35;101.5
30 år 2,50 % afdragsfri*;102.12;103.25;103.05;102.35;101.5
