Type;Tilbudskurs;Aktuel kurs;Udbetalingskurs Fastkursaftale til 18.10.2019;Udbetalingskurs Fastkursaftale til 30.12.2019;Udbetalingskurs Fastkursaftale til 31.03.2020
10 år -0,50 %;97.68;97.58;97.55;97.45;97.35
10 år 0,00 %;100.7;100.58;100.5;100.3;100.05
10 år 0,50 %;101.7;101.78;101.7;101.4;101.0
15 år 0,50 %;101.55;101.45;101.35;101.05;100.7
15 år 1,00 %;102.25;102.5;102.4;102.0;101.5
20 år 0,00 %;95.75;96.03;95.95;95.75;95.55
20 år 0,50 %;99.61;99.8;99.7;99.4;99.05
20 år 1,00 %;101.8;101.8;101.7;101.3;100.8
20 år 1,50 %;102.3;102.75;102.6;102.1;101.5
30 år 0,50 %;96.54;96.78;96.7;96.4;96.05
30 år 0,50 % afdragsfri*;95.54;95.83;95.75;95.45;95.1
30 år 1,00 % afdragsfri*;99.49;99.8;99.7;99.3;98.8
30 år 1,00 %;100.2;100.51;100.4;100.0;99.5
30 år 1,50 %;101.93;102.0;101.85;101.35;100.75
30 år 1,50 % afdragsfri*;102.1;101.78;101.65;101.15;100.5
30 år 2,00 %;101.92;102.6;102.45;101.85;101.1
30 år 2,00 % afdragsfri*;101.84;102.35;102.2;101.6;100.85
30 år 2,50 %;101.95;103.25;103.05;102.35;101.5
30 år 2,50 % afdragsfri*;102.12;103.25;103.05;102.35;101.5
