Type;Tilbudskurs;Aktuel kurs;Udbetalingskurs Fastkursaftale til 06.11.2019;Udbetalingskurs Fastkursaftale til 30.12.2019;Udbetalingskurs Fastkursaftale til 31.03.2020
10 år -0,50 %;97.12;96.83;96.8;96.7;96.6
10 år 0,00 %;100.47;100.4;100.3;100.2;99.95
10 år 0,50 %;101.6;101.55;101.45;101.25;100.85
15 år 0,50 %;101.5;101.15;101.05;100.85;100.45
15 år 1,00 %;102.4;102.35;102.2;101.95;101.45
20 år 0,00 %;94.87;94.25;94.2;94.05;93.8
20 år 0,50 %;98.79;98.3;98.2;98.0;97.6
20 år 1,00 %;102.02;101.62;101.5;101.2;100.7
20 år 1,50 %;102.75;102.7;102.55;102.2;101.55
30 år 0,50 %;95.45;94.9;94.8;94.6;94.25
30 år 0,50 % afdragsfri*;94.41;94.0;93.9;93.7;93.35
30 år 1,00 %;99.39;98.95;98.8;98.55;98.05
30 år 1,00 % afdragsfri*;98.56;98.05;97.9;97.65;97.15
30 år 1,50 %;102.13;101.9;101.75;101.4;100.75
30 år 1,50 % afdragsfri*;102.05;101.77;101.6;101.25;100.6
30 år 2,00 %;102.75;102.78;102.6;102.15;101.4
30 år 2,00 % afdragsfri*;102.4;102.4;102.2;101.8;101.05
30 år 2,50 %;103.15;103.15;102.95;102.45;101.55
30 år 2,50 % afdragsfri*;103.04;103.04;102.85;102.3;101.45
