Type;Tilbudskurs;Aktuel kurs;Udbetalingskurs Fastkursaftale til 06.11.2019;Udbetalingskurs Fastkursaftale til 30.12.2019;Udbetalingskurs Fastkursaftale til 31.03.2020
10 år -0,50 %;97.12;96.83;96.8;96.7;96.6
10 år 0,00 %;100.47;100.4;100.3;100.2;99.95
10 år 0,50 %;101.6;101.58;101.5;101.25;100.9
15 år 0,50 %;101.5;101.2;101.1;100.9;100.5
15 år 1,00 %;102.4;102.4;102.25;102.0;101.5
20 år 0,00 %;94.87;94.4;94.35;94.2;93.95
20 år 0,50 %;98.79;98.4;98.3;98.1;97.7
20 år 1,00 %;102.02;101.7;101.55;101.3;100.8
20 år 1,50 %;102.75;102.75;102.6;102.25;101.6
30 år 0,50 %;95.45;95.05;94.95;94.75;94.4
30 år 0,50 % afdragsfri*;94.41;94.15;94.05;93.85;93.5
30 år 1,00 %;99.39;99.05;98.9;98.65;98.15
30 år 1,00 % afdragsfri*;98.56;98.15;98.0;97.75;97.25
30 år 1,50 %;102.13;101.98;101.85;101.45;100.85
30 år 1,50 % afdragsfri*;102.05;101.89;101.75;101.35;100.75
30 år 2,00 %;102.75;102.78;102.6;102.15;101.4
30 år 2,00 % afdragsfri*;102.4;102.4;102.2;101.8;101.05
30 år 2,50 %;103.15;103.15;102.95;102.45;101.55
30 år 2,50 % afdragsfri*;103.04;103.04;102.85;102.3;101.45
