Type;Tilbudskurs;Aktuel kurs;Udbetalingskurs Fastkursaftale til 05.11.2019;Udbetalingskurs Fastkursaftale til 30.12.2019;Udbetalingskurs Fastkursaftale til 31.03.2020
10 år -0,50 %;97.24;96.9;96.85;96.8;96.7
10 år 0,00 %;100.5;100.25;100.15;100.05;99.8
10 år 0,50 %;101.65;101.43;101.35;101.1;100.75
15 år 0,50 %;101.4;101.15;101.05;100.85;100.45
15 år 1,00 %;102.39;102.25;102.1;101.8;101.3
20 år 0,00 %;94.89;94.47;94.4;94.25;94.05
20 år 0,50 %;98.93;98.48;98.4;98.15;97.8
20 år 1,00 %;102.04;101.7;101.55;101.25;100.75
20 år 1,50 %;102.75;102.6;102.45;102.05;101.45
30 år 0,50 %;95.68;95.08;95.0;94.75;94.4
30 år 0,50 % afdragsfri*;95.02;94.2;94.1;93.9;93.55
30 år 1,00 % afdragsfri*;98.74;98.22;98.1;97.8;97.3
30 år 1,00 %;99.71;99.1;98.95;98.7;98.2
30 år 1,50 %;102.17;101.92;101.75;101.4;100.75
30 år 1,50 % afdragsfri*;102.17;101.85;101.7;101.3;100.7
30 år 2,00 %;102.72;102.6;102.4;101.95;101.2
30 år 2,00 % afdragsfri*;102.4;102.25;102.05;101.6;100.85
30 år 2,50 %;103.15;103.0;102.8;102.25;101.4
30 år 2,50 % afdragsfri*;103.01;102.89;102.7;102.15;101.3
