Type;Tilbudskurs;Aktuel kurs;Udbetalingskurs Fastkursaftale til 06.11.2019;Udbetalingskurs Fastkursaftale til 30.12.2019;Udbetalingskurs Fastkursaftale til 31.03.2020
10 år -0,50 %;97.12;97.0;96.95;96.9;96.8
10 år 0,00 %;100.47;100.4;100.3;100.2;99.95
10 år 0,50 %;101.6;101.58;101.5;101.25;100.9
15 år 0,50 %;101.5;101.25;101.15;100.95;100.55
15 år 1,00 %;102.4;102.35;102.2;101.95;101.45
20 år 0,00 %;94.87;94.5;94.45;94.3;94.05
20 år 0,50 %;98.79;98.5;98.4;98.2;97.8
20 år 1,00 %;102.02;101.72;101.6;101.3;100.8
20 år 1,50 %;102.75;102.75;102.6;102.25;101.6
30 år 0,50 %;95.45;95.1;95.0;94.8;94.45
30 år 0,50 % afdragsfri*;94.41;94.22;94.15;93.9;93.55
30 år 1,00 %;99.39;99.15;99.0;98.75;98.25
30 år 1,00 % afdragsfri*;98.56;98.3;98.15;97.9;97.4
30 år 1,50 %;102.13;102.03;101.85;101.5;100.9
30 år 1,50 % afdragsfri*;102.05;101.9;101.75;101.4;100.75
30 år 2,00 %;102.75;102.78;102.6;102.15;101.4
30 år 2,00 % afdragsfri*;102.4;102.4;102.2;101.8;101.05
30 år 2,50 %;103.15;103.15;102.95;102.45;101.55
30 år 2,50 % afdragsfri*;103.04;103.04;102.85;102.3;101.45
