Type;Tilbudskurs;Aktuel kurs;Udbetalingskurs Fastkursaftale til 16.12.2019;Udbetalingskurs Fastkursaftale til 30.12.2019;Udbetalingskurs Fastkursaftale til 31.03.2020
10 år -0,50 %;96.77;96.35;96.3;96.3;96.2
10 år 0,00 %;99.78;99.65;99.55;99.55;99.3
10 år 0,50 %;101.05;100.9;100.8;100.75;100.35
15 år 0,50 %;100.72;100.58;100.45;100.4;100.05
15 år 1,00 %;101.97;101.83;101.7;101.6;101.1
20 år 0,00 %;93.8;93.6;93.55;93.5;93.25
20 år 0,50 %;97.8;97.6;97.5;97.45;97.1
20 år 1,00 %;101.38;100.81;100.7;100.6;100.1
20 år 1,50 %;102.6;102.45;102.3;102.2;101.55
30 år 0,50 %;94.78;94.38;94.3;94.2;93.85
30 år 0,50 % afdragsfri*;93.67;93.45;93.35;93.3;92.95
30 år 1,00 %;98.72;98.42;98.3;98.2;97.75
30 år 1,00 % afdragsfri*;97.68;97.55;97.4;97.35;96.85
30 år 1,50 %;101.05;100.9;100.75;100.65;100.05
30 år 1,50 % afdragsfri*;100.82;100.47;100.3;100.25;99.6
30 år 2,00 %;102.35;102.2;102.0;101.9;101.15
30 år 2,00 % afdragsfri*;102.5;101.76;101.6;101.45;100.7
30 år 2,50 %;103.0;102.85;102.65;102.5;101.65
30 år 2,50 % afdragsfri*;102.44;102.28;102.1;101.95;101.05
