Type;Tilbudskurs;Aktuel kurs;Udbetalingskurs Fastkursaftale til 25.10.2019;Udbetalingskurs Fastkursaftale til 30.12.2019;Udbetalingskurs Fastkursaftale til 31.03.2020
10 år -0,50 %;97.65;97.45;97.4;97.3;97.2
10 år 0,00 %;100.65;100.65;100.6;100.4;100.15
10 år 0,50 %;101.75;101.75;101.65;101.4;101.0
15 år 0,50 %;101.69;101.52;101.45;101.15;100.8
15 år 1,00 %;102.45;102.45;102.35;101.95;101.45
20 år 0,00 %;95.92;95.85;95.8;95.6;95.4
20 år 0,50 %;99.86;99.77;99.7;99.4;99.05
20 år 1,00 %;102.3;101.97;101.85;101.5;101.0
20 år 1,50 %;102.88;102.73;102.6;102.15;101.5
30 år 0,50 %;96.73;96.72;96.65;96.35;96.0
30 år 0,50 % afdragsfri*;95.82;95.8;95.7;95.45;95.1
30 år 1,00 % afdragsfri*;99.92;99.8;99.7;99.35;98.85
30 år 1,00 %;100.7;100.58;100.45;100.1;99.6
30 år 1,50 %;102.53;102.33;102.2;101.75;101.1
30 år 1,50 % afdragsfri*;102.53;102.17;102.05;101.6;100.95
30 år 2,00 %;102.6;102.6;102.45;101.9;101.15
30 år 2,00 % afdragsfri*;102.85;102.37;102.2;101.65;100.9
30 år 2,50 %;103.15;103.15;102.95;102.35;101.45
30 år 2,50 % afdragsfri*;103.14;103.14;102.95;102.3;101.45
