Type;Tilbudskurs;Aktuel kurs;Udbetalingskurs Fastkursaftale til 25.10.2019;Udbetalingskurs Fastkursaftale til 30.12.2019;Udbetalingskurs Fastkursaftale til 31.03.2020
10 år -0,50 %;97.65;97.3;97.25;97.15;97.05
10 år 0,00 %;100.65;100.5;100.45;100.25;100.0
10 år 0,50 %;101.75;101.6;101.5;101.25;100.85
15 år 0,50 %;101.69;101.37;101.3;101.0;100.65
15 år 1,00 %;102.45;102.3;102.2;101.8;101.3
20 år 0,00 %;95.92;95.7;95.65;95.45;95.25
20 år 0,50 %;99.86;99.65;99.55;99.3;98.9
20 år 1,00 %;102.3;101.82;101.7;101.35;100.85
20 år 1,50 %;102.88;102.58;102.45;102.0;101.35
30 år 0,50 %;96.73;96.6;96.5;96.25;95.9
30 år 0,50 % afdragsfri*;95.82;95.65;95.55;95.3;94.95
30 år 1,00 % afdragsfri*;99.92;99.7;99.6;99.25;98.75
30 år 1,00 %;100.7;100.45;100.35;100.0;99.5
30 år 1,50 %;102.53;102.17;102.05;101.6;100.95
30 år 1,50 % afdragsfri*;102.53;102.03;101.9;101.45;100.8
30 år 2,00 %;102.6;102.45;102.3;101.75;101.0
30 år 2,00 % afdragsfri*;102.85;102.2;102.05;101.5;100.75
30 år 2,50 %;103.15;103.0;102.8;102.2;101.3
30 år 2,50 % afdragsfri*;103.14;102.99;102.8;102.15;101.3
