Type;Tilbudskurs;Aktuel kurs;Udbetalingskurs Fastkursaftale til 11.12.2019;Udbetalingskurs Fastkursaftale til 30.12.2019;Udbetalingskurs Fastkursaftale til 31.03.2020
10 år -0,50 %;96.84;96.35;96.3;96.3;96.15
10 år 0,00 %;99.8;99.65;99.55;99.5;99.3
10 år 0,50 %;101.1;100.95;100.85;100.75;100.4
15 år 0,50 %;100.65;100.58;100.45;100.4;100.05
15 år 1,00 %;102.05;101.85;101.7;101.6;101.1
20 år 0,00 %;93.65;93.7;93.65;93.6;93.35
20 år 0,50 %;97.69;97.7;97.6;97.5;97.15
20 år 1,00 %;100.92;100.81;100.7;100.6;100.1
20 år 1,50 %;102.6;102.45;102.3;102.15;101.55
30 år 0,50 %;94.42;94.5;94.4;94.35;93.95
30 år 0,50 % afdragsfri*;93.53;93.55;93.45;93.4;93.0
30 år 1,00 %;98.61;98.5;98.35;98.25;97.8
30 år 1,00 % afdragsfri*;97.69;97.58;97.45;97.35;96.85
30 år 1,50 %;101.07;100.92;100.75;100.65;100.0
30 år 1,50 % afdragsfri*;100.86;100.55;100.4;100.25;99.65
30 år 2,00 %;102.35;102.2;102.0;101.85;101.1
30 år 2,00 % afdragsfri*;101.91;101.76;101.6;101.45;100.65
30 år 2,50 %;103.0;102.85;102.65;102.45;101.6
30 år 2,50 % afdragsfri*;102.48;102.31;102.1;101.9;101.05
