Type;Tilbudskurs;Aktuel kurs;Udbetalingskurs Fastkursaftale til 11.12.2019;Udbetalingskurs Fastkursaftale til 30.12.2019;Udbetalingskurs Fastkursaftale til 31.03.2020
10 år -0,50 %;96.84;96.53;96.5;96.45;96.35
10 år 0,00 %;99.8;99.8;99.7;99.65;99.45
10 år 0,50 %;101.1;101.1;101.0;100.9;100.55
15 år 0,50 %;100.65;100.75;100.65;100.55;100.2
15 år 1,00 %;102.05;102.08;101.95;101.85;101.35
20 år 0,00 %;93.65;93.88;93.8;93.75;93.55
20 år 0,50 %;97.69;97.88;97.75;97.7;97.35
20 år 1,00 %;100.92;101.04;100.9;100.8;100.3
20 år 1,50 %;102.6;102.6;102.45;102.3;101.7
30 år 0,50 %;94.42;94.65;94.55;94.5;94.1
30 år 0,50 % afdragsfri*;93.53;93.75;93.65;93.6;93.2
30 år 1,00 %;98.61;98.7;98.55;98.45;98.0
30 år 1,00 % afdragsfri*;97.69;97.83;97.7;97.6;97.1
30 år 1,50 %;101.07;101.1;100.95;100.8;100.2
30 år 1,50 % afdragsfri*;100.86;100.72;100.55;100.45;99.8
30 år 2,00 %;102.35;102.35;102.15;102.0;101.25
30 år 2,00 % afdragsfri*;101.91;101.91;101.75;101.6;100.8
30 år 2,50 %;103.0;103.0;102.8;102.6;101.75
30 år 2,50 % afdragsfri*;102.48;102.46;102.25;102.05;101.2
