Type;Tilbudskurs;Aktuel kurs;Udbetalingskurs Fastkursaftale til 09.12.2019;Udbetalingskurs Fastkursaftale til 30.12.2019;Udbetalingskurs Fastkursaftale til 31.03.2020
10 år -0,50 %;96.53;96.5;96.45;96.45;96.3
10 år 0,00 %;99.8;99.8;99.7;99.65;99.45
10 år 0,50 %;101.1;101.1;101.0;100.9;100.55
15 år 0,50 %;100.65;100.65;100.55;100.45;100.1
15 år 1,00 %;102.12;102.08;101.95;101.85;101.35
20 år 0,00 %;93.67;93.62;93.55;93.5;93.25
20 år 0,50 %;97.72;97.8;97.7;97.6;97.25
20 år 1,00 %;101.02;100.94;100.8;100.7;100.2
20 år 1,50 %;102.65;102.65;102.5;102.35;101.7
30 år 0,50 %;94.62;94.38;94.3;94.2;93.85
30 år 0,50 % afdragsfri*;93.55;93.45;93.35;93.25;92.9
30 år 1,00 %;98.61;98.45;98.3;98.2;97.7
30 år 1,00 % afdragsfri*;97.71;97.53;97.4;97.3;96.8
30 år 1,50 %;101.25;101.1;100.95;100.8;100.2
30 år 1,50 % afdragsfri*;100.92;100.65;100.5;100.35;99.75
30 år 2,00 %;102.4;102.4;102.2;102.05;101.3
30 år 2,00 % afdragsfri*;102.09;101.96;101.8;101.6;100.85
30 år 2,50 %;103.0;103.0;102.8;102.6;101.7
30 år 2,50 % afdragsfri*;102.48;102.48;102.3;102.1;101.2
