Type;Tilbudskurs;Aktuel kurs;Udbetalingskurs Fastkursaftale til 10.12.2019;Udbetalingskurs Fastkursaftale til 30.12.2019;Udbetalingskurs Fastkursaftale til 31.03.2020
10 år -0,50 %;96.7;96.33;96.3;96.25;96.15
10 år 0,00 %;99.8;99.65;99.55;99.5;99.3
10 år 0,50 %;101.1;100.95;100.85;100.75;100.4
15 år 0,50 %;100.65;100.5;100.4;100.3;99.95
15 år 1,00 %;102.05;101.95;101.8;101.7;101.2
20 år 0,00 %;93.62;93.6;93.55;93.5;93.25
20 år 0,50 %;97.79;97.65;97.55;97.45;97.1
20 år 1,00 %;100.94;100.8;100.65;100.55;100.05
20 år 1,50 %;102.65;102.5;102.35;102.2;101.6
30 år 0,50 %;94.5;94.38;94.3;94.2;93.85
30 år 0,50 % afdragsfri*;93.45;93.45;93.35;93.3;92.9
30 år 1,00 %;98.54;98.42;98.3;98.2;97.7
30 år 1,00 % afdragsfri*;97.67;97.5;97.35;97.25;96.8
30 år 1,50 %;101.2;100.95;100.8;100.65;100.05
30 år 1,50 % afdragsfri*;100.67;100.55;100.4;100.25;99.65
30 år 2,00 %;102.45;102.25;102.05;101.9;101.15
30 år 2,00 % afdragsfri*;101.98;101.81;101.65;101.45;100.7
30 år 2,50 %;103.0;102.85;102.65;102.45;101.55
30 år 2,50 % afdragsfri*;102.48;102.33;102.15;101.95;101.05
