Type;Tilbudskurs;Aktuel kurs;Udbetalingskurs Fastkursaftale til 10.12.2019;Udbetalingskurs Fastkursaftale til 30.12.2019;Udbetalingskurs Fastkursaftale til 31.03.2020
10 år -0,50 %;96.7;96.47;96.45;96.4;96.3
10 år 0,00 %;99.8;99.78;99.7;99.65;99.4
10 år 0,50 %;101.1;101.1;101.0;100.9;100.55
15 år 0,50 %;100.65;100.62;100.5;100.45;100.05
15 år 1,00 %;102.05;102.0;101.85;101.75;101.25
20 år 0,00 %;93.62;93.67;93.6;93.55;93.35
20 år 0,50 %;97.79;97.7;97.6;97.5;97.15
20 år 1,00 %;100.94;100.94;100.8;100.7;100.2
20 år 1,50 %;102.65;102.6;102.45;102.3;101.7
30 år 0,50 %;94.5;94.47;94.4;94.3;93.95
30 år 0,50 % afdragsfri*;93.45;93.55;93.45;93.4;93.0
30 år 1,00 %;98.54;98.53;98.4;98.3;97.8
30 år 1,00 % afdragsfri*;97.67;97.6;97.45;97.35;96.9
30 år 1,50 %;101.2;101.05;100.9;100.75;100.15
30 år 1,50 % afdragsfri*;100.67;100.65;100.5;100.35;99.75
30 år 2,00 %;102.45;102.35;102.15;102.0;101.25
30 år 2,00 % afdragsfri*;101.98;101.91;101.75;101.55;100.8
30 år 2,50 %;103.0;103.0;102.8;102.6;101.7
30 år 2,50 % afdragsfri*;102.48;102.48;102.3;102.1;101.2
