Type;Tilbudskurs;Aktuel kurs;Udbetalingskurs Fastkursaftale til 10.12.2019;Udbetalingskurs Fastkursaftale til 30.12.2019;Udbetalingskurs Fastkursaftale til 31.03.2020
10 år -0,50 %;96.7;96.33;96.3;96.25;96.15
10 år 0,00 %;99.8;99.62;99.55;99.5;99.25
10 år 0,50 %;101.1;100.95;100.85;100.75;100.4
15 år 0,50 %;100.65;100.47;100.35;100.3;99.9
15 år 1,00 %;102.05;101.85;101.7;101.6;101.1
20 år 0,00 %;93.62;93.53;93.45;93.4;93.2
20 år 0,50 %;97.79;97.55;97.45;97.35;97.0
20 år 1,00 %;100.94;100.79;100.65;100.55;100.05
20 år 1,50 %;102.65;102.45;102.3;102.15;101.55
30 år 0,50 %;94.5;94.33;94.25;94.15;93.8
30 år 0,50 % afdragsfri*;93.45;93.4;93.3;93.25;92.85
30 år 1,00 %;98.54;98.38;98.25;98.15;97.65
30 år 1,00 % afdragsfri*;97.67;97.45;97.3;97.2;96.75
30 år 1,50 %;101.2;100.9;100.75;100.6;100.0
30 år 1,50 % afdragsfri*;100.67;100.5;100.35;100.2;99.6
30 år 2,00 %;102.45;102.2;102.0;101.85;101.1
30 år 2,00 % afdragsfri*;101.98;101.76;101.6;101.4;100.65
30 år 2,50 %;103.0;102.85;102.65;102.45;101.55
30 år 2,50 % afdragsfri*;102.48;102.33;102.15;101.95;101.05
