Type;Tilbudskurs;Aktuel kurs;Udbetalingskurs Fastkursaftale til 28.11.2019;Udbetalingskurs Fastkursaftale til 30.12.2019;Udbetalingskurs Fastkursaftale til 31.03.2020
10 år -0,50 %;96.55;96.2;96.15;96.1;96.0
10 år 0,00 %;100.03;99.78;99.7;99.6;99.4
10 år 0,50 %;101.3;101.1;101.0;100.9;100.5
15 år 0,50 %;100.8;100.5;100.4;100.3;99.9
15 år 1,00 %;102.05;101.88;101.75;101.6;101.1
20 år 0,00 %;93.83;93.4;93.35;93.25;93.05
20 år 0,50 %;97.7;97.43;97.35;97.2;96.85
20 år 1,00 %;101.21;100.97;100.85;100.7;100.2
20 år 1,50 %;102.7;102.55;102.4;102.2;101.55
30 år 0,50 %;94.77;94.12;94.05;93.9;93.55
30 år 0,50 % afdragsfri*;93.5;93.18;93.1;92.95;92.6
30 år 1,00 %;98.8;98.25;98.15;97.95;97.45
30 år 1,00 % afdragsfri*;97.86;97.25;97.15;96.95;96.5
30 år 1,50 %;101.45;101.11;100.95;100.75;100.15
30 år 1,50 % afdragsfri*;101.43;100.6;100.45;100.25;99.6
30 år 2,00 %;102.5;102.3;102.15;101.9;101.1
30 år 2,00 % afdragsfri*;102.02;101.86;101.7;101.45;100.7
30 år 2,50 %;103.0;102.85;102.65;102.35;101.5
30 år 2,50 % afdragsfri*;102.55;102.4;102.2;101.9;101.05
