Type;Tilbudskurs;Aktuel kurs;Udbetalingskurs Fastkursaftale til 28.11.2019;Udbetalingskurs Fastkursaftale til 30.12.2019;Udbetalingskurs Fastkursaftale til 31.03.2020
10 år -0,50 %;96.55;96.4;96.35;96.3;96.2
10 år 0,00 %;100.03;99.9;99.85;99.75;99.5
10 år 0,50 %;101.3;101.15;101.05;100.95;100.55
15 år 0,50 %;100.8;100.65;100.55;100.45;100.05
15 år 1,00 %;102.05;101.97;101.85;101.7;101.2
20 år 0,00 %;93.83;93.78;93.7;93.65;93.4
20 år 0,50 %;97.7;97.75;97.65;97.55;97.15
20 år 1,00 %;101.21;101.08;100.95;100.8;100.3
20 år 1,50 %;102.7;102.55;102.4;102.2;101.55
30 år 0,50 %;94.77;94.5;94.4;94.3;93.95
30 år 0,50 % afdragsfri*;93.5;93.55;93.45;93.35;93.0
30 år 1,00 %;98.8;98.6;98.5;98.3;97.8
30 år 1,00 % afdragsfri*;97.86;97.62;97.5;97.35;96.85
30 år 1,50 %;101.45;101.22;101.1;100.85;100.25
30 år 1,50 % afdragsfri*;101.43;100.8;100.65;100.45;99.8
30 år 2,00 %;102.5;102.3;102.15;101.9;101.1
30 år 2,00 % afdragsfri*;102.02;101.86;101.7;101.45;100.7
30 år 2,50 %;103.0;102.85;102.65;102.35;101.5
30 år 2,50 % afdragsfri*;102.55;102.4;102.2;101.9;101.05
