Type;Tilbudskurs;Aktuel kurs;Udbetalingskurs Fastkursaftale til 28.11.2019;Udbetalingskurs Fastkursaftale til 30.12.2019;Udbetalingskurs Fastkursaftale til 31.03.2020
10 år -0,50 %;96.55;96.35;96.3;96.25;96.15
10 år 0,00 %;100.03;99.92;99.85;99.75;99.55
10 år 0,50 %;101.3;101.25;101.15;101.05;100.65
15 år 0,50 %;100.8;100.65;100.55;100.45;100.05
15 år 1,00 %;102.05;102.03;101.9;101.75;101.25
20 år 0,00 %;93.83;93.55;93.5;93.4;93.2
20 år 0,50 %;97.7;97.58;97.5;97.35;97.0
20 år 1,00 %;101.21;101.12;101.0;100.85;100.35
20 år 1,50 %;102.7;102.7;102.55;102.35;101.7
30 år 0,50 %;94.77;94.27;94.2;94.05;93.7
30 år 0,50 % afdragsfri*;93.5;93.33;93.25;93.1;92.75
30 år 1,00 %;98.8;98.4;98.3;98.1;97.6
30 år 1,00 % afdragsfri*;97.86;97.4;97.3;97.1;96.65
30 år 1,50 %;101.45;101.26;101.1;100.9;100.3
30 år 1,50 % afdragsfri*;101.43;100.75;100.6;100.4;99.75
30 år 2,00 %;102.5;102.45;102.3;102.05;101.25
30 år 2,00 % afdragsfri*;102.02;102.01;101.85;101.6;100.85
30 år 2,50 %;103.0;103.0;102.8;102.5;101.65
30 år 2,50 % afdragsfri*;102.55;102.55;102.35;102.05;101.2
