Type;Tilbudskurs;Aktuel kurs;Udbetalingskurs Fastkursaftale til 27.11.2019;Udbetalingskurs Fastkursaftale til 30.12.2019;Udbetalingskurs Fastkursaftale til 31.03.2020
10 år -0,50 %;96.6;96.42;96.4;96.35;96.25
10 år 0,00 %;100.05;99.9;99.8;99.75;99.5
10 år 0,50 %;101.35;101.15;101.05;100.9;100.55
15 år 0,50 %;100.8;100.67;100.55;100.45;100.05
15 år 1,00 %;102.13;101.95;101.8;101.65;101.15
20 år 0,00 %;93.8;93.82;93.75;93.65;93.45
20 år 0,50 %;97.84;97.75;97.65;97.5;97.15
20 år 1,00 %;101.21;101.06;100.95;100.75;100.25
20 år 1,50 %;102.71;102.55;102.4;102.15;101.55
30 år 0,50 %;94.52;94.55;94.45;94.3;93.95
30 år 0,50 % afdragsfri*;93.52;93.6;93.5;93.35;93.0
30 år 1,00 %;98.71;98.6;98.45;98.3;97.8
30 år 1,00 % afdragsfri*;97.76;97.67;97.55;97.35;96.9
30 år 1,50 %;101.57;101.22;101.05;100.85;100.2
30 år 1,50 % afdragsfri*;101.05;100.83;100.65;100.45;99.8
30 år 2,00 %;102.42;102.3;102.1;101.85;101.1
30 år 2,00 % afdragsfri*;102.03;101.86;101.7;101.4;100.65
30 år 2,50 %;103.0;102.85;102.65;102.35;101.45
30 år 2,50 % afdragsfri*;102.55;102.4;102.2;101.9;101.0
