Type;Tilbudskurs;Aktuel kurs;Udbetalingskurs Fastkursaftale til 16.10.2019;Udbetalingskurs Fastkursaftale til 30.12.2019;Udbetalingskurs Fastkursaftale til 31.03.2020
10 år -0,50 %;97.66;97.72;97.7;97.6;97.45
10 år 0,00 %;100.65;100.65;100.55;100.35;100.15
10 år 0,50 %;101.8;101.7;101.6;101.3;100.9
15 år 0,50 %;101.35;101.47;101.35;101.05;100.7
15 år 1,00 %;102.27;102.34;102.2;101.8;101.3
20 år 0,00 %;95.5;96.3;96.25;96.05;95.8
20 år 0,50 %;99.39;99.9;99.8;99.5;99.15
20 år 1,00 %;101.6;101.65;101.5;101.1;100.6
20 år 1,50 %;102.3;102.3;102.15;101.65;101.0
30 år 0,50 %;96.42;96.9;96.8;96.5;96.15
30 år 0,50 % afdragsfri*;95.22;95.95;95.85;95.55;95.2
30 år 1,00 % afdragsfri*;99.21;99.83;99.7;99.3;98.8
30 år 1,00 %;100.03;100.5;100.35;99.95;99.45
30 år 1,50 %;101.94;101.8;101.65;101.15;100.5
30 år 1,50 % afdragsfri*;101.86;101.78;101.6;101.1;100.5
30 år 2,00 %;102.06;101.95;101.75;101.15;100.4
30 år 2,00 % afdragsfri*;101.76;101.72;101.55;100.95;100.2
30 år 2,50 %;102.0;102.0;101.8;101.1;100.2
30 år 2,50 % afdragsfri*;102.17;102.17;101.95;101.25;100.35
