Type;Tilbudskurs;Aktuel kurs;Udbetalingskurs Fastkursaftale til 21.11.2019;Udbetalingskurs Fastkursaftale til 30.12.2019;Udbetalingskurs Fastkursaftale til 31.03.2020
10 år -0,50 %;96.65;96.5;96.45;96.4;96.3
10 år 0,00 %;100.1;100.0;99.95;99.85;99.6
10 år 0,50 %;101.38;101.23;101.15;101.0;100.6
15 år 0,50 %;100.85;100.8;100.7;100.55;100.2
15 år 1,00 %;102.17;102.07;101.95;101.75;101.25
20 år 0,00 %;93.9;94.05;94.0;93.9;93.65
20 år 0,50 %;97.97;97.97;97.9;97.75;97.35
20 år 1,00 %;101.31;101.26;101.15;100.95;100.45
20 år 1,50 %;102.92;102.65;102.5;102.25;101.6
30 år 0,50 %;94.66;94.72;94.65;94.5;94.15
30 år 0,50 % afdragsfri*;93.65;93.78;93.7;93.55;93.2
30 år 1,00 %;98.73;98.8;98.7;98.5;98.0
30 år 1,00 % afdragsfri*;97.77;97.85;97.75;97.55;97.05
30 år 1,50 %;101.47;101.43;101.3;101.05;100.4
30 år 1,50 % afdragsfri*;101.17;101.08;100.95;100.65;100.05
30 år 2,00 %;102.75;102.56;102.4;102.1;101.3
30 år 2,00 % afdragsfri*;102.43;102.28;102.1;101.8;101.05
30 år 2,50 %;103.1;102.95;102.75;102.4;101.5
30 år 2,50 % afdragsfri*;102.92;102.77;102.6;102.2;101.35
