Type;Tilbudskurs;Aktuel kurs;Udbetalingskurs Fastkursaftale til 11.11.2019;Udbetalingskurs Fastkursaftale til 30.12.2019;Udbetalingskurs Fastkursaftale til 31.03.2020
10 år -0,50 %;96.8;96.55;96.5;96.45;96.35
10 år 0,00 %;100.35;100.1;100.0;99.9;99.65
10 år 0,50 %;101.55;101.32;101.2;101.0;100.65
15 år 0,50 %;101.12;100.85;100.75;100.55;100.2
15 år 1,00 %;102.3;102.1;101.95;101.7;101.2
20 år 0,00 %;94.39;93.75;93.7;93.55;93.35
20 år 0,50 %;98.36;97.8;97.7;97.5;97.15
20 år 1,00 %;101.56;101.28;101.15;100.9;100.4
20 år 1,50 %;102.7;102.56;102.4;102.05;101.45
30 år 0,50 %;95.15;94.33;94.25;94.05;93.7
30 år 0,50 % afdragsfri*;94.1;93.4;93.3;93.1;92.75
30 år 1,00 %;99.17;98.47;98.35;98.1;97.6
30 år 1,00 % afdragsfri*;98.23;97.53;97.4;97.15;96.65
30 år 1,50 %;102.55;101.52;101.35;101.05;100.4
30 år 1,50 % afdragsfri*;101.75;101.29;101.15;100.8;100.2
30 år 2,00 %;103.0;102.6;102.4;102.0;101.25
30 år 2,00 % afdragsfri*;102.5;102.22;102.05;101.65;100.9
30 år 2,50 %;103.15;102.95;102.75;102.3;101.4
30 år 2,50 % afdragsfri*;103.04;102.89;102.7;102.2;101.35
