Type;Tilbudskurs;Aktuel kurs;Udbetalingskurs Fastkursaftale til 12.11.2019;Udbetalingskurs Fastkursaftale til 30.12.2019;Udbetalingskurs Fastkursaftale til 31.03.2020
10 år -0,50 %;96.74;96.55;96.5;96.45;96.35
10 år 0,00 %;100.28;100.1;100.0;99.9;99.65
10 år 0,50 %;101.5;101.32;101.2;101.0;100.65
15 år 0,50 %;101.0;100.85;100.75;100.55;100.2
15 år 1,00 %;102.79;102.1;101.95;101.7;101.2
20 år 0,00 %;93.99;93.75;93.7;93.55;93.35
20 år 0,50 %;98.16;97.8;97.7;97.5;97.15
20 år 1,00 %;101.45;101.28;101.15;100.9;100.4
20 år 1,50 %;102.76;102.56;102.4;102.05;101.45
30 år 0,50 %;94.6;94.33;94.25;94.05;93.7
30 år 0,50 % afdragsfri*;93.93;93.4;93.3;93.1;92.75
30 år 1,00 %;98.78;98.47;98.35;98.1;97.6
30 år 1,00 % afdragsfri*;97.84;97.53;97.4;97.15;96.65
30 år 1,50 %;101.82;101.52;101.35;101.05;100.4
30 år 1,50 % afdragsfri*;102.0;101.29;101.15;100.8;100.2
30 år 2,00 %;102.78;102.6;102.4;102.05;101.25
30 år 2,00 % afdragsfri*;102.4;102.22;102.05;101.65;100.9
30 år 2,50 %;103.1;102.95;102.75;102.3;101.4
30 år 2,50 % afdragsfri*;103.04;102.89;102.7;102.25;101.35
