Type;Tilbudskurs;Aktuel kurs;Udbetalingskurs Fastkursaftale til 12.11.2019;Udbetalingskurs Fastkursaftale til 30.12.2019;Udbetalingskurs Fastkursaftale til 31.03.2020
10 år -0,50 %;96.74;96.7;96.65;96.6;96.5
10 år 0,00 %;100.28;100.25;100.15;100.05;99.8
10 år 0,50 %;101.5;101.47;101.35;101.15;100.8
15 år 0,50 %;101.0;101.0;100.9;100.7;100.35
15 år 1,00 %;102.79;102.25;102.1;101.85;101.35
20 år 0,00 %;93.99;94.0;93.95;93.8;93.6
20 år 0,50 %;98.16;98.05;97.95;97.75;97.4
20 år 1,00 %;101.45;101.42;101.3;101.05;100.55
20 år 1,50 %;102.76;102.78;102.65;102.3;101.65
30 år 0,50 %;94.6;94.6;94.5;94.3;93.95
30 år 0,50 % afdragsfri*;93.93;93.67;93.6;93.4;93.05
30 år 1,00 %;98.78;98.72;98.6;98.35;97.85
30 år 1,00 % afdragsfri*;97.84;97.8;97.65;97.4;96.95
30 år 1,50 %;101.82;101.67;101.5;101.2;100.55
30 år 1,50 % afdragsfri*;102.0;101.42;101.25;100.95;100.3
30 år 2,00 %;102.78;102.72;102.55;102.15;101.4
30 år 2,00 % afdragsfri*;102.4;102.38;102.2;101.8;101.05
30 år 2,50 %;103.1;103.1;102.9;102.45;101.55
30 år 2,50 % afdragsfri*;103.04;102.97;102.75;102.3;101.4
