Type;Tilbudskurs;Aktuel kurs;Udbetalingskurs Fastkursaftale til 21.10.2019;Udbetalingskurs Fastkursaftale til 30.12.2019;Udbetalingskurs Fastkursaftale til 31.03.2020
10 år -0,50 %;97.53;97.4;97.35;97.25;97.15
10 år 0,00 %;100.6;100.6;100.5;100.35;100.1
10 år 0,50 %;101.8;101.8;101.7;101.4;101.05
15 år 0,50 %;101.47;101.45;101.35;101.05;100.7
15 år 1,00 %;102.47;102.45;102.3;101.95;101.45
20 år 0,00 %;96.05;95.9;95.85;95.65;95.4
20 år 0,50 %;99.83;99.7;99.6;99.3;98.95
20 år 1,00 %;101.85;101.83;101.7;101.3;100.8
20 år 1,50 %;102.95;102.73;102.6;102.1;101.45
30 år 0,50 %;96.92;96.65;96.55;96.3;95.9
30 år 0,50 % afdragsfri*;95.8;95.7;95.6;95.35;94.95
30 år 1,00 % afdragsfri*;99.91;99.83;99.7;99.35;98.85
30 år 1,00 %;100.72;100.5;100.35;100.0;99.5
30 år 1,50 %;102.32;102.3;102.15;101.65;101.05
30 år 1,50 % afdragsfri*;102.14;102.1;101.95;101.45;100.85
30 år 2,00 %;102.77;102.6;102.4;101.85;101.1
30 år 2,00 % afdragsfri*;102.53;102.35;102.15;101.6;100.85
30 år 2,50 %;103.25;103.15;102.95;102.3;101.4
30 år 2,50 % afdragsfri*;103.25;103.16;102.95;102.3;101.4
