Type;Tilbudskurs;Aktuel kurs;Udbetalingskurs Fastkursaftale til 21.10.2019;Udbetalingskurs Fastkursaftale til 30.12.2019;Udbetalingskurs Fastkursaftale til 31.03.2020
10 år -0,50 %;97.53;97.25;97.2;97.1;97.0
10 år 0,00 %;100.6;100.45;100.35;100.2;99.95
10 år 0,50 %;101.8;101.65;101.55;101.25;100.9
15 år 0,50 %;101.47;101.33;101.2;100.95;100.55
15 år 1,00 %;102.47;102.35;102.2;101.85;101.35
20 år 0,00 %;96.05;95.88;95.8;95.6;95.4
20 år 0,50 %;99.83;99.62;99.5;99.25;98.9
20 år 1,00 %;101.85;101.7;101.55;101.2;100.7
20 år 1,50 %;102.95;102.59;102.45;101.95;101.35
30 år 0,50 %;96.92;96.62;96.55;96.25;95.9
30 år 0,50 % afdragsfri*;95.8;95.67;95.6;95.3;94.95
30 år 1,00 % afdragsfri*;99.91;99.72;99.6;99.2;98.75
30 år 1,00 %;100.72;100.4;100.25;99.9;99.4
30 år 1,50 %;102.32;102.1;101.95;101.45;100.85
30 år 1,50 % afdragsfri*;102.14;101.9;101.75;101.25;100.65
30 år 2,00 %;102.77;102.45;102.25;101.7;100.95
30 år 2,00 % afdragsfri*;102.53;102.2;102.0;101.45;100.7
30 år 2,50 %;103.25;103.0;102.8;102.15;101.25
30 år 2,50 % afdragsfri*;103.25;103.0;102.8;102.15;101.25
