Type;Tilbudskurs;Aktuel kurs;Udbetalingskurs Fastkursaftale til 21.10.2019;Udbetalingskurs Fastkursaftale til 30.12.2019;Udbetalingskurs Fastkursaftale til 31.03.2020
10 år -0,50 %;97.53;97.22;97.2;97.1;97.0
10 år 0,00 %;100.6;100.45;100.35;100.2;99.95
10 år 0,50 %;101.8;101.65;101.55;101.25;100.9
15 år 0,50 %;101.47;101.3;101.2;100.9;100.55
15 år 1,00 %;102.47;102.28;102.15;101.75;101.25
20 år 0,00 %;96.05;95.75;95.7;95.5;95.25
20 år 0,50 %;99.83;99.55;99.45;99.15;98.8
20 år 1,00 %;101.85;101.7;101.55;101.2;100.7
20 år 1,50 %;102.95;102.58;102.45;101.95;101.3
30 år 0,50 %;96.92;96.5;96.4;96.15;95.75
30 år 0,50 % afdragsfri*;95.8;95.55;95.45;95.2;94.8
30 år 1,00 % afdragsfri*;99.91;99.75;99.6;99.25;98.75
30 år 1,00 %;100.72;100.42;100.3;99.9;99.4
30 år 1,50 %;102.32;102.15;102.0;101.5;100.9
30 år 1,50 % afdragsfri*;102.14;101.97;101.8;101.35;100.7
30 år 2,00 %;102.77;102.45;102.25;101.7;100.95
30 år 2,00 % afdragsfri*;102.53;102.22;102.05;101.5;100.7
30 år 2,50 %;103.25;103.0;102.8;102.15;101.25
30 år 2,50 % afdragsfri*;103.25;103.01;102.8;102.15;101.25
