Type;Tilbudskurs;Aktuel kurs;Udbetalingskurs Fastkursaftale til 19.12.2019;Udbetalingskurs Fastkursaftale til 30.12.2019;Udbetalingskurs Fastkursaftale til 31.03.2020
10 år -0,50 %;96.5;96.35;96.3;96.3;96.2
10 år 0,00 %;99.8;99.62;99.55;99.55;99.3
10 år 0,50 %;101.05;100.9;100.8;100.75;100.4
15 år 0,50 %;100.7;100.67;100.6;100.55;100.15
15 år 1,00 %;102.0;101.88;101.75;101.7;101.2
20 år 0,00 %;94.0;93.75;93.7;93.65;93.45
20 år 0,50 %;98.03;97.75;97.65;97.6;97.25
20 år 1,00 %;101.01;100.86;100.75;100.7;100.2
20 år 1,50 %;102.6;102.45;102.3;102.25;101.6
30 år 0,50 %;94.9;94.55;94.45;94.4;94.05
30 år 0,50 % afdragsfri*;93.8;93.65;93.55;93.5;93.15
30 år 1,00 %;98.88;98.6;98.5;98.45;97.95
30 år 1,00 % afdragsfri*;97.99;97.72;97.6;97.55;97.05
30 år 1,50 %;101.17;101.03;100.9;100.8;100.2
30 år 1,50 % afdragsfri*;100.75;100.58;100.45;100.35;99.75
30 år 2,00 %;102.35;102.1;101.95;101.85;101.1
30 år 2,00 % afdragsfri*;101.89;101.6;101.45;101.35;100.6
30 år 2,50 %;103.0;102.65;102.45;102.35;101.5
30 år 2,50 % afdragsfri*;102.44;102.28;102.1;102.0;101.1
