Type;Tilbudskurs;Aktuel kurs;Udbetalingskurs Fastkursaftale til 19.12.2019;Udbetalingskurs Fastkursaftale til 30.12.2019;Udbetalingskurs Fastkursaftale til 31.03.2020
10 år -0,50 %;96.5;96.5;96.45;96.45;96.35
10 år 0,00 %;99.8;99.8;99.75;99.7;99.45
10 år 0,50 %;101.05;101.05;100.95;100.9;100.55
15 år 0,50 %;100.7;100.8;100.7;100.65;100.3
15 år 1,00 %;102.0;102.03;101.9;101.85;101.35
20 år 0,00 %;94.0;93.95;93.9;93.85;93.65
20 år 0,50 %;98.03;97.95;97.85;97.8;97.45
20 år 1,00 %;101.01;101.01;100.9;100.85;100.35
20 år 1,50 %;102.6;102.6;102.45;102.4;101.75
30 år 0,50 %;94.9;94.75;94.65;94.6;94.25
30 år 0,50 % afdragsfri*;93.8;93.83;93.75;93.7;93.35
30 år 1,00 %;98.88;98.78;98.65;98.6;98.1
30 år 1,00 % afdragsfri*;97.99;97.9;97.8;97.75;97.25
30 år 1,50 %;101.17;101.2;101.05;101.0;100.35
30 år 1,50 % afdragsfri*;100.75;100.78;100.65;100.55;99.95
30 år 2,00 %;102.35;102.25;102.1;102.0;101.25
30 år 2,00 % afdragsfri*;101.89;101.75;101.6;101.5;100.75
30 år 2,50 %;103.0;102.8;102.6;102.5;101.65
30 år 2,50 % afdragsfri*;102.44;102.44;102.25;102.15;101.25
