Type;Tilbudskurs;Aktuel kurs;Udbetalingskurs Fastkursaftale til 17.12.2019;Udbetalingskurs Fastkursaftale til 30.12.2019;Udbetalingskurs Fastkursaftale til 31.03.2020
10 år -0,50 %;96.5;96.35;96.3;96.3;96.2
10 år 0,00 %;99.91;99.65;99.55;99.55;99.3
10 år 0,50 %;101.05;100.9;100.8;100.75;100.35
15 år 0,50 %;100.72;100.55;100.45;100.4;100.0
15 år 1,00 %;102.43;101.85;101.7;101.65;101.15
20 år 0,00 %;94.0;93.8;93.75;93.7;93.45
20 år 0,50 %;97.88;97.75;97.65;97.6;97.25
20 år 1,00 %;100.97;100.86;100.75;100.65;100.15
20 år 1,50 %;102.6;102.45;102.3;102.2;101.6
30 år 0,50 %;94.71;94.53;94.45;94.4;94.0
30 år 0,50 % afdragsfri*;93.6;93.6;93.5;93.45;93.1
30 år 1,00 %;98.73;98.55;98.4;98.35;97.85
30 år 1,00 % afdragsfri*;97.77;97.7;97.55;97.5;97.0
30 år 1,50 %;101.11;101.0;100.85;100.75;100.15
30 år 1,50 % afdragsfri*;100.75;100.58;100.4;100.35;99.7
30 år 2,00 %;102.35;102.2;102.0;101.9;101.15
30 år 2,00 % afdragsfri*;101.95;101.76;101.6;101.45;100.7
30 år 2,50 %;103.0;102.85;102.65;102.5;101.65
30 år 2,50 % afdragsfri*;102.44;102.28;102.1;101.95;101.05
