Type;Tilbudskurs;Aktuel kurs;Udbetalingskurs Fastkursaftale til 18.12.2019;Udbetalingskurs Fastkursaftale til 30.12.2019;Udbetalingskurs Fastkursaftale til 31.03.2020
10 år -0,50 %;96.5;96.35;96.3;96.3;96.2
10 år 0,00 %;99.96;99.62;99.55;99.5;99.3
10 år 0,50 %;101.05;100.9;100.8;100.75;100.4
15 år 0,50 %;100.7;100.62;100.5;100.5;100.1
15 år 1,00 %;102.0;101.9;101.75;101.7;101.2
20 år 0,00 %;93.8;93.75;93.7;93.65;93.4
20 år 0,50 %;97.94;97.75;97.65;97.6;97.25
20 år 1,00 %;100.99;100.86;100.75;100.65;100.15
20 år 1,50 %;102.6;102.45;102.3;102.2;101.6
30 år 0,50 %;94.7;94.55;94.45;94.4;94.05
30 år 0,50 % afdragsfri*;93.65;93.62;93.55;93.5;93.15
30 år 1,00 %;98.73;98.58;98.45;98.4;97.9
30 år 1,00 % afdragsfri*;97.88;97.7;97.55;97.5;97.0
30 år 1,50 %;101.2;101.03;100.85;100.8;100.15
30 år 1,50 % afdragsfri*;100.82;100.58;100.4;100.35;99.7
30 år 2,00 %;102.35;102.12;101.95;101.85;101.1
30 år 2,00 % afdragsfri*;101.91;101.65;101.45;101.35;100.6
30 år 2,50 %;103.0;102.65;102.45;102.35;101.45
30 år 2,50 % afdragsfri*;102.44;102.28;102.1;101.95;101.1
