Type;Tilbudskurs;Aktuel kurs;Udbetalingskurs Fastkursaftale til 31.10.2019;Udbetalingskurs Fastkursaftale til 30.12.2019;Udbetalingskurs Fastkursaftale til 31.03.2020
10 år -0,50 %;97.59;97.35;97.3;97.25;97.1
10 år 0,00 %;100.86;100.55;100.5;100.3;100.1
10 år 0,50 %;101.75;101.72;101.65;101.4;101.0
15 år 0,50 %;101.69;101.47;101.4;101.15;100.75
15 år 1,00 %;102.44;102.44;102.3;102.0;101.5
20 år 0,00 %;95.86;95.45;95.4;95.25;95.0
20 år 0,50 %;99.86;99.4;99.3;99.05;98.7
20 år 1,00 %;102.3;101.97;101.85;101.55;101.05
20 år 1,50 %;102.67;102.67;102.55;102.15;101.5
30 år 0,50 %;96.76;96.22;96.15;95.9;95.55
30 år 0,50 % afdragsfri*;95.83;95.33;95.25;95.0;94.65
30 år 1,00 % afdragsfri*;99.97;99.55;99.45;99.1;98.6
30 år 1,00 %;100.85;100.25;100.15;99.8;99.3
30 år 1,50 %;102.3;102.3;102.15;101.75;101.1
30 år 1,50 % afdragsfri*;102.38;102.2;102.05;101.65;101.05
30 år 2,00 %;102.65;102.7;102.55;102.05;101.3
30 år 2,00 % afdragsfri*;102.35;102.35;102.2;101.7;100.95
30 år 2,50 %;103.15;103.15;102.95;102.4;101.5
30 år 2,50 % afdragsfri*;103.01;103.01;102.8;102.25;101.35
