Type;Tilbudskurs;Aktuel kurs;Udbetalingskurs Fastkursaftale til 31.10.2019;Udbetalingskurs Fastkursaftale til 30.12.2019;Udbetalingskurs Fastkursaftale til 31.03.2020
10 år -0,50 %;97.59;97.25;97.2;97.15;97.0
10 år 0,00 %;100.86;100.43;100.35;100.2;99.95
10 år 0,50 %;101.75;101.58;101.5;101.25;100.85
15 år 0,50 %;101.69;101.38;101.3;101.05;100.65
15 år 1,00 %;102.44;102.28;102.15;101.85;101.35
20 år 0,00 %;95.86;95.53;95.45;95.3;95.1
20 år 0,50 %;99.86;99.57;99.5;99.25;98.85
20 år 1,00 %;102.3;101.85;101.75;101.4;100.9
20 år 1,50 %;102.67;102.53;102.4;102.0;101.35
30 år 0,50 %;96.76;96.4;96.3;96.05;95.7
30 år 0,50 % afdragsfri*;95.83;95.5;95.4;95.2;94.8
30 år 1,00 % afdragsfri*;99.97;99.65;99.55;99.2;98.7
30 år 1,00 %;100.85;100.4;100.3;99.95;99.45
30 år 1,50 %;102.3;102.15;102.0;101.6;100.95
30 år 1,50 % afdragsfri*;102.38;102.05;101.9;101.5;100.9
30 år 2,00 %;102.65;102.53;102.35;101.85;101.1
30 år 2,00 % afdragsfri*;102.35;102.2;102.05;101.55;100.8
30 år 2,50 %;103.15;103.0;102.8;102.25;101.35
30 år 2,50 % afdragsfri*;103.01;102.86;102.65;102.1;101.2
