Type;Tilbudskurs;Aktuel kurs;Udbetalingskurs Fastkursaftale til 27.11.2019;Udbetalingskurs Fastkursaftale til 30.12.2019;Udbetalingskurs Fastkursaftale til 31.03.2020
10 år -0,50 %;96.6;96.58;96.55;96.5;96.4
10 år 0,00 %;100.05;100.05;99.95;99.9;99.65
10 år 0,50 %;101.35;101.3;101.2;101.05;100.7
15 år 0,50 %;100.8;100.77;100.65;100.55;100.15
15 år 1,00 %;102.13;102.1;101.95;101.8;101.3
20 år 0,00 %;93.8;93.8;93.75;93.65;93.4
20 år 0,50 %;97.84;97.7;97.6;97.45;97.1
20 år 1,00 %;101.21;101.24;101.1;100.95;100.45
20 år 1,50 %;102.71;102.71;102.55;102.35;101.7
30 år 0,50 %;94.52;94.47;94.4;94.25;93.9
30 år 0,50 % afdragsfri*;93.52;93.5;93.4;93.3;92.9
30 år 1,00 %;98.71;98.53;98.4;98.2;97.75
30 år 1,00 % afdragsfri*;97.76;97.62;97.5;97.3;96.85
30 år 1,50 %;101.57;101.35;101.2;100.95;100.35
30 år 1,50 % afdragsfri*;101.05;100.9;100.75;100.5;99.9
30 år 2,00 %;102.42;102.45;102.25;102.0;101.25
30 år 2,00 % afdragsfri*;102.03;102.03;101.85;101.6;100.85
30 år 2,50 %;103.0;103.0;102.8;102.5;101.6
30 år 2,50 % afdragsfri*;102.55;102.55;102.35;102.05;101.15
