Type;Tilbudskurs;Aktuel kurs;Udbetalingskurs Fastkursaftale til 27.11.2019;Udbetalingskurs Fastkursaftale til 30.12.2019;Udbetalingskurs Fastkursaftale til 31.03.2020
10 år -0,50 %;96.6;96.58;96.55;96.5;96.4
10 år 0,00 %;100.05;100.05;99.95;99.9;99.65
10 år 0,50 %;101.35;101.3;101.2;101.05;100.7
15 år 0,50 %;100.8;100.83;100.7;100.6;100.2
15 år 1,00 %;102.13;102.1;101.95;101.8;101.3
20 år 0,00 %;93.8;93.97;93.9;93.8;93.6
20 år 0,50 %;97.84;97.9;97.8;97.65;97.3
20 år 1,00 %;101.21;101.21;101.1;100.9;100.4
20 år 1,50 %;102.71;102.7;102.55;102.3;101.7
30 år 0,50 %;94.52;94.7;94.6;94.45;94.1
30 år 0,50 % afdragsfri*;93.52;93.75;93.65;93.5;93.15
30 år 1,00 %;98.71;98.75;98.6;98.45;97.95
30 år 1,00 % afdragsfri*;97.76;97.83;97.7;97.5;97.05
30 år 1,50 %;101.57;101.38;101.2;101.0;100.35
30 år 1,50 % afdragsfri*;101.05;100.97;100.8;100.6;99.95
30 år 2,00 %;102.42;102.45;102.25;102.0;101.25
30 år 2,00 % afdragsfri*;102.03;102.01;101.85;101.55;100.8
30 år 2,50 %;103.0;103.0;102.8;102.5;101.6
30 år 2,50 % afdragsfri*;102.55;102.55;102.35;102.05;101.15
