Type;Tilbudskurs;Aktuel kurs;Udbetalingskurs Fastkursaftale til 17.10.2019;Udbetalingskurs Fastkursaftale til 30.12.2019;Udbetalingskurs Fastkursaftale til 31.03.2020
10 år -0,50 %;97.78;97.55;97.5;97.4;97.3
10 år 0,00 %;100.65;100.55;100.5;100.3;100.05
10 år 0,50 %;101.7;101.7;101.6;101.3;100.95
15 år 0,50 %;101.47;101.42;101.35;101.05;100.65
15 år 1,00 %;102.34;102.25;102.15;101.75;101.25
20 år 0,00 %;96.19;95.78;95.7;95.5;95.3
20 år 0,50 %;99.9;99.5;99.4;99.1;98.75
20 år 1,00 %;101.65;101.69;101.55;101.15;100.65
20 år 1,50 %;102.3;102.3;102.15;101.65;101.05
30 år 0,50 %;96.94;96.45;96.35;96.05;95.7
30 år 0,50 % afdragsfri*;95.95;95.48;95.4;95.1;94.75
30 år 1,00 % afdragsfri*;99.76;99.47;99.35;98.95;98.45
30 år 1,00 %;100.52;100.2;100.1;99.7;99.2
30 år 1,50 %;101.8;101.8;101.65;101.15;100.55
30 år 1,50 % afdragsfri*;101.92;101.75;101.6;101.1;100.5
30 år 2,00 %;101.95;101.92;101.75;101.15;100.4
30 år 2,00 % afdragsfri*;101.72;101.7;101.55;100.95;100.2
30 år 2,50 %;102.0;101.95;101.75;101.05;100.2
30 år 2,50 % afdragsfri*;102.17;102.12;101.95;101.25;100.35
