Type;Tilbudskurs;Aktuel kurs;Udbetalingskurs Fastkursaftale til 17.10.2019;Udbetalingskurs Fastkursaftale til 30.12.2019;Udbetalingskurs Fastkursaftale til 31.03.2020
10 år -0,50 %;97.78;97.5;97.45;97.35;97.25
10 år 0,00 %;100.65;100.5;100.45;100.25;100.0
10 år 0,50 %;101.7;101.55;101.45;101.15;100.8
15 år 0,50 %;101.47;101.3;101.2;100.9;100.55
15 år 1,00 %;102.34;102.16;102.05;101.65;101.15
20 år 0,00 %;96.19;95.8;95.75;95.55;95.3
20 år 0,50 %;99.9;99.5;99.4;99.1;98.75
20 år 1,00 %;101.65;101.52;101.4;101.0;100.5
20 år 1,50 %;102.3;102.15;102.0;101.5;100.9
30 år 0,50 %;96.94;96.47;96.4;96.1;95.75
30 år 0,50 % afdragsfri*;95.95;95.47;95.4;95.1;94.75
30 år 1,00 % afdragsfri*;99.76;99.35;99.25;98.85;98.35
30 år 1,00 %;100.52;100.1;100.0;99.6;99.1
30 år 1,50 %;101.8;101.65;101.5;101.0;100.4
30 år 1,50 % afdragsfri*;101.92;101.62;101.5;101.0;100.35
30 år 2,00 %;101.95;101.8;101.65;101.05;100.3
30 år 2,00 % afdragsfri*;101.72;101.58;101.4;100.8;100.05
30 år 2,50 %;102.0;101.8;101.6;100.9;100.05
30 år 2,50 % afdragsfri*;102.17;101.97;101.8;101.1;100.2
