Type;Tilbudskurs;Aktuel kurs;Udbetalingskurs Fastkursaftale til 17.10.2019;Udbetalingskurs Fastkursaftale til 30.12.2019;Udbetalingskurs Fastkursaftale til 31.03.2020
10 år -0,50 %;97.78;97.65;97.6;97.5;97.4
10 år 0,00 %;100.65;100.65;100.6;100.4;100.15
10 år 0,50 %;101.7;101.7;101.6;101.3;100.95
15 år 0,50 %;101.47;101.45;101.35;101.05;100.7
15 år 1,00 %;102.34;102.28;102.15;101.75;101.25
20 år 0,00 %;96.19;95.88;95.8;95.6;95.4
20 år 0,50 %;99.9;99.6;99.5;99.2;98.85
20 år 1,00 %;101.65;101.62;101.5;101.1;100.6
20 år 1,50 %;102.3;102.3;102.15;101.65;101.05
30 år 0,50 %;96.94;96.58;96.5;96.2;95.85
30 år 0,50 % afdragsfri*;95.95;95.58;95.5;95.2;94.85
30 år 1,00 % afdragsfri*;99.76;99.45;99.35;98.95;98.45
30 år 1,00 %;100.52;100.22;100.1;99.7;99.2
30 år 1,50 %;101.8;101.8;101.65;101.15;100.55
30 år 1,50 % afdragsfri*;101.92;101.78;101.65;101.15;100.5
30 år 2,00 %;101.95;101.95;101.8;101.2;100.45
30 år 2,00 % afdragsfri*;101.72;101.72;101.55;100.95;100.2
30 år 2,50 %;102.0;101.95;101.75;101.05;100.2
30 år 2,50 % afdragsfri*;102.17;102.12;101.95;101.25;100.35
