Type;Tilbudskurs;Aktuel kurs;Udbetalingskurs Fastkursaftale til 16.10.2019;Udbetalingskurs Fastkursaftale til 30.12.2019;Udbetalingskurs Fastkursaftale til 31.03.2020
10 år -0,50 %;97.66;97.5;97.45;97.35;97.25
10 år 0,00 %;100.65;100.5;100.4;100.2;100.0
10 år 0,50 %;101.8;101.55;101.45;101.15;100.75
15 år 0,50 %;101.35;101.3;101.2;100.9;100.5
15 år 1,00 %;102.27;102.16;102.05;101.6;101.1
20 år 0,00 %;95.5;95.8;95.75;95.55;95.3
20 år 0,50 %;99.39;99.5;99.4;99.1;98.75
20 år 1,00 %;101.6;101.52;101.4;101.0;100.5
20 år 1,50 %;102.3;102.15;102.0;101.5;100.85
30 år 0,50 %;96.42;96.47;96.4;96.1;95.7
30 år 0,50 % afdragsfri*;95.22;95.47;95.4;95.1;94.75
30 år 1,00 % afdragsfri*;99.21;99.35;99.2;98.8;98.35
30 år 1,00 %;100.03;100.1;99.95;99.55;99.05
30 år 1,50 %;101.94;101.65;101.5;101.0;100.35
30 år 1,50 % afdragsfri*;101.86;101.62;101.45;100.95;100.35
30 år 2,00 %;102.06;101.8;101.6;101.0;100.25
30 år 2,00 % afdragsfri*;101.76;101.58;101.4;100.8;100.05
30 år 2,50 %;102.0;101.8;101.6;100.9;100.0
30 år 2,50 % afdragsfri*;102.17;101.97;101.75;101.05;100.15
