Type;Tilbudskurs;Aktuel kurs;Udbetalingskurs Fastkursaftale til 02.12.2019;Udbetalingskurs Fastkursaftale til 30.12.2019;Udbetalingskurs Fastkursaftale til 31.03.2020
10 år -0,50 %;96.35;96.2;96.15;96.1;96.0
10 år 0,00 %;99.88;99.7;99.6;99.55;99.3
10 år 0,50 %;101.18;101.0;100.9;100.8;100.4
15 år 0,50 %;100.6;100.4;100.3;100.2;99.8
15 år 1,00 %;102.0;101.83;101.7;101.55;101.05
20 år 0,00 %;93.33;93.15;93.1;93.0;92.8
20 år 0,50 %;97.4;97.25;97.15;97.05;96.7
20 år 1,00 %;101.17;100.72;100.6;100.45;99.95
20 år 1,50 %;102.7;102.53;102.4;102.2;101.55
30 år 0,50 %;94.22;93.9;93.8;93.7;93.35
30 år 0,50 % afdragsfri*;93.35;93.0;92.9;92.8;92.45
30 år 1,00 %;98.21;97.97;97.85;97.7;97.2
30 år 1,00 % afdragsfri*;97.14;97.0;96.85;96.75;96.25
30 år 1,50 %;101.11;100.91;100.75;100.55;99.95
30 år 1,50 % afdragsfri*;100.87;100.45;100.3;100.1;99.5
30 år 2,00 %;102.45;102.28;102.1;101.85;101.1
30 år 2,00 % afdragsfri*;102.01;101.81;101.65;101.4;100.65
30 år 2,50 %;103.0;102.85;102.65;102.4;101.5
30 år 2,50 % afdragsfri*;102.55;102.4;102.2;101.95;101.05
