Type;Tilbudskurs;Aktuel kurs;Udbetalingskurs Fastkursaftale til 25.11.2019;Udbetalingskurs Fastkursaftale til 30.12.2019;Udbetalingskurs Fastkursaftale til 31.03.2020
10 år -0,50 %;96.65;96.5;96.45;96.4;96.3
10 år 0,00 %;100.15;100.0;99.9;99.85;99.6
10 år 0,50 %;101.38;101.23;101.15;101.0;100.6
15 år 0,50 %;100.95;100.78;100.65;100.55;100.15
15 år 1,00 %;102.22;102.07;101.95;101.75;101.25
20 år 0,00 %;94.2;93.95;93.9;93.8;93.55
20 år 0,50 %;98.2;97.9;97.8;97.65;97.3
20 år 1,00 %;101.41;101.21;101.1;100.9;100.4
20 år 1,50 %;102.8;102.65;102.5;102.25;101.65
30 år 0,50 %;94.83;94.62;94.55;94.4;94.05
30 år 0,50 % afdragsfri*;93.9;93.67;93.6;93.45;93.1
30 år 1,00 %;99.05;98.72;98.6;98.4;97.9
30 år 1,00 % afdragsfri*;98.13;97.78;97.65;97.45;96.95
30 år 1,50 %;101.53;101.36;101.2;100.95;100.35
30 år 1,50 % afdragsfri*;101.42;101.0;100.85;100.6;100.0
30 år 2,00 %;102.85;102.51;102.35;102.05;101.3
30 år 2,00 % afdragsfri*;102.55;102.15;101.95;101.7;100.95
30 år 2,50 %;103.1;102.95;102.75;102.4;101.55
30 år 2,50 % afdragsfri*;102.92;102.77;102.55;102.25;101.35
