Type;Tilbudskurs;Aktuel kurs;Udbetalingskurs Fastkursaftale til 25.11.2019;Udbetalingskurs Fastkursaftale til 30.12.2019;Udbetalingskurs Fastkursaftale til 31.03.2020
10 år -0,50 %;96.65;96.65;96.6;96.55;96.45
10 år 0,00 %;100.15;100.12;100.05;99.95;99.7
10 år 0,50 %;101.38;101.33;101.25;101.1;100.7
15 år 0,50 %;100.95;100.83;100.75;100.6;100.2
15 år 1,00 %;102.22;102.2;102.05;101.9;101.4
20 år 0,00 %;94.2;93.93;93.85;93.75;93.55
20 år 0,50 %;98.2;97.83;97.75;97.6;97.2
20 år 1,00 %;101.41;101.3;101.15;101.0;100.5
20 år 1,50 %;102.8;102.73;102.6;102.35;101.7
30 år 0,50 %;94.83;94.58;94.5;94.35;94.0
30 år 0,50 % afdragsfri*;93.9;93.62;93.55;93.4;93.05
30 år 1,00 %;99.05;98.85;98.7;98.55;98.05
30 år 1,00 % afdragsfri*;98.13;97.75;97.6;97.45;96.95
30 år 1,50 %;101.53;101.47;101.3;101.1;100.45
30 år 1,50 % afdragsfri*;101.42;101.1;100.95;100.7;100.1
30 år 2,00 %;102.85;102.66;102.5;102.2;101.45
30 år 2,00 % afdragsfri*;102.55;102.3;102.1;101.85;101.1
30 år 2,50 %;103.1;103.1;102.9;102.55;101.7
30 år 2,50 % afdragsfri*;102.92;102.92;102.7;102.4;101.5
