Type;Tilbudskurs;Aktuel kurs;Udbetalingskurs Fastkursaftale til 04.11.2019;Udbetalingskurs Fastkursaftale til 30.12.2019;Udbetalingskurs Fastkursaftale til 31.03.2020
10 år -0,50 %;97.39;97.03;97.0;96.9;96.8
10 år 0,00 %;100.55;100.3;100.2;100.1;99.85
10 år 0,50 %;101.7;101.45;101.35;101.1;100.75
15 år 0,50 %;101.6;101.2;101.1;100.85;100.5
15 år 1,00 %;102.35;102.25;102.1;101.8;101.3
20 år 0,00 %;95.1;94.48;94.4;94.25;94.05
20 år 0,50 %;99.05;98.53;98.45;98.2;97.85
20 år 1,00 %;101.95;101.72;101.6;101.3;100.8
20 år 1,50 %;102.73;102.6;102.45;102.05;101.45
30 år 0,50 %;95.99;95.25;95.15;94.95;94.6
30 år 0,50 % afdragsfri*;95.21;94.35;94.25;94.05;93.7
30 år 1,00 % afdragsfri*;99.14;98.33;98.2;97.9;97.4
30 år 1,00 %;99.86;99.15;99.0;98.7;98.25
30 år 1,50 %;102.3;102.0;101.85;101.45;100.85
30 år 1,50 % afdragsfri*;102.25;101.9;101.75;101.35;100.75
30 år 2,00 %;102.7;102.58;102.4;101.95;101.2
30 år 2,00 % afdragsfri*;102.5;102.25;102.05;101.6;100.85
30 år 2,50 %;103.15;103.0;102.8;102.25;101.4
30 år 2,50 % afdragsfri*;103.01;102.89;102.7;102.15;101.25
