Type;Tilbudskurs;Aktuel kurs;Udbetalingskurs Fastkursaftale til 04.11.2019;Udbetalingskurs Fastkursaftale til 30.12.2019;Udbetalingskurs Fastkursaftale til 31.03.2020
10 år -0,50 %;97.39;97.17;97.15;97.05;96.95
10 år 0,00 %;100.55;100.47;100.4;100.25;100.0
10 år 0,50 %;101.7;101.6;101.5;101.25;100.9
15 år 0,50 %;101.6;101.35;101.25;101.0;100.65
15 år 1,00 %;102.35;102.39;102.25;101.95;101.45
20 år 0,00 %;95.1;94.65;94.6;94.45;94.2
20 år 0,50 %;99.05;98.7;98.6;98.4;98.0
20 år 1,00 %;101.95;101.9;101.75;101.45;100.95
20 år 1,50 %;102.73;102.75;102.6;102.2;101.6
30 år 0,50 %;95.99;95.5;95.4;95.2;94.8
30 år 0,50 % afdragsfri*;95.21;94.6;94.5;94.3;93.95
30 år 1,00 % afdragsfri*;99.14;98.55;98.4;98.15;97.65
30 år 1,00 %;99.86;99.4;99.25;98.95;98.5
30 år 1,50 %;102.3;102.15;102.0;101.6;101.0
30 år 1,50 % afdragsfri*;102.25;102.08;101.9;101.55;100.9
30 år 2,00 %;102.7;102.77;102.6;102.15;101.4
30 år 2,00 % afdragsfri*;102.5;102.4;102.2;101.75;101.0
30 år 2,50 %;103.15;103.15;102.95;102.4;101.55
30 år 2,50 % afdragsfri*;103.01;103.01;102.8;102.25;101.4
