Type;Tilbudskurs;Aktuel kurs;Udbetalingskurs Fastkursaftale til 04.11.2019;Udbetalingskurs Fastkursaftale til 30.12.2019;Udbetalingskurs Fastkursaftale til 31.03.2020
10 år -0,50 %;97.39;97.17;97.15;97.05;96.95
10 år 0,00 %;100.55;100.45;100.35;100.25;100.0
10 år 0,50 %;101.7;101.6;101.5;101.25;100.9
15 år 0,50 %;101.6;101.35;101.25;101.0;100.65
15 år 1,00 %;102.35;102.4;102.25;101.95;101.45
20 år 0,00 %;95.1;94.63;94.55;94.4;94.2
20 år 0,50 %;99.05;98.68;98.6;98.35;98.0
20 år 1,00 %;101.95;101.88;101.75;101.45;100.95
20 år 1,50 %;102.73;102.75;102.6;102.2;101.6
30 år 0,50 %;95.99;95.4;95.3;95.1;94.75
30 år 0,50 % afdragsfri*;95.21;94.5;94.4;94.2;93.85
30 år 1,00 % afdragsfri*;99.14;98.45;98.3;98.05;97.55
30 år 1,00 %;99.86;99.3;99.15;98.85;98.4
30 år 1,50 %;102.3;102.15;102.0;101.6;101.0
30 år 1,50 % afdragsfri*;102.25;102.05;101.9;101.5;100.9
30 år 2,00 %;102.7;102.72;102.55;102.1;101.35
30 år 2,00 % afdragsfri*;102.5;102.4;102.2;101.75;101.0
30 år 2,50 %;103.15;103.15;102.95;102.4;101.55
30 år 2,50 % afdragsfri*;103.01;103.04;102.85;102.3;101.4
