Type;Tilbudskurs;Aktuel kurs;Udbetalingskurs Fastkursaftale til 11.11.2019;Udbetalingskurs Fastkursaftale til 30.12.2019;Udbetalingskurs Fastkursaftale til 31.03.2020
10 år -0,50 %;96.8;96.8;96.75;96.7;96.6
10 år 0,00 %;100.35;100.35;100.25;100.15;99.9
10 år 0,50 %;101.55;101.55;101.45;101.25;100.9
15 år 0,50 %;101.12;101.08;100.95;100.8;100.4
15 år 1,00 %;102.3;102.25;102.1;101.85;101.35
20 år 0,00 %;94.39;94.25;94.2;94.05;93.85
20 år 0,50 %;98.36;98.22;98.1;97.95;97.55
20 år 1,00 %;101.56;101.53;101.4;101.15;100.65
20 år 1,50 %;102.7;102.7;102.55;102.2;101.6
30 år 0,50 %;95.15;94.9;94.8;94.6;94.25
30 år 0,50 % afdragsfri*;94.1;93.97;93.85;93.7;93.35
30 år 1,00 %;99.17;98.95;98.8;98.55;98.05
30 år 1,00 % afdragsfri*;98.23;98.0;97.85;97.6;97.1
30 år 1,50 %;102.55;101.9;101.75;101.4;100.8
30 år 1,50 % afdragsfri*;101.75;101.72;101.55;101.25;100.6
30 år 2,00 %;103.0;102.78;102.6;102.2;101.45
30 år 2,00 % afdragsfri*;102.5;102.4;102.2;101.8;101.05
30 år 2,50 %;103.15;103.1;102.9;102.45;101.55
30 år 2,50 % afdragsfri*;103.04;103.04;102.85;102.35;101.5
