Type;Tilbudskurs;Aktuel kurs;Udbetalingskurs Fastkursaftale til 11.11.2019;Udbetalingskurs Fastkursaftale til 30.12.2019;Udbetalingskurs Fastkursaftale til 31.03.2020
10 år -0,50 %;96.8;96.75;96.7;96.65;96.55
10 år 0,00 %;100.35;100.28;100.2;100.05;99.85
10 år 0,50 %;101.55;101.5;101.4;101.2;100.85
15 år 0,50 %;101.12;101.0;100.9;100.7;100.35
15 år 1,00 %;102.3;102.25;102.1;101.85;101.35
20 år 0,00 %;94.39;93.9;93.85;93.7;93.5
20 år 0,50 %;98.36;97.97;97.85;97.7;97.3
20 år 1,00 %;101.56;101.48;101.35;101.1;100.6
20 år 1,50 %;102.7;102.67;102.5;102.2;101.55
30 år 0,50 %;95.15;94.5;94.4;94.2;93.85
30 år 0,50 % afdragsfri*;94.1;93.58;93.5;93.3;92.95
30 år 1,00 %;99.17;98.67;98.55;98.3;97.8
30 år 1,00 % afdragsfri*;98.23;97.72;97.6;97.35;96.85
30 år 1,50 %;102.55;101.77;101.6;101.3;100.65
30 år 1,50 % afdragsfri*;101.75;101.5;101.35;101.0;100.4
30 år 2,00 %;103.0;102.75;102.55;102.15;101.4
30 år 2,00 % afdragsfri*;102.5;102.38;102.2;101.8;101.05
30 år 2,50 %;103.15;103.1;102.9;102.45;101.55
30 år 2,50 % afdragsfri*;103.04;103.04;102.85;102.35;101.5
