Type;Tilbudskurs;Aktuel kurs;Udbetalingskurs Fastkursaftale til 16.12.2019;Udbetalingskurs Fastkursaftale til 30.12.2019;Udbetalingskurs Fastkursaftale til 31.03.2020
10 år -0,50 %;96.77;96.5;96.45;96.45;96.35
10 år 0,00 %;99.78;99.8;99.7;99.7;99.45
10 år 0,50 %;101.05;101.05;100.95;100.9;100.5
15 år 0,50 %;100.72;100.72;100.6;100.55;100.2
15 år 1,00 %;101.97;102.0;101.85;101.8;101.3
20 år 0,00 %;93.8;93.75;93.7;93.65;93.4
20 år 0,50 %;97.8;97.75;97.65;97.6;97.25
20 år 1,00 %;101.38;100.97;100.85;100.75;100.25
20 år 1,50 %;102.6;102.6;102.45;102.35;101.7
30 år 0,50 %;94.78;94.55;94.45;94.4;94.05
30 år 0,50 % afdragsfri*;93.67;93.62;93.55;93.45;93.1
30 år 1,00 %;98.72;98.58;98.45;98.35;97.9
30 år 1,00 % afdragsfri*;97.68;97.7;97.55;97.5;97.0
30 år 1,50 %;101.05;101.05;100.9;100.8;100.2
30 år 1,50 % afdragsfri*;100.82;100.65;100.5;100.4;99.8
30 år 2,00 %;102.35;102.35;102.15;102.05;101.3
30 år 2,00 % afdragsfri*;102.5;101.91;101.75;101.6;100.85
30 år 2,50 %;103.0;103.0;102.8;102.65;101.8
30 år 2,50 % afdragsfri*;102.44;102.44;102.25;102.1;101.2
