Type;Tilbudskurs;Aktuel kurs;Udbetalingskurs Fastkursaftale til 13.11.2019;Udbetalingskurs Fastkursaftale til 30.12.2019;Udbetalingskurs Fastkursaftale til 31.03.2020
10 år -0,50 %;96.7;96.55;96.5;96.45;96.35
10 år 0,00 %;100.25;100.1;100.0;99.9;99.65
10 år 0,50 %;101.47;101.32;101.2;101.05;100.65
15 år 0,50 %;101.0;100.85;100.75;100.55;100.2
15 år 1,00 %;102.25;102.05;101.9;101.65;101.15
20 år 0,00 %;94.0;93.95;93.9;93.75;93.55
20 år 0,50 %;98.09;97.95;97.85;97.65;97.3
20 år 1,00 %;101.42;101.3;101.15;100.9;100.4
20 år 1,50 %;102.78;102.53;102.35;102.05;101.4
30 år 0,50 %;94.6;94.6;94.5;94.3;93.95
30 år 0,50 % afdragsfri*;93.66;93.65;93.55;93.35;93.0
30 år 1,00 %;98.7;98.62;98.5;98.25;97.75
30 år 1,00 % afdragsfri*;97.8;97.7;97.55;97.3;96.85
30 år 1,50 %;101.67;101.53;101.4;101.05;100.45
30 år 1,50 % afdragsfri*;101.42;101.3;101.15;100.85;100.2
30 år 2,00 %;102.72;102.58;102.4;102.0;101.25
30 år 2,00 % afdragsfri*;102.38;102.22;102.05;101.65;100.9
30 år 2,50 %;103.1;102.95;102.75;102.3;101.4
30 år 2,50 % afdragsfri*;102.97;102.82;102.6;102.15;101.3
