Type;Tilbudskurs;Aktuel kurs;Udbetalingskurs Fastkursaftale til 13.11.2019;Udbetalingskurs Fastkursaftale til 30.12.2019;Udbetalingskurs Fastkursaftale til 31.03.2020
10 år -0,50 %;96.7;96.75;96.7;96.65;96.55
10 år 0,00 %;100.25;100.25;100.15;100.05;99.8
10 år 0,50 %;101.47;101.47;101.35;101.2;100.8
15 år 0,50 %;101.0;101.0;100.9;100.7;100.35
15 år 1,00 %;102.25;102.2;102.05;101.8;101.3
20 år 0,00 %;94.0;94.13;94.05;93.95;93.7
20 år 0,50 %;98.09;98.12;98.0;97.85;97.45
20 år 1,00 %;101.42;101.42;101.3;101.05;100.55
20 år 1,50 %;102.78;102.67;102.5;102.2;101.55
30 år 0,50 %;94.6;94.78;94.7;94.5;94.15
30 år 0,50 % afdragsfri*;93.66;93.83;93.75;93.55;93.2
30 år 1,00 %;98.7;98.83;98.7;98.45;97.95
30 år 1,00 % afdragsfri*;97.8;97.88;97.75;97.5;97.0
30 år 1,50 %;101.67;101.7;101.55;101.25;100.6
30 år 1,50 % afdragsfri*;101.42;101.45;101.3;101.0;100.35
30 år 2,00 %;102.72;102.72;102.55;102.15;101.4
30 år 2,00 % afdragsfri*;102.38;102.38;102.2;101.8;101.05
30 år 2,50 %;103.1;103.1;102.9;102.45;101.55
30 år 2,50 % afdragsfri*;102.97;102.97;102.75;102.3;101.45
