Type;Tilbudskurs;Aktuel kurs;Udbetalingskurs Fastkursaftale til 13.11.2019;Udbetalingskurs Fastkursaftale til 30.12.2019;Udbetalingskurs Fastkursaftale til 31.03.2020
10 år -0,50 %;96.7;96.75;96.7;96.65;96.55
10 år 0,00 %;100.25;100.25;100.15;100.05;99.8
10 år 0,50 %;101.47;101.47;101.35;101.2;100.8
15 år 0,50 %;101.0;101.03;100.9;100.75;100.35
15 år 1,00 %;102.25;102.2;102.05;101.8;101.3
20 år 0,00 %;94.0;94.18;94.1;94.0;93.75
20 år 0,50 %;98.09;98.15;98.05;97.85;97.5
20 år 1,00 %;101.42;101.45;101.3;101.05;100.55
20 år 1,50 %;102.78;102.67;102.5;102.2;101.55
30 år 0,50 %;94.6;94.83;94.75;94.55;94.2
30 år 0,50 % afdragsfri*;93.66;93.88;93.8;93.6;93.25
30 år 1,00 %;98.7;98.85;98.7;98.45;98.0
30 år 1,00 % afdragsfri*;97.8;97.92;97.8;97.55;97.05
30 år 1,50 %;101.67;101.7;101.55;101.25;100.6
30 år 1,50 % afdragsfri*;101.42;101.45;101.3;101.0;100.35
30 år 2,00 %;102.72;102.72;102.55;102.15;101.4
30 år 2,00 % afdragsfri*;102.38;102.38;102.2;101.8;101.05
30 år 2,50 %;103.1;103.1;102.9;102.45;101.55
30 år 2,50 % afdragsfri*;102.97;102.97;102.75;102.3;101.45
