Type;Tilbudskurs;Aktuel kurs;Udbetalingskurs Fastkursaftale til 30.12.2019;Udbetalingskurs Fastkursaftale til 31.03.2020;Udbetalingskurs Fastkursaftale til 30.06.2020
10 år -0,50 %;96.4;96.45;96.4;96.3;96.2
10 år 0,00 %;99.7;99.7;99.6;99.35;99.15
10 år 0,50 %;100.89;100.92;100.8;100.4;100.05
15 år 0,50 %;100.6;100.62;100.5;100.15;99.75
15 år 1,00 %;101.91;101.91;101.75;101.25;100.75
20 år 0,00 %;93.6;93.78;93.7;93.45;93.25
20 år 0,50 %;97.73;97.72;97.6;97.25;96.9
20 år 1,00 %;100.99;101.11;100.95;100.45;99.95
20 år 1,50 %;102.7;102.5;102.3;101.7;101.05
30 år 0,50 %;94.53;94.58;94.45;94.1;93.75
30 år 0,50 % afdragsfri*;93.47;93.65;93.55;93.2;92.85
30 år 1,00 %;98.56;98.58;98.4;97.95;97.45
30 år 1,00 % afdragsfri*;97.59;97.72;97.55;97.1;96.6
30 år 1,50 %;101.3;101.2;101.0;100.4;99.75
30 år 1,50 % afdragsfri*;100.62;100.75;100.55;99.95;99.3
30 år 2,00 %;102.25;102.25;102.05;101.25;100.55
30 år 2,00 % afdragsfri*;101.91;101.72;101.5;100.75;100.0
30 år 2,50 %;102.8;102.8;102.55;101.65;100.8
30 år 2,50 % afdragsfri*;102.34;102.34;102.1;101.2;100.35
