Type;Tilbudskurs;Aktuel kurs;Udbetalingskurs Fastkursaftale til 30.12.2019;Udbetalingskurs Fastkursaftale til 31.03.2020;Udbetalingskurs Fastkursaftale til 30.06.2020
10 år -0,50 %;96.4;96.45;96.4;96.3;96.2
10 år 0,00 %;99.7;99.7;99.6;99.35;99.15
10 år 0,50 %;100.89;100.89;100.75;100.4;100.05
15 år 0,50 %;100.6;100.62;100.5;100.15;99.75
15 år 1,00 %;101.91;101.91;101.75;101.25;100.75
20 år 0,00 %;93.6;93.7;93.6;93.4;93.15
20 år 0,50 %;97.73;97.7;97.6;97.2;96.85
20 år 1,00 %;100.99;101.09;100.95;100.45;99.95
20 år 1,50 %;102.7;102.5;102.3;101.7;101.05
30 år 0,50 %;94.53;94.5;94.4;94.05;93.65
30 år 0,50 % afdragsfri*;93.47;93.6;93.5;93.15;92.8
30 år 1,00 %;98.56;98.53;98.35;97.9;97.4
30 år 1,00 % afdragsfri*;97.59;97.65;97.5;97.0;96.5
30 år 1,50 %;101.3;101.2;101.0;100.4;99.75
30 år 1,50 % afdragsfri*;100.62;100.75;100.55;99.95;99.3
30 år 2,00 %;102.25;102.25;102.05;101.25;100.55
30 år 2,00 % afdragsfri*;101.91;101.72;101.5;100.75;100.0
30 år 2,50 %;102.8;102.8;102.55;101.65;100.8
30 år 2,50 % afdragsfri*;102.34;102.34;102.1;101.2;100.35
