Type;Tilbudskurs;Aktuel kurs;Udbetalingskurs Fastkursaftale til 27.12.2019;Udbetalingskurs Fastkursaftale til 30.12.2019;Udbetalingskurs Fastkursaftale til 31.03.2020
10 år -0,50 %;96.4;96.25;96.2;96.2;96.1
10 år 0,00 %;99.71;99.55;99.45;99.45;99.2
10 år 0,50 %;100.92;100.74;100.65;100.6;100.25
15 år 0,50 %;100.6;100.45;100.35;100.3;99.95
15 år 1,00 %;101.92;101.78;101.65;101.6;101.1
20 år 0,00 %;93.5;93.6;93.5;93.5;93.3
20 år 0,50 %;97.53;97.62;97.5;97.5;97.15
20 år 1,00 %;100.94;100.92;100.75;100.75;100.25
20 år 1,50 %;102.53;102.35;102.2;102.15;101.55
30 år 0,50 %;94.3;94.45;94.35;94.35;93.95
30 år 0,50 % afdragsfri*;93.4;93.5;93.4;93.4;93.0
30 år 1,00 %;98.49;98.45;98.3;98.3;97.8
30 år 1,00 % afdragsfri*;97.62;97.55;97.4;97.4;96.9
30 år 1,50 %;101.19;101.05;100.9;100.85;100.25
30 år 1,50 % afdragsfri*;100.85;100.6;100.45;100.4;99.8
30 år 2,00 %;102.25;102.1;101.9;101.85;101.1
30 år 2,00 % afdragsfri*;101.72;101.58;101.35;101.35;100.6
30 år 2,50 %;102.8;102.65;102.4;102.4;101.5
30 år 2,50 % afdragsfri*;102.39;102.19;101.95;101.95;101.05
