Type;Tilbudskurs;Aktuel kurs;Udbetalingskurs Fastkursaftale til 20.12.2019;Udbetalingskurs Fastkursaftale til 30.12.2019;Udbetalingskurs Fastkursaftale til 31.03.2020
10 år -0,50 %;96.5;96.5;96.45;96.45;96.35
10 år 0,00 %;99.79;99.78;99.7;99.7;99.45
10 år 0,50 %;101.05;101.0;100.9;100.85;100.5
15 år 0,50 %;100.83;100.75;100.65;100.6;100.25
15 år 1,00 %;102.03;102.03;101.9;101.85;101.35
20 år 0,00 %;93.97;93.95;93.9;93.85;93.65
20 år 0,50 %;98.01;97.95;97.85;97.8;97.45
20 år 1,00 %;101.01;101.01;100.9;100.85;100.35
20 år 1,50 %;102.6;102.6;102.45;102.4;101.75
30 år 0,50 %;95.0;94.75;94.65;94.6;94.25
30 år 0,50 % afdragsfri*;93.85;93.85;93.75;93.7;93.35
30 år 1,00 %;98.9;98.78;98.65;98.6;98.1
30 år 1,00 % afdragsfri*;97.91;97.92;97.8;97.75;97.25
30 år 1,50 %;101.2;101.17;101.05;100.95;100.35
30 år 1,50 % afdragsfri*;100.75;100.72;100.6;100.5;99.9
30 år 2,00 %;102.25;102.25;102.1;102.0;101.25
30 år 2,00 % afdragsfri*;101.75;101.72;101.55;101.5;100.75
30 år 2,50 %;102.8;102.8;102.6;102.5;101.65
30 år 2,50 % afdragsfri*;102.44;102.39;102.2;102.1;101.2
