Type;Tilbudskurs;Aktuel kurs;Udbetalingskurs Fastkursaftale til 20.11.2019;Udbetalingskurs Fastkursaftale til 30.12.2019;Udbetalingskurs Fastkursaftale til 31.03.2020
10 år -0,50 %;96.79;96.47;96.45;96.4;96.25
10 år 0,00 %;100.12;99.97;99.9;99.8;99.55
10 år 0,50 %;101.38;101.23;101.15;100.95;100.6
15 år 0,50 %;101.0;100.68;100.6;100.4;100.05
15 år 1,00 %;102.38;102.03;101.9;101.7;101.2
20 år 0,00 %;93.95;93.78;93.7;93.6;93.35
20 år 0,50 %;98.0;97.7;97.6;97.45;97.1
20 år 1,00 %;101.56;101.17;101.05;100.85;100.35
20 år 1,50 %;102.77;102.62;102.45;102.2;101.55
30 år 0,50 %;94.71;94.38;94.3;94.1;93.75
30 år 0,50 % afdragsfri*;93.83;93.42;93.35;93.15;92.8
30 år 1,00 %;98.74;98.47;98.35;98.15;97.65
30 år 1,00 % afdragsfri*;97.77;97.53;97.4;97.2;96.7
30 år 1,50 %;101.47;101.35;101.2;100.95;100.3
30 år 1,50 % afdragsfri*;101.15;101.0;100.85;100.6;99.95
30 år 2,00 %;102.71;102.56;102.4;102.05;101.3
30 år 2,00 % afdragsfri*;102.43;102.28;102.1;101.75;101.0
30 år 2,50 %;103.1;102.95;102.75;102.35;101.5
30 år 2,50 % afdragsfri*;102.92;102.77;102.55;102.2;101.3
