Type;Tilbudskurs;Aktuel kurs;Udbetalingskurs Fastkursaftale til 20.11.2019;Udbetalingskurs Fastkursaftale til 30.12.2019;Udbetalingskurs Fastkursaftale til 31.03.2020
10 år -0,50 %;96.79;96.65;96.6;96.55;96.45
10 år 0,00 %;100.12;100.13;100.05;99.95;99.7
10 år 0,50 %;101.38;101.38;101.3;101.1;100.75
15 år 0,50 %;101.0;100.85;100.75;100.6;100.2
15 år 1,00 %;102.38;102.17;102.05;101.85;101.35
20 år 0,00 %;93.95;93.97;93.9;93.8;93.55
20 år 0,50 %;98.0;97.85;97.75;97.6;97.25
20 år 1,00 %;101.56;101.32;101.2;101.0;100.5
20 år 1,50 %;102.77;102.77;102.6;102.35;101.7
30 år 0,50 %;94.71;94.58;94.5;94.3;93.95
30 år 0,50 % afdragsfri*;93.83;93.58;93.5;93.3;92.95
30 år 1,00 %;98.74;98.62;98.5;98.3;97.8
30 år 1,00 % afdragsfri*;97.77;97.7;97.55;97.35;96.85
30 år 1,50 %;101.47;101.5;101.35;101.1;100.45
30 år 1,50 % afdragsfri*;101.15;101.15;101.0;100.75;100.1
30 år 2,00 %;102.71;102.71;102.55;102.2;101.45
30 år 2,00 % afdragsfri*;102.43;102.43;102.25;101.9;101.15
30 år 2,50 %;103.1;103.1;102.9;102.5;101.65
30 år 2,50 % afdragsfri*;102.92;102.92;102.7;102.35;101.45
