Type;Tilbudskurs;Aktuel kurs;Udbetalingskurs Fastkursaftale til 13.12.2019;Udbetalingskurs Fastkursaftale til 30.12.2019;Udbetalingskurs Fastkursaftale til 31.03.2020
10 år -0,50 %;96.5;96.45;96.4;96.4;96.3
10 år 0,00 %;100.01;99.75;99.7;99.65;99.4
10 år 0,50 %;101.1;101.05;100.95;100.9;100.5
15 år 0,50 %;100.67;100.65;100.55;100.5;100.1
15 år 1,00 %;101.97;101.95;101.85;101.75;101.25
20 år 0,00 %;93.7;93.6;93.55;93.5;93.25
20 år 0,50 %;97.93;97.58;97.5;97.4;97.05
20 år 1,00 %;101.25;100.89;100.75;100.7;100.2
20 år 1,50 %;102.6;102.6;102.45;102.35;101.7
30 år 0,50 %;94.73;94.4;94.3;94.25;93.9
30 år 0,50 % afdragsfri*;93.58;93.45;93.35;93.3;92.95
30 år 1,00 %;98.58;98.42;98.3;98.2;97.75
30 år 1,00 % afdragsfri*;97.8;97.53;97.4;97.3;96.85
30 år 1,50 %;101.38;101.03;100.9;100.75;100.15
30 år 1,50 % afdragsfri*;100.75;100.6;100.45;100.35;99.7
30 år 2,00 %;102.35;102.35;102.2;102.05;101.3
30 år 2,00 % afdragsfri*;101.9;101.91;101.75;101.6;100.85
30 år 2,50 %;103.0;103.0;102.8;102.65;101.75
30 år 2,50 % afdragsfri*;102.46;102.44;102.25;102.1;101.2
