Type;Tilbudskurs;Aktuel kurs;Udbetalingskurs Fastkursaftale til 12.12.2019;Udbetalingskurs Fastkursaftale til 30.12.2019;Udbetalingskurs Fastkursaftale til 31.03.2020
10 år -0,50 %;96.83;96.33;96.3;96.25;96.15
10 år 0,00 %;99.82;99.65;99.6;99.55;99.3
10 år 0,50 %;101.1;100.95;100.85;100.8;100.4
15 år 0,50 %;100.75;100.53;100.45;100.35;100.0
15 år 1,00 %;102.08;101.8;101.7;101.6;101.1
20 år 0,00 %;93.95;93.5;93.45;93.4;93.15
20 år 0,50 %;97.94;97.47;97.4;97.3;96.95
20 år 1,00 %;101.04;100.77;100.65;100.55;100.05
20 år 1,50 %;102.6;102.45;102.3;102.2;101.55
30 år 0,50 %;95.2;94.28;94.2;94.1;93.75
30 år 0,50 % afdragsfri*;93.92;93.35;93.25;93.2;92.85
30 år 1,00 %;98.8;98.33;98.2;98.1;97.6
30 år 1,00 % afdragsfri*;97.9;97.42;97.3;97.2;96.7
30 år 1,50 %;101.23;100.9;100.75;100.65;100.0
30 år 1,50 % afdragsfri*;100.89;100.45;100.3;100.2;99.55
30 år 2,00 %;102.55;102.2;102.05;101.9;101.15
30 år 2,00 % afdragsfri*;101.91;101.76;101.6;101.45;100.7
30 år 2,50 %;103.0;102.85;102.65;102.5;101.6
30 år 2,50 % afdragsfri*;102.48;102.31;102.1;101.95;101.05
