Type;Tilbudskurs;Aktuel kurs;Udbetalingskurs Fastkursaftale til 26.11.2019;Udbetalingskurs Fastkursaftale til 30.12.2019;Udbetalingskurs Fastkursaftale til 31.03.2020
10 år -0,50 %;96.65;96.6;96.55;96.5;96.4
10 år 0,00 %;100.15;100.05;99.95;99.9;99.65
10 år 0,50 %;101.35;101.35;101.25;101.1;100.75
15 år 0,50 %;100.83;100.8;100.7;100.55;100.2
15 år 1,00 %;102.15;102.13;102.0;101.8;101.3
20 år 0,00 %;93.95;93.77;93.7;93.6;93.4
20 år 0,50 %;97.91;97.72;97.65;97.5;97.15
20 år 1,00 %;101.32;101.21;101.1;100.9;100.4
20 år 1,50 %;102.85;102.71;102.55;102.3;101.7
30 år 0,50 %;94.65;94.47;94.35;94.25;93.9
30 år 0,50 % afdragsfri*;93.7;93.5;93.4;93.25;92.9
30 år 1,00 %;98.82;98.55;98.4;98.25;97.75
30 år 1,00 % afdragsfri*;97.92;97.6;97.45;97.3;96.8
30 år 1,50 %;101.45;101.39;101.25;101.0;100.4
30 år 1,50 % afdragsfri*;101.03;100.9;100.75;100.5;99.9
30 år 2,00 %;102.58;102.45;102.3;102.0;101.25
30 år 2,00 % afdragsfri*;102.18;102.03;101.85;101.55;100.8
30 år 2,50 %;103.1;103.0;102.8;102.45;101.6
30 år 2,50 % afdragsfri*;102.92;102.55;102.35;102.0;101.15
