Type;Tilbudskurs;Aktuel kurs;Udbetalingskurs Fastkursaftale til 25.11.2019;Udbetalingskurs Fastkursaftale til 30.12.2019;Udbetalingskurs Fastkursaftale til 31.03.2020
10 år -0,50 %;96.65;96.5;96.45;96.4;96.3
10 år 0,00 %;100.15;99.93;99.85;99.75;99.5
10 år 0,50 %;101.38;101.2;101.1;100.95;100.6
15 år 0,50 %;100.95;100.7;100.6;100.45;100.1
15 år 1,00 %;102.22;102.0;101.9;101.7;101.2
20 år 0,00 %;94.2;93.78;93.7;93.6;93.4
20 år 0,50 %;98.2;97.67;97.6;97.45;97.05
20 år 1,00 %;101.41;101.17;101.05;100.85;100.35
20 år 1,50 %;102.8;102.61;102.45;102.2;101.6
30 år 0,50 %;94.83;94.45;94.35;94.2;93.85
30 år 0,50 % afdragsfri*;93.9;93.5;93.4;93.25;92.9
30 år 1,00 %;99.05;98.55;98.4;98.25;97.75
30 år 1,00 % afdragsfri*;98.13;97.58;97.45;97.25;96.75
30 år 1,50 %;101.53;101.28;101.1;100.9;100.25
30 år 1,50 % afdragsfri*;101.42;100.85;100.7;100.45;99.85
30 år 2,00 %;102.85;102.3;102.1;101.85;101.1
30 år 2,00 % afdragsfri*;102.55;101.91;101.75;101.45;100.7
30 år 2,50 %;103.1;102.95;102.75;102.4;101.55
30 år 2,50 % afdragsfri*;102.92;102.4;102.2;101.85;101.0
