Type;Tilbudskurs;Aktuel kurs;Udbetalingskurs Fastkursaftale til 26.11.2019;Udbetalingskurs Fastkursaftale til 30.12.2019;Udbetalingskurs Fastkursaftale til 31.03.2020
10 år -0,50 %;96.65;96.45;96.4;96.35;96.25
10 år 0,00 %;100.15;99.9;99.8;99.75;99.5
10 år 0,50 %;101.35;101.15;101.05;100.9;100.55
15 år 0,50 %;100.83;100.62;100.5;100.4;100.0
15 år 1,00 %;102.15;101.95;101.8;101.65;101.15
20 år 0,00 %;93.95;93.68;93.6;93.5;93.3
20 år 0,50 %;97.91;97.6;97.5;97.35;97.0
20 år 1,00 %;101.32;101.09;100.95;100.8;100.3
20 år 1,50 %;102.85;102.56;102.4;102.15;101.55
30 år 0,50 %;94.65;94.37;94.25;94.15;93.8
30 år 0,50 % afdragsfri*;93.7;93.4;93.3;93.15;92.8
30 år 1,00 %;98.82;98.42;98.3;98.1;97.6
30 år 1,00 % afdragsfri*;97.92;97.47;97.35;97.15;96.7
30 år 1,50 %;101.45;101.2;101.05;100.8;100.2
30 år 1,50 % afdragsfri*;101.03;100.75;100.6;100.35;99.75
30 år 2,00 %;102.58;102.33;102.15;101.85;101.1
30 år 2,00 % afdragsfri*;102.18;101.88;101.7;101.4;100.65
30 år 2,50 %;103.1;102.85;102.65;102.3;101.45
30 år 2,50 % afdragsfri*;102.92;102.4;102.2;101.85;101.0
