Type;Tilbudskurs;Aktuel kurs;Udbetalingskurs Fastkursaftale til 29.10.2019;Udbetalingskurs Fastkursaftale til 30.12.2019;Udbetalingskurs Fastkursaftale til 31.03.2020
10 år -0,50 %;97.45;97.33;97.3;97.2;97.1
10 år 0,00 %;100.7;100.5;100.4;100.25;100.0
10 år 0,50 %;101.75;101.6;101.5;101.25;100.85
15 år 0,50 %;101.52;101.42;101.3;101.05;100.7
15 år 1,00 %;102.58;102.29;102.15;101.85;101.3
20 år 0,00 %;95.88;95.78;95.7;95.55;95.3
20 år 0,50 %;99.97;99.7;99.6;99.35;99.0
20 år 1,00 %;102.5;101.87;101.75;101.4;100.9
20 år 1,50 %;102.68;102.53;102.35;101.95;101.3
30 år 0,50 %;96.94;96.7;96.6;96.35;96.0
30 år 0,50 % afdragsfri*;96.03;95.75;95.65;95.4;95.05
30 år 1,00 % afdragsfri*;100.02;99.78;99.65;99.3;98.8
30 år 1,00 %;100.74;100.55;100.4;100.1;99.6
30 år 1,50 %;102.69;102.15;102.0;101.6;100.95
30 år 1,50 % afdragsfri*;102.47;102.05;101.9;101.5;100.85
30 år 2,00 %;102.6;102.5;102.3;101.8;101.05
30 år 2,00 % afdragsfri*;102.35;102.2;102.0;101.5;100.75
30 år 2,50 %;103.15;103.0;102.8;102.2;101.3
30 år 2,50 % afdragsfri*;103.3;102.86;102.65;102.05;101.2
