Type;Tilbudskurs;Aktuel kurs;Udbetalingskurs Fastkursaftale til 30.10.2019;Udbetalingskurs Fastkursaftale til 30.12.2019;Udbetalingskurs Fastkursaftale til 31.03.2020
10 år -0,50 %;97.45;97.47;97.45;97.35;97.25
10 år 0,00 %;100.62;100.65;100.55;100.4;100.15
10 år 0,50 %;101.75;101.75;101.65;101.4;101.05
15 år 0,50 %;101.58;101.58;101.45;101.25;100.85
15 år 1,00 %;102.4;102.44;102.3;102.0;101.5
20 år 0,00 %;95.88;95.92;95.85;95.7;95.45
20 år 0,50 %;99.97;99.85;99.75;99.5;99.15
20 år 1,00 %;102.02;102.02;101.9;101.55;101.05
20 år 1,50 %;102.85;102.67;102.5;102.1;101.5
30 år 0,50 %;96.86;96.8;96.7;96.45;96.1
30 år 0,50 % afdragsfri*;96.02;95.9;95.8;95.55;95.2
30 år 1,00 % afdragsfri*;100.06;99.95;99.8;99.5;99.0
30 år 1,00 %;100.94;100.7;100.55;100.25;99.75
30 år 1,50 %;102.37;102.3;102.15;101.75;101.1
30 år 1,50 % afdragsfri*;102.42;102.2;102.05;101.65;101.0
30 år 2,00 %;102.82;102.65;102.45;101.95;101.2
30 år 2,00 % afdragsfri*;102.43;102.35;102.15;101.65;100.9
30 år 2,50 %;103.15;103.15;102.95;102.35;101.5
30 år 2,50 % afdragsfri*;103.04;103.01;102.8;102.2;101.35
