Type;Tilbudskurs;Aktuel kurs;Udbetalingskurs Fastkursaftale til 30.10.2019;Udbetalingskurs Fastkursaftale til 30.12.2019;Udbetalingskurs Fastkursaftale til 31.03.2020
10 år -0,50 %;97.45;97.25;97.2;97.15;97.0
10 år 0,00 %;100.62;100.43;100.35;100.2;99.95
10 år 0,50 %;101.75;101.58;101.45;101.25;100.85
15 år 0,50 %;101.58;101.38;101.25;101.05;100.65
15 år 1,00 %;102.4;102.28;102.15;101.85;101.3
20 år 0,00 %;95.88;95.53;95.45;95.3;95.05
20 år 0,50 %;99.97;99.57;99.45;99.25;98.85
20 år 1,00 %;102.02;101.85;101.7;101.4;100.9
20 år 1,50 %;102.85;102.53;102.35;101.95;101.35
30 år 0,50 %;96.86;96.4;96.3;96.05;95.7
30 år 0,50 % afdragsfri*;96.02;95.5;95.4;95.15;94.8
30 år 1,00 % afdragsfri*;100.06;99.65;99.5;99.2;98.7
30 år 1,00 %;100.94;100.4;100.25;99.95;99.45
30 år 1,50 %;102.37;102.15;102.0;101.6;100.95
30 år 1,50 % afdragsfri*;102.42;102.05;101.9;101.5;100.85
30 år 2,00 %;102.82;102.53;102.35;101.85;101.1
30 år 2,00 % afdragsfri*;102.43;102.2;102.0;101.5;100.75
30 år 2,50 %;103.15;103.0;102.8;102.2;101.35
30 år 2,50 % afdragsfri*;103.04;102.86;102.65;102.05;101.2
