Type;Tilbudskurs;Aktuel kurs;Udbetalingskurs Fastkursaftale til 18.11.2019;Udbetalingskurs Fastkursaftale til 30.12.2019;Udbetalingskurs Fastkursaftale til 31.03.2020
10 år -0,50 %;96.85;96.55;96.5;96.45;96.35
10 år 0,00 %;100.22;100.05;99.95;99.85;99.6
10 år 0,50 %;101.47;101.32;101.2;101.05;100.7
15 år 0,50 %;100.95;100.8;100.7;100.55;100.15
15 år 1,00 %;102.2;102.09;101.95;101.75;101.25
20 år 0,00 %;94.17;94.12;94.05;93.95;93.7
20 år 0,50 %;98.31;98.03;97.9;97.75;97.4
20 år 1,00 %;101.45;101.3;101.15;100.95;100.45
20 år 1,50 %;102.72;102.56;102.4;102.1;101.5
30 år 0,50 %;94.97;94.7;94.6;94.45;94.1
30 år 0,50 % afdragsfri*;93.86;93.78;93.7;93.5;93.15
30 år 1,00 %;98.99;98.78;98.65;98.4;97.95
30 år 1,00 % afdragsfri*;98.06;97.82;97.7;97.45;97.0
30 år 1,50 %;101.74;101.53;101.35;101.1;100.45
30 år 1,50 % afdragsfri*;101.62;101.25;101.1;100.8;100.2
30 år 2,00 %;102.72;102.58;102.4;102.05;101.3
30 år 2,00 % afdragsfri*;102.38;102.22;102.05;101.7;100.95
30 år 2,50 %;103.1;102.95;102.75;102.35;101.45
30 år 2,50 % afdragsfri*;102.95;102.8;102.6;102.2;101.3
