Type;Tilbudskurs;Aktuel kurs;Udbetalingskurs Fastkursaftale til 24.10.2019;Udbetalingskurs Fastkursaftale til 30.12.2019;Udbetalingskurs Fastkursaftale til 31.03.2020
10 år -0,50 %;97.62;97.35;97.3;97.2;97.1
10 år 0,00 %;100.8;100.65;100.6;100.4;100.15
10 år 0,50 %;101.75;101.75;101.65;101.4;101.0
15 år 0,50 %;101.64;101.5;101.4;101.15;100.75
15 år 1,00 %;102.45;102.45;102.35;101.95;101.45
20 år 0,00 %;95.71;95.88;95.8;95.65;95.4
20 år 0,50 %;99.73;99.72;99.65;99.35;99.0
20 år 1,00 %;101.97;102.0;101.9;101.5;101.0
20 år 1,50 %;102.8;102.73;102.6;102.15;101.5
30 år 0,50 %;96.61;96.7;96.6;96.35;96.0
30 år 0,50 % afdragsfri*;95.62;95.75;95.65;95.4;95.05
30 år 1,00 % afdragsfri*;99.69;99.8;99.7;99.35;98.85
30 år 1,00 %;100.63;100.53;100.4;100.05;99.55
30 år 1,50 %;102.39;102.28;102.15;101.7;101.05
30 år 1,50 % afdragsfri*;102.3;102.12;102.0;101.55;100.9
30 år 2,00 %;102.6;102.6;102.45;101.9;101.15
30 år 2,00 % afdragsfri*;102.35;102.35;102.2;101.65;100.9
30 år 2,50 %;103.15;103.15;102.95;102.35;101.45
30 år 2,50 % afdragsfri*;103.16;103.14;102.95;102.3;101.45
