Type;Tilbudskurs;Aktuel kurs;Udbetalingskurs Fastkursaftale til 23.10.2019;Udbetalingskurs Fastkursaftale til 30.12.2019;Udbetalingskurs Fastkursaftale til 31.03.2020
10 år -0,50 %;97.3;97.2;97.15;97.05;96.95
10 år 0,00 %;100.53;100.42;100.35;100.15;99.9
10 år 0,50 %;101.75;101.6;101.5;101.2;100.85
15 år 0,50 %;101.63;101.3;101.2;100.9;100.55
15 år 1,00 %;102.45;102.3;102.15;101.8;101.3
20 år 0,00 %;95.64;95.53;95.45;95.3;95.05
20 år 0,50 %;99.72;99.4;99.3;99.05;98.65
20 år 1,00 %;101.85;101.84;101.7;101.35;100.85
20 år 1,50 %;102.78;102.58;102.45;101.95;101.35
30 år 0,50 %;96.53;96.3;96.2;95.95;95.55
30 år 0,50 % afdragsfri*;95.5;95.35;95.25;95.0;94.65
30 år 1,00 % afdragsfri*;99.74;99.45;99.3;98.95;98.45
30 år 1,00 %;100.67;100.2;100.05;99.7;99.2
30 år 1,50 %;102.41;102.12;101.95;101.5;100.9
30 år 1,50 % afdragsfri*;102.41;101.97;101.8;101.35;100.75
30 år 2,00 %;103.05;102.45;102.25;101.7;100.95
30 år 2,00 % afdragsfri*;102.57;102.2;102.0;101.45;100.7
30 år 2,50 %;103.15;103.0;102.8;102.15;101.25
30 år 2,50 % afdragsfri*;103.16;103.01;102.8;102.15;101.25
