Type;Tilbudskurs;Aktuel kurs;Udbetalingskurs Fastkursaftale til 24.10.2019;Udbetalingskurs Fastkursaftale til 30.12.2019;Udbetalingskurs Fastkursaftale til 31.03.2020
10 år -0,50 %;97.62;97.25;97.2;97.1;97.0
10 år 0,00 %;100.8;100.5;100.45;100.25;100.0
10 år 0,50 %;101.75;101.6;101.5;101.25;100.85
15 år 0,50 %;101.64;101.35;101.25;101.0;100.6
15 år 1,00 %;102.45;102.3;102.2;101.8;101.3
20 år 0,00 %;95.71;95.78;95.7;95.55;95.3
20 år 0,50 %;99.73;99.58;99.5;99.2;98.85
20 år 1,00 %;101.97;101.84;101.7;101.35;100.85
20 år 1,50 %;102.8;102.58;102.45;102.0;101.35
30 år 0,50 %;96.61;96.58;96.5;96.2;95.85
30 år 0,50 % afdragsfri*;95.62;95.6;95.5;95.25;94.9
30 år 1,00 % afdragsfri*;99.69;99.7;99.6;99.2;98.75
30 år 1,00 %;100.63;100.4;100.3;99.9;99.45
30 år 1,50 %;102.39;102.12;102.0;101.55;100.9
30 år 1,50 % afdragsfri*;102.3;101.97;101.85;101.4;100.75
30 år 2,00 %;102.6;102.45;102.3;101.75;101.0
30 år 2,00 % afdragsfri*;102.35;102.2;102.05;101.5;100.75
30 år 2,50 %;103.15;103.0;102.8;102.2;101.3
30 år 2,50 % afdragsfri*;103.16;102.99;102.8;102.15;101.3
