Type;Tilbudskurs;Aktuel kurs;Udbetalingskurs Fastkursaftale til 07.11.2019;Udbetalingskurs Fastkursaftale til 30.12.2019;Udbetalingskurs Fastkursaftale til 31.03.2020
10 år -0,50 %;97.01;96.67;96.65;96.55;96.45
10 år 0,00 %;100.4;100.25;100.2;100.05;99.8
10 år 0,50 %;101.58;101.4;101.3;101.1;100.7
15 år 0,50 %;101.35;101.0;100.9;100.7;100.3
15 år 1,00 %;102.35;102.2;102.1;101.8;101.3
20 år 0,00 %;94.5;94.1;94.05;93.9;93.65
20 år 0,50 %;98.59;98.15;98.05;97.85;97.5
20 år 1,00 %;101.72;101.47;101.35;101.05;100.55
20 år 1,50 %;102.75;102.55;102.4;102.05;101.4
30 år 0,50 %;95.07;94.75;94.65;94.45;94.1
30 år 0,50 % afdragsfri*;94.22;93.85;93.75;93.55;93.2
30 år 1,00 %;99.18;98.8;98.7;98.4;97.9
30 år 1,00 % afdragsfri*;98.27;97.9;97.8;97.5;97.0
30 år 1,50 %;102.2;101.75;101.6;101.25;100.6
30 år 1,50 % afdragsfri*;101.9;101.62;101.5;101.1;100.5
30 år 2,00 %;102.75;102.62;102.45;102.05;101.25
30 år 2,00 % afdragsfri*;102.65;102.25;102.1;101.65;100.9
30 år 2,50 %;103.15;103.0;102.8;102.3;101.45
30 år 2,50 % afdragsfri*;103.04;102.89;102.7;102.2;101.3
