Type;Tilbudskurs;Aktuel kurs;Udbetalingskurs Fastkursaftale til 07.11.2019;Udbetalingskurs Fastkursaftale til 30.12.2019;Udbetalingskurs Fastkursaftale til 31.03.2020
10 år -0,50 %;97.01;96.8;96.75;96.7;96.6
10 år 0,00 %;100.4;100.35;100.3;100.15;99.9
10 år 0,50 %;101.58;101.55;101.45;101.25;100.85
15 år 0,50 %;101.35;101.12;101.05;100.8;100.45
15 år 1,00 %;102.35;102.31;102.2;101.9;101.4
20 år 0,00 %;94.5;94.3;94.25;94.1;93.85
20 år 0,50 %;98.59;98.35;98.25;98.05;97.7
20 år 1,00 %;101.72;101.58;101.45;101.15;100.65
20 år 1,50 %;102.75;102.7;102.55;102.2;101.55
30 år 0,50 %;95.07;94.97;94.9;94.7;94.3
30 år 0,50 % afdragsfri*;94.22;94.1;94.0;93.8;93.45
30 år 1,00 %;99.18;99.05;98.95;98.65;98.15
30 år 1,00 % afdragsfri*;98.27;98.08;97.95;97.7;97.2
30 år 1,50 %;102.2;101.92;101.8;101.4;100.8
30 år 1,50 % afdragsfri*;101.9;101.75;101.6;101.25;100.6
30 år 2,00 %;102.75;102.78;102.6;102.2;101.4
30 år 2,00 % afdragsfri*;102.65;102.4;102.25;101.8;101.05
30 år 2,50 %;103.15;103.15;102.95;102.45;101.6
30 år 2,50 % afdragsfri*;103.04;103.04;102.85;102.35;101.45
