Type;Tilbudskurs;Aktuel kurs;Udbetalingskurs Fastkursaftale til 07.11.2019;Udbetalingskurs Fastkursaftale til 30.12.2019;Udbetalingskurs Fastkursaftale til 31.03.2020
10 år -0,50 %;97.01;96.8;96.75;96.7;96.6
10 år 0,00 %;100.4;100.33;100.25;100.1;99.85
10 år 0,50 %;101.58;101.5;101.4;101.2;100.8
15 år 0,50 %;101.35;101.1;101.0;100.8;100.4
15 år 1,00 %;102.35;102.25;102.15;101.85;101.35
20 år 0,00 %;94.5;94.15;94.1;93.95;93.7
20 år 0,50 %;98.59;98.2;98.1;97.9;97.55
20 år 1,00 %;101.72;101.5;101.4;101.1;100.6
20 år 1,50 %;102.75;102.7;102.55;102.2;101.55
30 år 0,50 %;95.07;94.8;94.7;94.5;94.15
30 år 0,50 % afdragsfri*;94.22;93.9;93.8;93.6;93.25
30 år 1,00 %;99.18;98.85;98.75;98.45;97.95
30 år 1,00 % afdragsfri*;98.27;97.92;97.8;97.55;97.05
30 år 1,50 %;102.2;101.83;101.7;101.35;100.7
30 år 1,50 % afdragsfri*;101.9;101.62;101.5;101.15;100.5
30 år 2,00 %;102.75;102.8;102.65;102.2;101.45
30 år 2,00 % afdragsfri*;102.65;102.4;102.25;101.8;101.05
30 år 2,50 %;103.15;103.15;102.95;102.45;101.6
30 år 2,50 % afdragsfri*;103.04;103.04;102.85;102.35;101.45
