Type;Tilbudskurs;Aktuel kurs;Udbetalingskurs Fastkursaftale til 29.10.2019;Udbetalingskurs Fastkursaftale til 30.12.2019;Udbetalingskurs Fastkursaftale til 31.03.2020
10 år -0,50 %;97.45;97.45;97.4;97.35;97.2
10 år 0,00 %;100.7;100.65;100.55;100.4;100.15
10 år 0,50 %;101.75;101.75;101.65;101.4;101.0
15 år 0,50 %;101.52;101.58;101.45;101.2;100.85
15 år 1,00 %;102.58;102.4;102.25;101.95;101.45
20 år 0,00 %;95.88;95.93;95.85;95.7;95.45
20 år 0,50 %;99.97;99.83;99.7;99.5;99.1
20 år 1,00 %;102.5;101.97;101.85;101.5;101.0
20 år 1,50 %;102.68;102.67;102.5;102.1;101.45
30 år 0,50 %;96.94;96.8;96.7;96.45;96.1
30 år 0,50 % afdragsfri*;96.03;95.88;95.8;95.55;95.15
30 år 1,00 % afdragsfri*;100.02;99.92;99.8;99.45;98.95
30 år 1,00 %;100.74;100.65;100.5;100.2;99.7
30 år 1,50 %;102.69;102.3;102.15;101.75;101.1
30 år 1,50 % afdragsfri*;102.47;102.2;102.05;101.65;101.0
30 år 2,00 %;102.6;102.65;102.45;101.95;101.2
30 år 2,00 % afdragsfri*;102.35;102.35;102.15;101.65;100.9
30 år 2,50 %;103.15;103.15;102.95;102.35;101.45
30 år 2,50 % afdragsfri*;103.3;103.01;102.8;102.2;101.35
