Type;Tilbudskurs;Aktuel kurs;Udbetalingskurs Fastkursaftale til 18.11.2019;Udbetalingskurs Fastkursaftale til 30.12.2019;Udbetalingskurs Fastkursaftale til 31.03.2020
10 år -0,50 %;96.85;96.65;96.6;96.55;96.45
10 år 0,00 %;100.22;100.15;100.05;99.95;99.7
10 år 0,50 %;101.47;101.45;101.35;101.2;100.8
15 år 0,50 %;100.95;100.92;100.8;100.65;100.3
15 år 1,00 %;102.2;102.15;102.0;101.8;101.3
20 år 0,00 %;94.17;94.05;94.0;93.85;93.65
20 år 0,50 %;98.31;98.0;97.9;97.75;97.35
20 år 1,00 %;101.45;101.39;101.25;101.05;100.55
20 år 1,50 %;102.72;102.7;102.55;102.25;101.65
30 år 0,50 %;94.97;94.7;94.6;94.45;94.1
30 år 0,50 % afdragsfri*;93.86;93.72;93.65;93.45;93.1
30 år 1,00 %;98.99;98.75;98.6;98.4;97.9
30 år 1,00 % afdragsfri*;98.06;97.77;97.65;97.4;96.95
30 år 1,50 %;101.74;101.6;101.45;101.15;100.55
30 år 1,50 % afdragsfri*;101.62;101.33;101.15;100.9;100.25
30 år 2,00 %;102.72;102.7;102.5;102.2;101.4
30 år 2,00 % afdragsfri*;102.38;102.35;102.15;101.85;101.05
30 år 2,50 %;103.1;103.1;102.9;102.5;101.6
30 år 2,50 % afdragsfri*;102.95;102.95;102.75;102.35;101.45
