Type;Tilbudskurs;Aktuel kurs;Udbetalingskurs Fastkursaftale til 18.11.2019;Udbetalingskurs Fastkursaftale til 30.12.2019;Udbetalingskurs Fastkursaftale til 31.03.2020
10 år -0,50 %;96.85;96.58;96.55;96.5;96.35
10 år 0,00 %;100.22;100.1;100.0;99.9;99.65
10 år 0,50 %;101.47;101.45;101.35;101.2;100.8
15 år 0,50 %;100.95;100.88;100.75;100.6;100.25
15 år 1,00 %;102.2;102.17;102.05;101.8;101.3
20 år 0,00 %;94.17;93.88;93.8;93.7;93.45
20 år 0,50 %;98.31;97.8;97.7;97.55;97.15
20 år 1,00 %;101.45;101.38;101.25;101.05;100.55
20 år 1,50 %;102.72;102.8;102.65;102.35;101.75
30 år 0,50 %;94.97;94.5;94.4;94.25;93.9
30 år 0,50 % afdragsfri*;93.86;93.55;93.45;93.3;92.95
30 år 1,00 %;98.99;98.55;98.4;98.2;97.7
30 år 1,00 % afdragsfri*;98.06;97.58;97.45;97.25;96.75
30 år 1,50 %;101.74;101.53;101.4;101.1;100.45
30 år 1,50 % afdragsfri*;101.62;101.25;101.1;100.8;100.2
30 år 2,00 %;102.72;102.7;102.5;102.2;101.4
30 år 2,00 % afdragsfri*;102.38;102.35;102.15;101.85;101.05
30 år 2,50 %;103.1;103.1;102.9;102.5;101.6
30 år 2,50 % afdragsfri*;102.95;102.95;102.75;102.35;101.45
