Type;Tilbudskurs;Aktuel kurs;Udbetalingskurs Fastkursaftale til 18.11.2019;Udbetalingskurs Fastkursaftale til 30.12.2019;Udbetalingskurs Fastkursaftale til 31.03.2020
10 år -0,50 %;96.85;96.62;96.6;96.55;96.4
10 år 0,00 %;100.22;100.15;100.05;99.95;99.7
10 år 0,50 %;101.47;101.45;101.35;101.2;100.8
15 år 0,50 %;100.95;100.9;100.8;100.65;100.25
15 år 1,00 %;102.2;102.15;102.0;101.8;101.3
20 år 0,00 %;94.17;93.95;93.9;93.75;93.55
20 år 0,50 %;98.31;97.9;97.8;97.65;97.25
20 år 1,00 %;101.45;101.32;101.2;100.95;100.45
20 år 1,50 %;102.72;102.8;102.65;102.35;101.75
30 år 0,50 %;94.97;94.6;94.5;94.35;94.0
30 år 0,50 % afdragsfri*;93.86;93.63;93.55;93.35;93.0
30 år 1,00 %;98.99;98.62;98.5;98.3;97.8
30 år 1,00 % afdragsfri*;98.06;97.65;97.5;97.3;96.8
30 år 1,50 %;101.74;101.6;101.45;101.15;100.55
30 år 1,50 % afdragsfri*;101.62;101.3;101.15;100.85;100.25
30 år 2,00 %;102.72;102.7;102.5;102.2;101.4
30 år 2,00 % afdragsfri*;102.38;102.35;102.15;101.85;101.05
30 år 2,50 %;103.1;103.1;102.9;102.5;101.6
30 år 2,50 % afdragsfri*;102.95;102.95;102.75;102.35;101.45
