Type;Tilbudskurs;Aktuel kurs;Udbetalingskurs Fastkursaftale til 05.11.2019;Udbetalingskurs Fastkursaftale til 30.12.2019;Udbetalingskurs Fastkursaftale til 31.03.2020
10 år -0,50 %;97.24;97.17;97.15;97.05;96.95
10 år 0,00 %;100.5;100.45;100.35;100.25;100.0
10 år 0,50 %;101.65;101.6;101.5;101.3;100.9
15 år 0,50 %;101.4;101.35;101.25;101.05;100.65
15 år 1,00 %;102.39;102.4;102.25;101.95;101.45
20 år 0,00 %;94.89;94.55;94.5;94.35;94.1
20 år 0,50 %;98.93;98.6;98.5;98.3;97.9
20 år 1,00 %;102.04;101.88;101.75;101.45;100.95
20 år 1,50 %;102.75;102.75;102.6;102.2;101.6
30 år 0,50 %;95.68;95.4;95.3;95.1;94.75
30 år 0,50 % afdragsfri*;95.02;94.5;94.4;94.2;93.85
30 år 1,00 % afdragsfri*;98.74;98.42;98.3;98.0;97.5
30 år 1,00 %;99.71;99.3;99.15;98.9;98.4
30 år 1,50 %;102.17;102.15;102.0;101.6;101.0
30 år 1,50 % afdragsfri*;102.17;102.05;101.9;101.5;100.9
30 år 2,00 %;102.72;102.72;102.55;102.1;101.35
30 år 2,00 % afdragsfri*;102.4;102.4;102.2;101.75;101.0
30 år 2,50 %;103.15;103.15;102.95;102.4;101.55
30 år 2,50 % afdragsfri*;103.01;103.04;102.85;102.3;101.45
