Type;Tilbudskurs;Aktuel kurs;Udbetalingskurs Fastkursaftale til 05.11.2019;Udbetalingskurs Fastkursaftale til 30.12.2019;Udbetalingskurs Fastkursaftale til 31.03.2020
10 år -0,50 %;97.24;97.1;97.05;97.0;96.9
10 år 0,00 %;100.5;100.47;100.4;100.25;100.0
10 år 0,50 %;101.65;101.6;101.5;101.3;100.9
15 år 0,50 %;101.4;101.33;101.2;101.0;100.65
15 år 1,00 %;102.39;102.4;102.25;101.95;101.45
20 år 0,00 %;94.89;94.65;94.6;94.45;94.2
20 år 0,50 %;98.93;98.65;98.55;98.35;97.95
20 år 1,00 %;102.04;101.89;101.75;101.45;100.95
20 år 1,50 %;102.75;102.75;102.6;102.2;101.6
30 år 0,50 %;95.68;95.3;95.2;95.0;94.65
30 år 0,50 % afdragsfri*;95.02;94.4;94.3;94.1;93.75
30 år 1,00 % afdragsfri*;98.74;98.45;98.3;98.05;97.55
30 år 1,00 %;99.71;99.28;99.15;98.85;98.35
30 år 1,50 %;102.17;102.08;101.9;101.55;100.9
30 år 1,50 % afdragsfri*;102.17;102.0;101.85;101.45;100.85
30 år 2,00 %;102.72;102.75;102.6;102.15;101.35
30 år 2,00 % afdragsfri*;102.4;102.4;102.2;101.75;101.0
30 år 2,50 %;103.15;103.15;102.95;102.4;101.55
30 år 2,50 % afdragsfri*;103.01;103.04;102.85;102.3;101.45
