Type;Tilbudskurs;Aktuel kurs;Udbetalingskurs Fastkursaftale til 28.10.2019;Udbetalingskurs Fastkursaftale til 30.12.2019;Udbetalingskurs Fastkursaftale til 31.03.2020
10 år -0,50 %;97.6;97.45;97.4;97.35;97.2
10 år 0,00 %;100.86;100.65;100.55;100.4;100.15
10 år 0,50 %;101.75;101.75;101.65;101.4;101.0
15 år 0,50 %;101.52;101.52;101.4;101.15;100.8
15 år 1,00 %;102.45;102.4;102.25;101.95;101.45
20 år 0,00 %;95.94;95.85;95.8;95.6;95.4
20 år 0,50 %;99.97;99.8;99.7;99.45;99.1
20 år 1,00 %;102.22;101.96;101.85;101.5;101.0
20 år 1,50 %;102.73;102.68;102.55;102.1;101.45
30 år 0,50 %;96.98;96.75;96.65;96.4;96.05
30 år 0,50 % afdragsfri*;95.99;95.83;95.75;95.5;95.1
30 år 1,00 % afdragsfri*;99.99;99.88;99.75;99.4;98.9
30 år 1,00 %;100.83;100.58;100.45;100.1;99.6
30 år 1,50 %;102.4;102.33;102.15;101.75;101.1
30 år 1,50 % afdragsfri*;102.4;102.2;102.05;101.6;101.0
30 år 2,00 %;102.61;102.64;102.45;101.95;101.2
30 år 2,00 % afdragsfri*;102.75;102.35;102.15;101.65;100.9
30 år 2,50 %;103.15;103.15;102.95;102.35;101.45
30 år 2,50 % afdragsfri*;103.14;103.04;102.85;102.25;101.35
