Type;Tilbudskurs;Aktuel kurs;Udbetalingskurs Fastkursaftale til 28.10.2019;Udbetalingskurs Fastkursaftale til 30.12.2019;Udbetalingskurs Fastkursaftale til 31.03.2020
10 år -0,50 %;97.6;97.45;97.4;97.35;97.2
10 år 0,00 %;100.86;100.7;100.6;100.45;100.2
10 år 0,50 %;101.75;101.75;101.65;101.4;101.0
15 år 0,50 %;101.52;101.52;101.4;101.15;100.8
15 år 1,00 %;102.45;102.42;102.3;101.95;101.45
20 år 0,00 %;95.94;95.9;95.85;95.65;95.45
20 år 0,50 %;99.97;99.83;99.7;99.45;99.1
20 år 1,00 %;102.22;101.96;101.85;101.5;101.0
20 år 1,50 %;102.73;102.68;102.55;102.1;101.45
30 år 0,50 %;96.98;96.83;96.75;96.5;96.1
30 år 0,50 % afdragsfri*;95.99;95.92;95.85;95.6;95.2
30 år 1,00 % afdragsfri*;99.99;99.93;99.8;99.45;98.95
30 år 1,00 %;100.83;100.65;100.5;100.2;99.7
30 år 1,50 %;102.4;102.3;102.15;101.7;101.1
30 år 1,50 % afdragsfri*;102.4;102.17;102.0;101.6;100.95
30 år 2,00 %;102.61;102.6;102.4;101.9;101.15
30 år 2,00 % afdragsfri*;102.75;102.35;102.15;101.65;100.9
30 år 2,50 %;103.15;103.15;102.95;102.35;101.45
30 år 2,50 % afdragsfri*;103.14;103.04;102.85;102.25;101.35
