Type;Tilbudskurs;Aktuel kurs;Udbetalingskurs Fastkursaftale til 28.10.2019;Udbetalingskurs Fastkursaftale til 30.12.2019;Udbetalingskurs Fastkursaftale til 31.03.2020
10 år -0,50 %;97.6;97.3;97.25;97.2;97.05
10 år 0,00 %;100.86;100.47;100.4;100.25;100.0
10 år 0,50 %;101.75;101.6;101.5;101.25;100.85
15 år 0,50 %;101.52;101.37;101.25;101.0;100.65
15 år 1,00 %;102.45;102.3;102.15;101.85;101.35
20 år 0,00 %;95.94;95.7;95.65;95.45;95.25
20 år 0,50 %;99.97;99.65;99.55;99.3;98.95
20 år 1,00 %;102.22;101.81;101.7;101.35;100.85
20 år 1,50 %;102.73;102.53;102.4;101.95;101.3
30 år 0,50 %;96.98;96.62;96.55;96.3;95.9
30 år 0,50 % afdragsfri*;95.99;95.7;95.6;95.35;95.0
30 år 1,00 % afdragsfri*;99.99;99.7;99.55;99.25;98.75
30 år 1,00 %;100.83;100.45;100.3;100.0;99.5
30 år 1,50 %;102.4;102.17;102.0;101.6;100.95
30 år 1,50 % afdragsfri*;102.4;102.05;101.9;101.45;100.85
30 år 2,00 %;102.61;102.47;102.3;101.8;101.05
30 år 2,00 % afdragsfri*;102.75;102.2;102.0;101.5;100.75
30 år 2,50 %;103.15;103.0;102.8;102.2;101.3
30 år 2,50 % afdragsfri*;103.14;102.89;102.7;102.1;101.2
