Type;Tilbudskurs;Aktuel kurs;Udbetalingskurs Fastkursaftale til 05.12.2019;Udbetalingskurs Fastkursaftale til 30.12.2019;Udbetalingskurs Fastkursaftale til 31.03.2020
10 år -0,50 %;96.47;96.33;96.3;96.25;96.15
10 år 0,00 %;99.83;99.65;99.6;99.5;99.25
10 år 0,50 %;101.1;100.95;100.85;100.75;100.4
15 år 0,50 %;100.55;100.4;100.3;100.2;99.85
15 år 1,00 %;102.25;101.92;101.8;101.65;101.15
20 år 0,00 %;93.47;93.4;93.35;93.25;93.05
20 år 0,50 %;97.63;97.42;97.35;97.25;96.85
20 år 1,00 %;100.95;100.81;100.7;100.55;100.05
20 år 1,50 %;102.65;102.5;102.35;102.2;101.55
30 år 0,50 %;94.32;94.15;94.05;93.95;93.6
30 år 0,50 % afdragsfri*;93.3;93.22;93.15;93.05;92.7
30 år 1,00 %;98.4;98.22;98.1;98.0;97.5
30 år 1,00 % afdragsfri*;97.51;97.28;97.15;97.05;96.55
30 år 1,50 %;101.19;100.9;100.75;100.6;99.95
30 år 1,50 % afdragsfri*;101.21;100.47;100.35;100.15;99.55
30 år 2,00 %;102.42;102.28;102.1;101.9;101.15
30 år 2,00 % afdragsfri*;102.37;101.81;101.65;101.45;100.7
30 år 2,50 %;103.0;102.85;102.65;102.4;101.55
30 år 2,50 % afdragsfri*;102.54;102.39;102.2;101.95;101.1
