Type;Tilbudskurs;Aktuel kurs;Udbetalingskurs Fastkursaftale til 05.12.2019;Udbetalingskurs Fastkursaftale til 30.12.2019;Udbetalingskurs Fastkursaftale til 31.03.2020
10 år -0,50 %;96.47;96.53;96.5;96.45;96.35
10 år 0,00 %;99.83;99.8;99.75;99.65;99.4
10 år 0,50 %;101.1;101.1;101.0;100.9;100.55
15 år 0,50 %;100.55;100.65;100.55;100.45;100.1
15 år 1,00 %;102.25;102.12;102.0;101.85;101.35
20 år 0,00 %;93.47;93.72;93.65;93.6;93.35
20 år 0,50 %;97.63;97.75;97.65;97.55;97.2
20 år 1,00 %;100.95;101.02;100.9;100.75;100.25
20 år 1,50 %;102.65;102.65;102.5;102.35;101.7
30 år 0,50 %;94.32;94.5;94.4;94.3;93.95
30 år 0,50 % afdragsfri*;93.3;93.58;93.5;93.4;93.05
30 år 1,00 %;98.4;98.53;98.4;98.3;97.8
30 år 1,00 % afdragsfri*;97.51;97.62;97.5;97.4;96.9
30 år 1,50 %;101.19;101.1;100.95;100.8;100.15
30 år 1,50 % afdragsfri*;101.21;100.67;100.55;100.35;99.75
30 år 2,00 %;102.42;102.4;102.25;102.05;101.3
30 år 2,00 % afdragsfri*;102.37;101.96;101.8;101.6;100.85
30 år 2,50 %;103.0;103.0;102.8;102.55;101.7
30 år 2,50 % afdragsfri*;102.54;102.53;102.35;102.1;101.25
