Type;Tilbudskurs;Aktuel kurs;Udbetalingskurs Fastkursaftale til 05.12.2019;Udbetalingskurs Fastkursaftale til 30.12.2019;Udbetalingskurs Fastkursaftale til 31.03.2020
10 år -0,50 %;96.47;96.5;96.45;96.4;96.3
10 år 0,00 %;99.83;99.8;99.75;99.65;99.4
10 år 0,50 %;101.1;101.1;101.0;100.9;100.55
15 år 0,50 %;100.55;100.55;100.45;100.35;100.0
15 år 1,00 %;102.25;102.12;102.0;101.85;101.35
20 år 0,00 %;93.47;93.55;93.5;93.4;93.2
20 år 0,50 %;97.63;97.63;97.55;97.45;97.1
20 år 1,00 %;100.95;101.0;100.9;100.75;100.25
20 år 1,50 %;102.65;102.65;102.5;102.35;101.7
30 år 0,50 %;94.32;94.35;94.25;94.15;93.8
30 år 0,50 % afdragsfri*;93.3;93.4;93.3;93.2;92.85
30 år 1,00 %;98.4;98.43;98.3;98.2;97.7
30 år 1,00 % afdragsfri*;97.51;97.43;97.3;97.2;96.7
30 år 1,50 %;101.19;101.05;100.9;100.75;100.1
30 år 1,50 % afdragsfri*;101.21;100.67;100.55;100.35;99.75
30 år 2,00 %;102.42;102.42;102.25;102.05;101.3
30 år 2,00 % afdragsfri*;102.37;101.96;101.8;101.6;100.85
30 år 2,50 %;103.0;103.0;102.8;102.55;101.7
30 år 2,50 % afdragsfri*;102.54;102.54;102.35;102.1;101.25
