Type;Tilbudskurs;Aktuel kurs;Udbetalingskurs Fastkursaftale til 21.11.2019;Udbetalingskurs Fastkursaftale til 30.12.2019;Udbetalingskurs Fastkursaftale til 31.03.2020
10 år -0,50 %;96.65;96.47;96.45;96.4;96.25
10 år 0,00 %;100.1;99.97;99.9;99.8;99.55
10 år 0,50 %;101.38;101.23;101.15;101.0;100.6
15 år 0,50 %;100.85;100.68;100.6;100.45;100.05
15 år 1,00 %;102.17;102.03;101.9;101.7;101.2
20 år 0,00 %;93.9;93.78;93.7;93.6;93.4
20 år 0,50 %;97.97;97.7;97.6;97.45;97.1
20 år 1,00 %;101.31;101.17;101.05;100.85;100.35
20 år 1,50 %;102.92;102.62;102.5;102.2;101.6
30 år 0,50 %;94.66;94.38;94.3;94.15;93.8
30 år 0,50 % afdragsfri*;93.65;93.42;93.35;93.2;92.85
30 år 1,00 %;98.73;98.47;98.35;98.15;97.65
30 år 1,00 % afdragsfri*;97.77;97.53;97.4;97.2;96.7
30 år 1,50 %;101.47;101.35;101.2;100.95;100.3
30 år 1,50 % afdragsfri*;101.17;101.0;100.85;100.6;99.95
30 år 2,00 %;102.75;102.56;102.4;102.1;101.3
30 år 2,00 % afdragsfri*;102.43;102.28;102.1;101.8;101.05
30 år 2,50 %;103.1;102.95;102.75;102.4;101.5
30 år 2,50 % afdragsfri*;102.92;102.77;102.6;102.2;101.35
