Type;Tilbudskurs;Aktuel kurs;Udbetalingskurs Fastkursaftale til 21.11.2019;Udbetalingskurs Fastkursaftale til 30.12.2019;Udbetalingskurs Fastkursaftale til 31.03.2020
10 år -0,50 %;96.65;96.62;96.6;96.55;96.4
10 år 0,00 %;100.1;100.1;100.05;99.95;99.7
10 år 0,50 %;101.38;101.38;101.3;101.15;100.75
15 år 0,50 %;100.85;100.83;100.75;100.6;100.2
15 år 1,00 %;102.17;102.17;102.05;101.85;101.35
20 år 0,00 %;93.9;94.03;93.95;93.85;93.65
20 år 0,50 %;97.97;98.0;97.9;97.75;97.4
20 år 1,00 %;101.31;101.32;101.2;101.0;100.5
20 år 1,50 %;102.92;102.75;102.6;102.35;101.7
30 år 0,50 %;94.66;94.67;94.6;94.45;94.1
30 år 0,50 % afdragsfri*;93.65;93.72;93.65;93.5;93.15
30 år 1,00 %;98.73;98.78;98.65;98.45;97.95
30 år 1,00 % afdragsfri*;97.77;97.8;97.7;97.5;97.0
30 år 1,50 %;101.47;101.54;101.4;101.15;100.5
30 år 1,50 % afdragsfri*;101.17;101.12;101.0;100.7;100.1
30 år 2,00 %;102.75;102.71;102.55;102.25;101.45
30 år 2,00 % afdragsfri*;102.43;102.43;102.25;101.95;101.2
30 år 2,50 %;103.1;103.1;102.9;102.55;101.65
30 år 2,50 % afdragsfri*;102.92;102.92;102.75;102.35;101.5
